Class,Images,Instances,P,R,mAP50,mAP50-95,Dataset,Architecture
all,100,500,0.962,1,0.995,0.692,fore-fetlock-lateromedial,yolov5n6
Metacarpal,100,100,0.888,1,0.995,0.698,fore-fetlock-lateromedial,yolov5n6
Fetlock,100,100,0.93,1,0.995,0.725,fore-fetlock-lateromedial,yolov5n6
Lateral Sesamoid,100,100,0.999,1,0.995,0.596,fore-fetlock-lateromedial,yolov5n6
Medial Sesamoid,100,100,1,1,0.995,0.618,fore-fetlock-lateromedial,yolov5n6
Proximal Phalanx,100,100,0.995,1,0.995,0.821,fore-fetlock-lateromedial,yolov5n6
all,100,500,0.986,1,0.995,0.695,fore-fetlock-lateromedial,yolov5n
Metacarpal,100,100,0.99,1,0.995,0.696,fore-fetlock-lateromedial,yolov5n
Fetlock,100,100,0.947,1,0.995,0.672,fore-fetlock-lateromedial,yolov5n
Lateral Sesamoid,100,100,0.999,1,0.995,0.614,fore-fetlock-lateromedial,yolov5n
Medial Sesamoid,100,100,0.999,1,0.995,0.642,fore-fetlock-lateromedial,yolov5n
Proximal Phalanx,100,100,0.995,1,0.995,0.853,fore-fetlock-lateromedial,yolov5n
all,100,500,0.99,1,0.995,0.744,fore-fetlock-lateromedial,yolov5m
Metacarpal,100,100,0.991,1,0.995,0.738,fore-fetlock-lateromedial,yolov5m
Fetlock,100,100,0.967,1,0.995,0.746,fore-fetlock-lateromedial,yolov5m
Lateral Sesamoid,100,100,0.999,1,0.995,0.663,fore-fetlock-lateromedial,yolov5m
Medial Sesamoid,100,100,0.999,1,0.995,0.693,fore-fetlock-lateromedial,yolov5m
Proximal Phalanx,100,100,0.994,1,0.995,0.878,fore-fetlock-lateromedial,yolov5m
all,100,500,0.988,1,0.995,0.725,fore-fetlock-lateromedial,yolov5s
Metacarpal,100,100,0.992,1,0.995,0.736,fore-fetlock-lateromedial,yolov5s
Fetlock,100,100,0.958,1,0.995,0.701,fore-fetlock-lateromedial,yolov5s
Lateral Sesamoid,100,100,0.998,1,0.995,0.649,fore-fetlock-lateromedial,yolov5s
Medial Sesamoid,100,100,0.999,1,0.995,0.684,fore-fetlock-lateromedial,yolov5s
Proximal Phalanx,100,100,0.994,1,0.995,0.857,fore-fetlock-lateromedial,yolov5s
all,100,500,0.77,0.98,0.847,0.589,fore-fetlock-lateromedial-lysis,yolov5n6
Condyles of the third Metacarpal without Supracondylar Lysis,100,75,0.619,1,0.855,0.579,fore-fetlock-lateromedial-lysis,yolov5n6
Fetlock,100,100,0.794,1,0.995,0.698,fore-fetlock-lateromedial-lysis,yolov5n6
Lateral Sesamoid,100,100,0.991,1,0.995,0.612,fore-fetlock-lateromedial-lysis,yolov5n6
Medial Sesamoid,100,100,0.991,1,0.995,0.64,fore-fetlock-lateromedial-lysis,yolov5n6
Proximal Phalanx,100,100,0.992,1,0.995,0.833,fore-fetlock-lateromedial-lysis,yolov5n6
Condyles of the third Metacarpal with Supracondylar Lysis,100,25,0.234,0.882,0.249,0.172,fore-fetlock-lateromedial-lysis,yolov5n6
all,100,500,0.773,0.951,0.849,0.603,fore-fetlock-lateromedial-lysis,yolov5n
Condyles of the third Metacarpal without Supracondylar Lysis,100,75,0.743,1,0.776,0.57,fore-fetlock-lateromedial-lysis,yolov5n
Fetlock,100,100,0.687,1,0.995,0.715,fore-fetlock-lateromedial-lysis,yolov5n
Lateral Sesamoid,100,100,0.994,1,0.995,0.612,fore-fetlock-lateromedial-lysis,yolov5n
Medial Sesamoid,100,100,0.993,1,0.995,0.64,fore-fetlock-lateromedial-lysis,yolov5n
Proximal Phalanx,100,100,0.992,1,0.995,0.846,fore-fetlock-lateromedial-lysis,yolov5n
Condyles of the third Metacarpal with Supracondylar Lysis,100,25,0.227,0.706,0.339,0.234,fore-fetlock-lateromedial-lysis,yolov5n
all,100,500,0.773,1,0.85,0.628,fore-fetlock-lateromedial-lysis,yolov5m
Condyles of the third Metacarpal without Supracondylar Lysis,100,75,0.667,1,0.807,0.59,fore-fetlock-lateromedial-lysis,yolov5m
Fetlock,100,100,0.746,1,0.995,0.721,fore-fetlock-lateromedial-lysis,yolov5m
Lateral Sesamoid,100,100,0.991,1,0.995,0.663,fore-fetlock-lateromedial-lysis,yolov5m
Medial Sesamoid,100,100,0.992,1,0.995,0.696,fore-fetlock-lateromedial-lysis,yolov5m
Proximal Phalanx,100,100,0.992,1,0.995,0.862,fore-fetlock-lateromedial-lysis,yolov5m
Condyles of the third Metacarpal with Supracondylar Lysis,100,25,0.25,1,0.313,0.234,fore-fetlock-lateromedial-lysis,yolov5m
all,100,500,0.788,0.973,0.845,0.614,fore-fetlock-lateromedial-lysis,yolov5s
Condyles of the third Metacarpal without Supracondylar Lysis,100,75,0.731,1,0.826,0.607,fore-fetlock-lateromedial-lysis,yolov5s
Fetlock,100,100,0.771,1,0.995,0.71,fore-fetlock-lateromedial-lysis,yolov5s
Lateral Sesamoid,100,100,0.994,1,0.995,0.638,fore-fetlock-lateromedial-lysis,yolov5s
Medial Sesamoid,100,100,0.994,1,0.995,0.671,fore-fetlock-lateromedial-lysis,yolov5s
Proximal Phalanx,100,100,0.992,1,0.995,0.863,fore-fetlock-lateromedial-lysis,yolov5s
Condyles of the third Metacarpal with Supracondylar Lysis,100,25,0.247,0.84,0.266,0.192,fore-fetlock-lateromedial-lysis,yolov5s
all,100,500,0.764,0.981,0.84,0.545,fore-fetlock-lateromedial-lysis-balanced,yolov5n6
Condyles of the third Metacarpal without Supracondylar Lysis,100,75,0.745,0.894,0.775,0.52,fore-fetlock-lateromedial-lysis-balanced,yolov5n6
Fetlock,100,100,0.615,1,0.995,0.623,fore-fetlock-lateromedial-lysis-balanced,yolov5n6
Lateral Sesamoid,100,100,0.996,1,0.995,0.568,fore-fetlock-lateromedial-lysis-balanced,yolov5n6
Medial Sesamoid,100,100,0.986,0.99,0.985,0.571,fore-fetlock-lateromedial-lysis-balanced,yolov5n6
Proximal Phalanx,100,100,0.992,1,0.995,0.795,fore-fetlock-lateromedial-lysis-balanced,yolov5n6
Condyles of the third Metacarpal with Supracondylar Lysis,100,25,0.25,1,0.293,0.195,fore-fetlock-lateromedial-lysis-balanced,yolov5n6
all,100,500,0.811,0.998,0.84,0.551,fore-fetlock-lateromedial-lysis-balanced,yolov5n
Condyles of the third Metacarpal without Supracondylar Lysis,100,75,0.748,0.987,0.771,0.514,fore-fetlock-lateromedial-lysis-balanced,yolov5n
Fetlock,100,100,0.876,1,0.995,0.627,fore-fetlock-lateromedial-lysis-balanced,yolov5n
Lateral Sesamoid,100,100,0.998,1,0.995,0.556,fore-fetlock-lateromedial-lysis-balanced,yolov5n
Medial Sesamoid,100,100,0.998,1,0.995,0.592,fore-fetlock-lateromedial-lysis-balanced,yolov5n
Proximal Phalanx,100,100,0.994,1,0.995,0.833,fore-fetlock-lateromedial-lysis-balanced,yolov5n
Condyles of the third Metacarpal with Supracondylar Lysis,100,25,0.25,1,0.29,0.187,fore-fetlock-lateromedial-lysis-balanced,yolov5n
all,100,500,0.818,0.998,0.85,0.599,fore-fetlock-lateromedial-lysis-balanced,yolov5m
Condyles of the third Metacarpal without Supracondylar Lysis,100,75,0.748,1,0.775,0.561,fore-fetlock-lateromedial-lysis-balanced,yolov5m
Fetlock,100,100,0.944,1,0.995,0.695,fore-fetlock-lateromedial-lysis-balanced,yolov5m
Lateral Sesamoid,100,100,0.995,1,0.995,0.614,fore-fetlock-lateromedial-lysis-balanced,yolov5m
Medial Sesamoid,100,100,0.985,0.99,0.982,0.642,fore-fetlock-lateromedial-lysis-balanced,yolov5m
Proximal Phalanx,100,100,0.993,1,0.995,0.837,fore-fetlock-lateromedial-lysis-balanced,yolov5m
Condyles of the third Metacarpal with Supracondylar Lysis,100,25,0.245,1,0.358,0.243,fore-fetlock-lateromedial-lysis-balanced,yolov5m
all,100,500,0.805,0.997,0.844,0.578,fore-fetlock-lateromedial-lysis-balanced,yolov5s
Condyles of the third Metacarpal without Supracondylar Lysis,100,75,0.747,0.984,0.801,0.554,fore-fetlock-lateromedial-lysis-balanced,yolov5s
Fetlock,100,100,0.846,1,0.995,0.653,fore-fetlock-lateromedial-lysis-balanced,yolov5s
Lateral Sesamoid,100,100,0.997,1,0.995,0.602,fore-fetlock-lateromedial-lysis-balanced,yolov5s
Medial Sesamoid,100,100,0.997,1,0.995,0.647,fore-fetlock-lateromedial-lysis-balanced,yolov5s
Proximal Phalanx,100,100,0.994,1,0.995,0.82,fore-fetlock-lateromedial-lysis-balanced,yolov5s
Condyles of the third Metacarpal with Supracondylar Lysis,100,25,0.249,1,0.281,0.192,fore-fetlock-lateromedial-lysis-balanced,yolov5s
all,100,500,0.749,0.99,0.847,0.519,fore-fetlock-lateromedial-lysis-image-balanced,yolov5n6
Condyles of the third Metacarpal without Supracondylar Lysis,100,75,0.756,0.948,0.776,0.499,fore-fetlock-lateromedial-lysis-image-balanced,yolov5n6
Fetlock,100,100,0.516,1,0.995,0.573,fore-fetlock-lateromedial-lysis-image-balanced,yolov5n6
Lateral Sesamoid,100,100,0.995,1,0.995,0.566,fore-fetlock-lateromedial-lysis-image-balanced,yolov5n6
Medial Sesamoid,100,100,0.983,0.99,0.984,0.565,fore-fetlock-lateromedial-lysis-image-balanced,yolov5n6
Proximal Phalanx,100,100,0.993,1,0.995,0.721,fore-fetlock-lateromedial-lysis-image-balanced,yolov5n6
Condyles of the third Metacarpal with Supracondylar Lysis,100,25,0.249,1,0.335,0.19,fore-fetlock-lateromedial-lysis-image-balanced,yolov5n6
all,100,500,0.789,0.995,0.836,0.528,fore-fetlock-lateromedial-lysis-image-balanced,yolov5n
Condyles of the third Metacarpal without Supracondylar Lysis,100,75,0.744,0.967,0.762,0.484,fore-fetlock-lateromedial-lysis-image-balanced,yolov5n
Fetlock,100,100,0.754,1,0.995,0.571,fore-fetlock-lateromedial-lysis-image-balanced,yolov5n
Lateral Sesamoid,100,100,0.996,1,0.995,0.574,fore-fetlock-lateromedial-lysis-image-balanced,yolov5n
Medial Sesamoid,100,100,0.997,1,0.995,0.573,fore-fetlock-lateromedial-lysis-image-balanced,yolov5n
Proximal Phalanx,100,100,0.992,1,0.995,0.796,fore-fetlock-lateromedial-lysis-image-balanced,yolov5n
Condyles of the third Metacarpal with Supracondylar Lysis,100,25,0.249,1,0.272,0.168,fore-fetlock-lateromedial-lysis-image-balanced,yolov5n
all,100,500,0.81,1,0.859,0.586,fore-fetlock-lateromedial-lysis-image-balanced,yolov5m
Condyles of the third Metacarpal without Supracondylar Lysis,100,75,0.75,1,0.867,0.579,fore-fetlock-lateromedial-lysis-image-balanced,yolov5m
Fetlock,100,100,0.881,1,0.995,0.661,fore-fetlock-lateromedial-lysis-image-balanced,yolov5m
Lateral Sesamoid,100,100,0.995,1,0.995,0.601,fore-fetlock-lateromedial-lysis-image-balanced,yolov5m
Medial Sesamoid,100,100,0.995,1,0.995,0.635,fore-fetlock-lateromedial-lysis-image-balanced,yolov5m
Proximal Phalanx,100,100,0.992,1,0.995,0.832,fore-fetlock-lateromedial-lysis-image-balanced,yolov5m
Condyles of the third Metacarpal with Supracondylar Lysis,100,25,0.248,1,0.309,0.208,fore-fetlock-lateromedial-lysis-image-balanced,yolov5m
all,100,500,0.811,0.993,0.857,0.569,fore-fetlock-lateromedial-lysis-image-balanced,yolov5s
Condyles of the third Metacarpal without Supracondylar Lysis,100,75,0.746,0.96,0.755,0.498,fore-fetlock-lateromedial-lysis-image-balanced,yolov5s
Fetlock,100,100,0.887,1,0.995,0.633,fore-fetlock-lateromedial-lysis-image-balanced,yolov5s
Lateral Sesamoid,100,100,0.994,1,0.995,0.606,fore-fetlock-lateromedial-lysis-image-balanced,yolov5s
Medial Sesamoid,100,100,0.995,1,0.995,0.618,fore-fetlock-lateromedial-lysis-image-balanced,yolov5s
Proximal Phalanx,100,100,0.994,1,0.995,0.795,fore-fetlock-lateromedial-lysis-image-balanced,yolov5s
Condyles of the third Metacarpal with Supracondylar Lysis,100,25,0.25,1,0.409,0.265,fore-fetlock-lateromedial-lysis-image-balanced,yolov5s
all,100,500,0.811,1,0.85,0.592,fore-fetlock-lateromedial-lysis_with_weights,yolov5n6
Condyles of the third Metacarpal without Supracondylar Lysis,100,75,0.75,1,0.849,0.608,fore-fetlock-lateromedial-lysis_with_weights,yolov5n6
Fetlock,100,100,0.881,1,0.995,0.7,fore-fetlock-lateromedial-lysis_with_weights,yolov5n6
Lateral Sesamoid,100,100,0.995,1,0.995,0.597,fore-fetlock-lateromedial-lysis_with_weights,yolov5n6
Medial Sesamoid,100,100,0.996,1,0.995,0.626,fore-fetlock-lateromedial-lysis_with_weights,yolov5n6
Proximal Phalanx,100,100,0.994,1,0.995,0.841,fore-fetlock-lateromedial-lysis_with_weights,yolov5n6
Condyles of the third Metacarpal with Supracondylar Lysis,100,25,0.248,1,0.271,0.182,fore-fetlock-lateromedial-lysis_with_weights,yolov5n6
all,100,500,0.812,1,0.844,0.591,fore-fetlock-lateromedial-lysis_with_weights,yolov5n
Condyles of the third Metacarpal without Supracondylar Lysis,100,75,0.749,1,0.801,0.585,fore-fetlock-lateromedial-lysis_with_weights,yolov5n
Fetlock,100,100,0.888,1,0.995,0.691,fore-fetlock-lateromedial-lysis_with_weights,yolov5n
Lateral Sesamoid,100,100,0.996,1,0.995,0.601,fore-fetlock-lateromedial-lysis_with_weights,yolov5n
Medial Sesamoid,100,100,0.996,1,0.995,0.632,fore-fetlock-lateromedial-lysis_with_weights,yolov5n
Proximal Phalanx,100,100,0.993,1,0.995,0.843,fore-fetlock-lateromedial-lysis_with_weights,yolov5n
Condyles of the third Metacarpal with Supracondylar Lysis,100,25,0.248,1,0.281,0.191,fore-fetlock-lateromedial-lysis_with_weights,yolov5n
all,100,500,0.811,1,0.847,0.625,fore-fetlock-lateromedial-lysis_with_weights,yolov5m
Condyles of the third Metacarpal without Supracondylar Lysis,100,75,0.749,1,0.818,0.611,fore-fetlock-lateromedial-lysis_with_weights,yolov5m
Fetlock,100,100,0.887,1,0.995,0.738,fore-fetlock-lateromedial-lysis_with_weights,yolov5m
Lateral Sesamoid,100,100,0.995,1,0.995,0.636,fore-fetlock-lateromedial-lysis_with_weights,yolov5m
Medial Sesamoid,100,100,0.994,1,0.995,0.683,fore-fetlock-lateromedial-lysis_with_weights,yolov5m
Proximal Phalanx,100,100,0.993,1,0.995,0.865,fore-fetlock-lateromedial-lysis_with_weights,yolov5m
Condyles of the third Metacarpal with Supracondylar Lysis,100,25,0.247,1,0.287,0.216,fore-fetlock-lateromedial-lysis_with_weights,yolov5m
all,100,500,0.805,1,0.85,0.614,fore-fetlock-lateromedial-lysis_with_weights,yolov5s
Condyles of the third Metacarpal without Supracondylar Lysis,100,75,0.753,1,0.856,0.631,fore-fetlock-lateromedial-lysis_with_weights,yolov5s
Fetlock,100,100,0.848,1,0.995,0.732,fore-fetlock-lateromedial-lysis_with_weights,yolov5s
Lateral Sesamoid,100,100,0.995,1,0.995,0.623,fore-fetlock-lateromedial-lysis_with_weights,yolov5s
Medial Sesamoid,100,100,0.995,1,0.995,0.651,fore-fetlock-lateromedial-lysis_with_weights,yolov5s
Proximal Phalanx,100,100,0.993,1,0.995,0.858,fore-fetlock-lateromedial-lysis_with_weights,yolov5s
Condyles of the third Metacarpal with Supracondylar Lysis,100,25,0.248,1,0.266,0.19,fore-fetlock-lateromedial-lysis_with_weights,yolov5s
all,100,500,0.791,0.989,0.842,0.541,fore-fetlock-lateromedial-lysis-balanced_with_weights,yolov5n6
Condyles of the third Metacarpal without Supracondylar Lysis,100,75,0.758,0.947,0.793,0.517,fore-fetlock-lateromedial-lysis-balanced_with_weights,yolov5n6
Fetlock,100,100,0.757,1,0.995,0.603,fore-fetlock-lateromedial-lysis-balanced_with_weights,yolov5n6
Lateral Sesamoid,100,100,0.999,1,0.995,0.583,fore-fetlock-lateromedial-lysis-balanced_with_weights,yolov5n6
Medial Sesamoid,100,100,0.988,0.99,0.985,0.566,fore-fetlock-lateromedial-lysis-balanced_with_weights,yolov5n6
Proximal Phalanx,100,100,0.994,1,0.995,0.791,fore-fetlock-lateromedial-lysis-balanced_with_weights,yolov5n6
Condyles of the third Metacarpal with Supracondylar Lysis,100,25,0.25,1,0.29,0.189,fore-fetlock-lateromedial-lysis-balanced_with_weights,yolov5n6
all,100,500,0.802,0.999,0.849,0.554,fore-fetlock-lateromedial-lysis-balanced_with_weights,yolov5n
Condyles of the third Metacarpal without Supracondylar Lysis,100,75,0.749,0.996,0.762,0.509,fore-fetlock-lateromedial-lysis-balanced_with_weights,yolov5n
Fetlock,100,100,0.824,1,0.995,0.603,fore-fetlock-lateromedial-lysis-balanced_with_weights,yolov5n
Lateral Sesamoid,100,100,0.998,1,0.995,0.579,fore-fetlock-lateromedial-lysis-balanced_with_weights,yolov5n
Medial Sesamoid,100,100,0.998,1,0.995,0.596,fore-fetlock-lateromedial-lysis-balanced_with_weights,yolov5n
Proximal Phalanx,100,100,0.994,1,0.995,0.794,fore-fetlock-lateromedial-lysis-balanced_with_weights,yolov5n
Condyles of the third Metacarpal with Supracondylar Lysis,100,25,0.25,1,0.35,0.242,fore-fetlock-lateromedial-lysis-balanced_with_weights,yolov5n
all,100,500,0.812,1,0.84,0.591,fore-fetlock-lateromedial-lysis-balanced_with_weights,yolov5m
Condyles of the third Metacarpal without Supracondylar Lysis,100,75,0.749,1,0.772,0.563,fore-fetlock-lateromedial-lysis-balanced_with_weights,yolov5m
Fetlock,100,100,0.899,1,0.995,0.677,fore-fetlock-lateromedial-lysis-balanced_with_weights,yolov5m
Lateral Sesamoid,100,100,0.995,1,0.995,0.615,fore-fetlock-lateromedial-lysis-balanced_with_weights,yolov5m
Medial Sesamoid,100,100,0.995,1,0.995,0.638,fore-fetlock-lateromedial-lysis-balanced_with_weights,yolov5m
Proximal Phalanx,100,100,0.992,1,0.995,0.85,fore-fetlock-lateromedial-lysis-balanced_with_weights,yolov5m
Condyles of the third Metacarpal with Supracondylar Lysis,100,25,0.244,1,0.288,0.205,fore-fetlock-lateromedial-lysis-balanced_with_weights,yolov5m
all,100,500,0.809,0.998,0.842,0.58,fore-fetlock-lateromedial-lysis-balanced_with_weights,yolov5s
Condyles of the third Metacarpal without Supracondylar Lysis,100,75,0.748,0.99,0.803,0.578,fore-fetlock-lateromedial-lysis-balanced_with_weights,yolov5s
Fetlock,100,100,0.877,1,0.995,0.648,fore-fetlock-lateromedial-lysis-balanced_with_weights,yolov5s
Lateral Sesamoid,100,100,0.994,1,0.995,0.606,fore-fetlock-lateromedial-lysis-balanced_with_weights,yolov5s
Medial Sesamoid,100,100,0.992,1,0.995,0.627,fore-fetlock-lateromedial-lysis-balanced_with_weights,yolov5s
Proximal Phalanx,100,100,0.994,1,0.995,0.832,fore-fetlock-lateromedial-lysis-balanced_with_weights,yolov5s
Condyles of the third Metacarpal with Supracondylar Lysis,100,25,0.249,1,0.269,0.191,fore-fetlock-lateromedial-lysis-balanced_with_weights,yolov5s
