1 0.4651735075863533 0.46387637412561444 0.469662927177813 0.3486331415108718
4 0.49354294373586527 0.7136070055477832 0.3428235962897324 0.3678630982578781
2 0.37533333333333324 0.4217724288840259 0.15599999999999994 0.15645514223194737
3 0.5518526141365494 0.41000190798724956 0.18446299235691904 0.1762659757958403
0 0.43623293983409495 0.3905472819217657 0.415449302474004 0.43199044306992135
