1 0.42266666666666663 0.554471544715447 0.37066666666666653 0.44227642276422763
4 0.4553654275328665 0.7946429497170497 0.2730601121040279 0.3824801063870655
2 0.5011808037997271 0.4949645999262856 0.10138369163579462 0.16733309166379193
3 0.5176003062071307 0.502912494494546 0.13268203247492308 0.19646269346678907
0 0.37972937401453377 0.47856108872255076 0.23066809518940168 0.3549714197467228
