1 0.5293333333333333 0.504797441364605 0.3759999999999999 0.22707889125799555
4 0.40152610689944906 0.7149257428429788 0.3610236409202848 0.4089364639390481
2 0.614 0.5026652452025587 0.10533333333333333 0.12686567164179105
3 0.6286666666666666 0.4989339019189766 0.12933333333333333 0.1257995735607676
0 0.486 0.4440298507462684 0.16933333333333322 0.23773987206823016
