1 0.4866666666666667 0.4704595185995623 0.4266666666666668 0.27571115973741794
4 0.4606666666666667 0.7204595185995621 0.33199999999999996 0.39277899343544836
2 0.4826666666666668 0.4403719912472648 0.11199999999999999 0.13457330415754923
3 0.5999999999999999 0.45076586433260396 0.13066666666666665 0.14660831509846828
0 0.4893333333333334 0.4299781181619256 0.27733333333333327 0.24070021881838075
