1 0.5653333333333332 0.5106609808102346 0.312 0.23240938166311303
4 0.5397566848657354 0.7486661237817012 0.2983141073867655 0.38713471427308216
2 0.4973333333333332 0.48187633262260143 0.12799999999999964 0.12579957356076757
3 0.6373333333333333 0.49040511727078895 0.12 0.1257995735607676
0 0.5721433542121536 0.4558163934660986 0.28468392828059996 0.3102017899802417
