1 0.6133333333333333 0.5181236673773987 0.41333333333333333 0.2899786780383795
4 0.6039815164179086 0.7355565850746291 0.32940303283581335 0.40133885543709596
2 0.7253348472321889 0.5119376683396333 0.1459880162619976 0.15070823270267147
3 0.7507394208812886 0.5120088879770368 0.18971460519537886 0.18304224492314689
0 0.6400470949716396 0.45802653707742946 0.3161097051594212 0.34580186119834666
