1 0.54 0.5647181628392484 0.35733333333333334 0.25260960334029225
4 0.43735580207178254 0.7621197385281825 0.3095556128864048 0.3733469553402214
2 0.6326666666666668 0.5626304801670146 0.10800000000000017 0.12317327766179545
3 0.6386666666666667 0.5647181628392485 0.11199999999999999 0.13569937369519833
0 0.5100000000000002 0.518267223382045 0.15600000000000055 0.2223382045929013
