1 0.42333333333333345 0.46717724288840257 0.45466666666666666 0.3063457330415755
4 0.37090047535011195 0.7106501733560878 0.3992054369811824 0.44378826379282627
2 0.4313333333333334 0.4387308533916849 0.11866666666666667 0.12691466083150985
3 0.5479999999999999 0.4529540481400438 0.12533333333333332 0.12910284463894967
0 0.43722766803334534 0.4430448658259685 0.3207628034906482 0.2932218367802823
