1 0.49866666666666665 0.531449893390192 0.36266666666666664 0.24626865671641793
4 0.4144641633670304 0.7544838151207566 0.40275115063237554 0.4666301601435876
2 0.4986666666666668 0.48933901918976586 0.13066666666666676 0.1343283582089553
3 0.608 0.5149253731343283 0.13066666666666665 0.13859275053304904
0 0.5045959902998064 0.4957538262040476 0.3226896949417511 0.2987099011277668
