1 0.48666666666666664 0.4508333333333333 0.33333333333333326 0.38166666666666665
4 0.5927939699269396 0.7203893725987137 0.36081553203512323 0.4723121935066081
2 0.5946666666666667 0.3858333333333333 0.08266666666666657 0.145
3 0.5986666666666667 0.38666666666666666 0.10400000000000001 0.18666666666666668
0 0.46618371114911156 0.39636798315437743 0.18014992940777283 0.3038676987130769
