1 0.53 0.5223880597014926 0.396 0.26865671641791045
4 0.4860719315413934 0.7408249941798641 0.33829894483445394 0.3856817926060833
2 0.5186666666666667 0.48454157782515994 0.11199999999999999 0.13539445628997868
3 0.6346666666666667 0.4920042643923241 0.12266666666666667 0.12686567164179105
0 0.5230423474083536 0.46418932091979753 0.285222077681049 0.26195415824588475
