1 0.5394107308014897 0.3967600380363933 0.48206860616530944 0.34887371398708716
4 0.36808231436320993 0.6335906202651941 0.4305680931408413 0.4803841609319187
2 0.6460000000000004 0.401444788441692 0.134666666666667 0.13415892672858612
3 0.6573333333333333 0.3926728586171311 0.14666666666666667 0.15170278637770904
0 0.4707648526200137 0.33005118886077056 0.28810971342123365 0.33807003773281535
