1 0.4086666666666667 0.3827586206896552 0.38 0.4517241379310346
4 0.4846779267145369 0.725174507269562 0.3619631551443141 0.5148844040561648
2 0.5066666666666664 0.34051724137931033 0.12266666666666641 0.18793103448275864
3 0.5059999999999999 0.3456896551724139 0.13199999999999978 0.20172413793103441
0 0.363515405870749 0.3261214083467273 0.2782313004503922 0.41415943616582496
