1 0.5539999999999999 0.5431769722814499 0.3933333333333332 0.27185501066098083
4 0.49778220324610845 0.768626408061223 0.3736732324198811 0.4286501523066059
2 0.544 0.5074626865671642 0.128 0.1279317697228145
3 0.6473333333333333 0.5250533049040511 0.14533333333333334 0.12686567164179105
0 0.5466507680395278 0.5213696891776803 0.28811232603050085 0.25948807044246536
