1 0.41133333333333333 0.3341423948220064 0.3133333333333333 0.39320388349514557
4 0.5800786212193523 0.6154961986186156 0.47337579505579336 0.5367898617461824
2 0.4826666666666668 0.25970873786407767 0.11199999999999999 0.16990291262135923
3 0.494 0.2540453074433657 0.14800000000000002 0.18446601941747573
0 0.3708813426870773 0.2977465920061633 0.2673104571456568 0.36913166112020995
