1 0.634 0.27417582417582415 0.44666666666666666 0.2076923076923077
4 0.5971246576622172 0.4840685457669987 0.32713047750436836 0.39190983158224446
2 0.5633333333333334 0.1879120879120879 0.13466666666666666 0.035164835164835165
3 0.7393333333333334 0.19615384615384612 0.15333333333333335 0.051648351648351645
0 0.6353333333333333 0.2521978021978022 0.36666666666666664 0.16593406593406587
