1 0.3813333333333333 0.4467455621301775 0.4106666666666668 0.4615384615384615
4 0.38066666666666676 0.7840236686390532 0.33466666666666667 0.3875739644970413
2 0.2853333333333333 0.375739644970414 0.16533333333333322 0.2455621301775147
3 0.45866666666666656 0.3801775147928994 0.168 0.23668639053254437
0 0.3719999999999999 0.3927514792899413 0.3386666666666662 0.5044378698224862
