1 0.5526666666666666 0.35127931769722814 0.38 0.2931769722814499
4 0.459174994818725 0.594190090057417 0.4096319713409829 0.4918355155389515
2 0.562 0.3326226012793177 0.11866666666666667 0.14285714285714282
3 0.662 0.3470149253731343 0.13466666666666666 0.13539445628997868
0 0.5491190332137801 0.3061585414266528 0.2904816025805539 0.2764430973406863
