1 0.5920000000000001 0.4197802197802198 0.384 0.2725274725274725
4 0.5780768167247704 0.663197260588773 0.30699653840693847 0.387416512176661
2 0.5209709402564762 0.38707652880971105 0.1693441535404012 0.1685158826495548
3 0.6773333333333333 0.3862637362637363 0.14399999999999996 0.15714285714285714
0 0.5886666666666662 0.33021978021978 0.3133333333333332 0.38351648351648315
