1 0.43266666666666675 0.4697802197802197 0.38533333333333347 0.2802197802197802
4 0.43133333333333335 0.7532967032967034 0.3426666666666667 0.4186813186813187
2 0.3460000000000001 0.4423076923076917 0.14000000000000015 0.16593406593406576
3 0.49866666666666665 0.44065934065934065 0.152 0.1582417582417582
0 0.42733333333333334 0.4192307692307689 0.2973333333333331 0.3109890109890107
