1 0.5123944505937168 0.47299556715076546 0.44963202389499407 0.41600140820453985
4 0.3950101206959781 0.7295303064752605 0.4861532757952139 0.5613220564342414
2 0.49245600928935723 0.45078207914246265 0.19420503082806875 0.20829668721200356
3 0.6176350264339573 0.4734175308014044 0.18812385430856807 0.19631375357280048
0 0.5090886776465249 0.4316462116031124 0.3562515495116645 0.35193165582502595
