1 0.616 0.4715447154471545 0.35733333333333334 0.367479674796748
4 0.6099336406928577 0.7438693350566805 0.24421165179349102 0.4444447493644222
2 0.6946666666666667 0.4430894308943089 0.08266666666666665 0.16422764227642275
3 0.71 0.43577235772357725 0.11600000000000003 0.1886178861788618
0 0.5629774656933431 0.3872915125803219 0.2245522570211311 0.34333534280481054
