1 0.5193333333333334 0.49512195121951225 0.31866666666666665 0.39186991869918697
4 0.5179999999999997 0.8008130081300809 0.23599999999999954 0.3983739837398373
2 0.4479999999999999 0.43739837398373993 0.11733333333333329 0.19512195121951212
3 0.5746666666666667 0.4398373983739837 0.13066666666666665 0.2
0 0.5080000000000002 0.4260162601626017 0.23466666666666675 0.4227642276422764
