1 0.48999999999999994 0.5933333333333333 0.3133333333333333 0.36666666666666664
4 0.5670123640000851 0.8075462162631112 0.3102982839205224 0.33874968977324166
2 0.579037908560632 0.5521209751854984 0.15724284457607354 0.17313823042237914
3 0.566 0.5366666666666666 0.11333333333333334 0.16333333333333333
0 0.456 0.4891666666666664 0.13066666666666654 0.41166666666666635
