1 0.4449695140246031 0.4301611013691665 0.3649452745910681 0.4537577702175957
4 0.3913056226246829 0.7444811191641724 0.35462229074012286 0.4914729838417486
2 0.3885061990416705 0.3661212844473258 0.14850177591465716 0.2110952728807863
3 0.5153333333333334 0.401294498381877 0.12666666666666665 0.20711974110032372
0 0.45768860173751064 0.3476309900459181 0.3654969571187469 0.5562216708086208
