1 0.5664030724626421 0.22738507039670014 0.45149793894613294 0.41234703365883035
4 0.6071382508722472 0.5157372030128129 0.35075281418303306 0.4675220013166151
2 0.4833333333333335 0.17493472584856384 0.1293333333333334 0.16187989556135762
3 0.6263093073588918 0.15764643418604302 0.17699372489456663 0.18872907444988793
0 0.5498444154546233 0.1586682757700466 0.32545440940146436 0.3679473709480539
