4 0.48066666666666663 0.615814696485623 0.3 0.5958466453674122
1 0.488 0.32907348242811496 0.36266666666666664 0.27156549520766765
2 0.4 0.24041533546325877 0.12266666666666667 0.09744408945686901
3 0.55 0.23961661341853038 0.14 0.09904153354632587
0 0.48066666666666663 0.2819488817891374 0.3 0.18370607028753994
