1 0.41200000000000003 0.46749226006191946 0.5253333333333333 0.30546955624355004
4 0.35655869563004006 0.7146195755083106 0.3848335436525268 0.45444368327176476
2 0.4293333333333333 0.4453044375644994 0.13333333333333333 0.15376676986584106
3 0.5406666666666666 0.4432404540763675 0.15866666666666668 0.1558307533539732
0 0.314 0.4272445820433436 0.14266666666666666 0.20433436532507743
0 0.4360000000000001 0.44169246646026833 0.13333333333333333 0.18575851393188855
