1 0.4846666666666667 0.5040650406504065 0.35333333333333333 0.40975609756097564
4 0.5010723650819348 0.7657239811587949 0.30265693964690604 0.43014056189849725
2 0.5711743212979086 0.4713668235931603 0.1374721379400544 0.17573392180938874
3 0.577623554154663 0.4634100288831398 0.16538317769836916 0.20325051948582626
0 0.44434712740862153 0.44355426940772835 0.25784331616757405 0.34079032314369084
