1 0.4446666666666667 0.3684210526315789 0.396 0.2827657378740971
4 0.3407857000554317 0.5905449240535957 0.3762500435125902 0.4415285697905341
2 0.5493333333333333 0.3384932920536637 0.13066666666666665 0.12796697626418987
3 0.5579999999999999 0.3622291021671826 0.12666666666666665 0.12796697626418987
0 0.4053333333333333 0.2786377708978325 0.1813333333333334 0.2972136222910213
