1 0.42266666666666675 0.5027472527472526 0.41333333333333333 0.3131868131868132
4 0.44344297101299573 0.7513079088203084 0.3727661150832287 0.41989755020339004
2 0.3313333333333332 0.45549450549450554 0.1506666666666664 0.16813186813186795
3 0.4918195605723488 0.44709681040504373 0.18158414980692392 0.18070277553490358
0 0.40178007476612065 0.4181880874004038 0.3754052119210183 0.42948844951193704
