1 0.5379999999999999 0.4814004376367616 0.43333333333333335 0.28227571115973743
4 0.46952876919709907 0.7332686858435943 0.36919036694647206 0.4288354050211109
2 0.5179999999999998 0.4452954048140045 0.12666666666666646 0.1356673960612692
3 0.644 0.45842450765864334 0.13066666666666665 0.14223194748358858
0 0.5186299177983497 0.44566621275465584 0.31596776158377016 0.28973509206404857
