1 0.4686666666666666 0.595 0.31066666666666665 0.3433333333333334
4 0.5278755470768838 0.8029465902710285 0.2578783072536005 0.34929126841338104
2 0.5677249839338774 0.5576270712837409 0.09322659054619692 0.14533303509390527
3 0.5721910232926875 0.5520770995088092 0.1175834859753833 0.18913856462023518
0 0.44394216974850736 0.5474603439022391 0.16529695966714583 0.2790943815351713
