1 0.3493333333333334 0.4752747252747252 0.4106666666666668 0.2978021978021978
4 0.33199999999999996 0.7181318681318681 0.312 0.3989010989010989
2 0.26066666666666677 0.425824175824176 0.14533333333333354 0.1483516483516484
3 0.41 0.4285714285714286 0.14 0.1450549450549451
0 0.33533333333333304 0.39340659340659273 0.29199999999999976 0.3032967032967026
