1 0.5826666666666668 0.5138592750533049 0.35733333333333334 0.24307036247334754
4 0.4742265113320485 0.7083634014101691 0.29231232885779546 0.3692346871114944
2 0.6573333333333333 0.505863539445629 0.1066666666666667 0.12473347547974413
3 0.6693333333333333 0.5058635394456289 0.11733333333333333 0.12260127931769721
0 0.5277272845981403 0.46113446236762384 0.20564639631765452 0.26296931378823
