1 0.5493333333333332 0.5095948827292109 0.36266666666666664 0.24093816631130063
4 0.5353333333333333 0.740405117270789 0.29733333333333334 0.35714285714285715
2 0.4773333333333334 0.4749466950959491 0.12266666666666672 0.128997867803838
3 0.6106666666666666 0.47974413646055436 0.12266666666666667 0.1300639658848614
0 0.5426666666666664 0.4381663113006395 0.2613333333333332 0.28997867803837923
