1 0.5636689385825533 0.5257808427588881 0.5709568297748125 0.5841267817324762
4 0.6742585721550859 0.7705656717536274 0.4315413505586335 0.45886865649274505
2 0.67 0.43902439024390233 0.14 0.17790530846484942
3 0.6426666666666665 0.44978479196556675 0.13333333333333333 0.18507890961262555
0 0.4904303636309802 0.47036681328668 0.2721205176876259 0.43432780768911483
