1 0.4286666666666667 0.449124726477024 0.444 0.3161925601750547
4 0.33784083891411754 0.7041854825155606 0.4132917049228878 0.5058110700773222
2 0.4260000000000001 0.3944201312910285 0.1320000000000002 0.15864332603938727
3 0.5379999999999999 0.42724288840262586 0.15066666666666667 0.15864332603938727
0 0.42179774768563355 0.407252134982501 0.3294569251326728 0.31018092180894646
