1 0.4513333333333333 0.5751599147121536 0.38266666666666665 0.2782515991471216
4 0.3774880815457911 0.7944007959931133 0.37928563363485096 0.4415286565399461
2 0.43733333333333346 0.532515991471215 0.13066666666666676 0.1417910447761193
3 0.5606666666666666 0.5453091684434968 0.14266666666666666 0.1396588486140725
0 0.44350032088578134 0.5348178727828568 0.2746218671162444 0.2538603320339611
