1 0.5960000000000001 0.44748358862144416 0.36533333333333345 0.23851203501094084
4 0.49499826499776517 0.672680671165438 0.3273127393957086 0.42699029493531243
2 0.6873333333333334 0.4283369803063457 0.11333333333333334 0.12800875273522977
3 0.6993333333333334 0.43052516411378555 0.12933333333333333 0.1301969365426696
0 0.5458019320598868 0.38381962020665356 0.20588803495203414 0.26731405452181617
