1 0.6039448184131941 0.4669752940426801 0.49818276672630185 0.4120207500601776
4 0.4795962324382627 0.7447697777735288 0.4639604046746608 0.5285784314768224
2 0.5848916926404938 0.43343501661958994 0.1877976819398092 0.20948840981053693
3 0.7099578635753484 0.45785305753335054 0.16649456953466996 0.1842907615734444
0 0.5679181790505855 0.43804725149507534 0.3575551432518174 0.33959793394484833
