1 0.48200000000000004 0.4591666666666667 0.2813333333333333 0.355
4 0.49199999999999977 0.7541666666666669 0.24266666666666661 0.43500000000000016
2 0.42333333333333345 0.41166666666666657 0.11066666666666661 0.17333333333333328
3 0.5373333333333333 0.41333333333333333 0.10400000000000001 0.17666666666666667
0 0.4786666666666662 0.38166666666666627 0.2373333333333331 0.4166666666666659
