1 0.5086666666666667 0.5142857142857143 0.3453333333333333 0.24835164835164836
4 0.5000000000000001 0.7527472527472527 0.3066666666666667 0.3758241758241758
2 0.4266666666666666 0.4818681318681315 0.12533333333333324 0.13076923076923064
3 0.5586666666666666 0.48131868131868133 0.12533333333333332 0.13186813186813187
0 0.5026666666666667 0.44505494505494575 0.24266666666666692 0.29230769230769327
