1 0.47330345659893763 0.7163803435132199 0.34164385867723207 0.35494187494679097
4 0.4932383164082673 0.8663722746335886 0.28404746302356143 0.24762736446526104
2 0.39893234990881055 0.6822130942708026 0.13451056795917865 0.19192083698410245
3 0.5099356402820555 0.6464607617717547 0.15535556671833484 0.2074900224027285
0 0.46028710111603816 0.6460818082036605 0.3162151004062917 0.423468033549386
