1 0.4806666666666668 0.432404540763674 0.40400000000000014 0.29927760577915374
4 0.4713333333333333 0.6873065015479877 0.3293333333333333 0.3839009287925697
2 0.3966666666666668 0.40866873065015485 0.1480000000000001 0.14447884416924656
3 0.5553333333333331 0.4153766769865841 0.15866666666666668 0.14757481940144485
0 0.47466666666666646 0.3663570691434461 0.30399999999999977 0.32404540763673906
