1 0.5106666666666666 0.6016260162601625 0.3413333333333333 0.37073170731707317
4 0.5238068892333353 0.8316980244519803 0.2882910181621965 0.3342209986239897
2 0.4513333333333333 0.540650406504065 0.12666666666666684 0.19674796747967493
3 0.5826666666666667 0.5447154471544716 0.13066666666666665 0.21463414634146344
0 0.5126666666666665 0.5097560975609753 0.24933333333333324 0.41788617886178825
