1 0.6486666666666667 0.365 0.3133333333333333 0.40333333333333327
4 0.7328910908877794 0.6401305234682145 0.37350411715781573 0.4797412019362127
2 0.73 0.32249999999999995 0.08133333333333333 0.14166666666666666
3 0.738 0.32 0.11066666666666666 0.16
0 0.6209716464604 0.2811291357999565 0.21679301126066997 0.3670158272098271
