1 0.5046666666666667 0.31769722814498935 0.36133333333333334 0.2601279317697228
4 0.52 0.5501066098081024 0.31466666666666665 0.3667377398720683
2 0.4319999999999999 0.2846481876332623 0.12266666666666667 0.13432835820895522
3 0.5640000000000001 0.2878464818763326 0.12266666666666667 0.1279317697228145
0 0.5019999999999992 0.24893390191897657 0.27866666666666645 0.28464818763326233
