1 0.514 0.224390243902439 0.35333333333333333 0.3447154471544715
4 0.44042529223180593 0.5225852284743198 0.358687669534768 0.5745351166884799
2 0.5233333333333332 0.16422764227642284 0.10799999999999982 0.18211382113821148
3 0.6120000000000002 0.18861788617886177 0.13600000000000004 0.18536585365853658
0 0.48599999999999993 0.18699186991869918 0.23600000000000002 0.26666666666666666
