1 0.498 0.46608315098468284 0.36666666666666664 0.25164113785557984
4 0.48200000000000004 0.724835886214442 0.3 0.37527352297593
2 0.42533333333333323 0.4485776805251639 0.1306666666666666 0.12910284463894958
3 0.5646666666666667 0.45350109409190376 0.12933333333333333 0.13676148796498905
0 0.4913333333333319 0.40919037199124747 0.28399999999999936 0.30853391684901577
