1 0.654 0.5191897654584221 0.364 0.27292110874200426
4 0.6055966216251808 0.7363290364194698 0.31526765602168505 0.3959841300305612
2 0.6379999999999998 0.47814498933901883 0.11866666666666648 0.13326226012793166
3 0.7560000000000002 0.49093816631130066 0.12533333333333332 0.13752665245202558
0 0.6448134190291097 0.47440883534776745 0.2766866660451157 0.2659125500094786
