1 0.5333333333333333 0.4950641658440276 0.48533333333333334 0.32872655478775914
4 0.5902700347463583 0.7414424397286069 0.4136994110611137 0.5000040407976564
2 0.6762111928346579 0.4787800413925341 0.1553797773928764 0.16095019794747487
3 0.69 0.4624876604146101 0.16666666666666663 0.15695952615992106
0 0.5220570315063535 0.44881874246314263 0.33257680734589923 0.37805232394716426
