4 0.4713333333333328 0.444618599791014 0.3506666666666662 0.2643678160919536
0 0.47066666666666607 0.23249738766980138 0.36266666666666625 0.21421107628004155
2 0.376 0.16562173458725182 0.16 0.07836990595611287
3 0.5733333333333333 0.15830721003134796 0.17066666666666666 0.07001044932079414
