1 0.5323638583192515 0.5733738231074134 0.38738325471748625 0.3071214468442387
4 0.3844806058580133 0.7551125275171464 0.35720346119622876 0.38637677316180125
2 0.6140000000000002 0.5671641791044775 0.09466666666666682 0.1257995735607676
3 0.6290844515466448 0.5673123387029269 0.13262412480560626 0.1428263297153012
0 0.4886666666666666 0.5005330490405114 0.15866666666666662 0.24626865671641757
