1 0.6873333333333334 0.5384615384615384 0.3720000000000001 0.32747252747252736
4 0.7322754965142502 0.7661499963113296 0.3670021631656944 0.4504460039281071
2 0.7713333333333332 0.4851648351648351 0.132 0.15054945054945054
3 0.7793333333333333 0.4818681318681318 0.15866666666666668 0.1593406593406593
0 0.6139999999999997 0.45989010989010937 0.2146666666666665 0.33076923076923065
