1 0.5533333333333332 0.4563617245005258 0.43466666666666653 0.3091482649842272
4 0.4744079621740063 0.7215152489930188 0.4514017376830292 0.5071481244536798
2 0.5513333333333331 0.42376445846477373 0.1399999999999997 0.159831756046267
3 0.6873333333333334 0.4348054679284964 0.15333333333333335 0.167192429022082
0 0.54667915793584 0.42359310097846814 0.3571841118788739 0.2968819190346747
