1 0.45866666666666667 0.7146341463414635 0.3066666666666667 0.33983739837398375
4 0.4514613126094921 0.8920113508743271 0.2278798759030748 0.22589811586435446
2 0.40800000000000014 0.6650406504065041 0.10933333333333348 0.1691056910569105
3 0.5173333333333335 0.6666666666666669 0.1066666666666667 0.16910569105691056
0 0.4586666666666659 0.6154471544715436 0.22933333333333292 0.41138211382113754
