1 0.5720000000000001 0.4786012526096033 0.4053333333333333 0.29958246346555323
4 0.5519999999999998 0.7072025052192069 0.3199999999999999 0.34133611691022936
2 0.48800000000000004 0.4410229645093945 0.1413333333333333 0.15970772442588727
3 0.6273333333333333 0.44363256784968685 0.13733333333333334 0.15448851774530273
0 0.5600376691275459 0.40728651281178313 0.3398470997812645 0.3770890802030689
