1 0.6040000000000001 0.4362068965517242 0.3546666666666667 0.42758620689655175
4 0.7663994177018907 0.7415244990737649 0.47517000984977514 0.5169510018524701
2 0.6983920400049283 0.3627294187160161 0.1427221903960824 0.21042261075616112
3 0.696 0.346551724137931 0.13333333333333333 0.21724137931034482
0 0.562 0.37672413793103443 0.18 0.3810344827586206
