1 0.43879599054401525 0.49634739748589696 0.46977320835975095 0.40952572628482076
4 0.5287989742443678 0.6964545525014205 0.37861844622809954 0.41835788849303734
2 0.5446666666666665 0.45350109409190376 0.13733333333333334 0.13457330415754923
3 0.544 0.45459518599562365 0.14133333333333337 0.14113785557986872
0 0.39799999999999996 0.4578774617067834 0.17199999999999974 0.263676148796499
