1 0.48675412607837415 0.4410454806546018 0.38313448187835575 0.29912500981695156
4 0.3547093026018071 0.6614906759855592 0.3390856236892742 0.4361161741397195
2 0.5776002011120879 0.44116138226944523 0.12500822675586512 0.16003121015524002
3 0.5857746811586056 0.43412691133266246 0.1580687490676994 0.18054957315646078
0 0.44199999999999995 0.3905908096280084 0.1666666666666666 0.21663019693654254
