1 0.544 0.5490405117270789 0.3413333333333333 0.26865671641791045
4 0.5327874496279101 0.7610898161509081 0.2954397466639644 0.3526858473845597
2 0.4806666666666668 0.5095948827292112 0.12933333333333333 0.1321961620469083
3 0.614 0.5106609808102346 0.12933333333333333 0.13432835820895522
0 0.5538375563515686 0.4948324957627959 0.2909754567746552 0.30726774708051074
