1 0.48666666666666664 0.6083333333333332 0.2879999999999999 0.32
4 0.48933333333333323 0.8408333333333334 0.20266666666666663 0.3016666666666668
2 0.434 0.5566666666666668 0.10533333333333336 0.17
3 0.546 0.5625 0.10800000000000003 0.16833333333333333
0 0.48666666666666664 0.540833333333333 0.2240000000000002 0.3783333333333329
