1 0.47266666666666673 0.27967479674796747 0.3880000000000001 0.383739837398374
4 0.38492048863789163 0.5581785202585776 0.37643635332163666 0.5804605626089411
2 0.4806666666666667 0.24065040650406508 0.09466666666666666 0.18536585365853658
3 0.57 0.2552845528455285 0.10800000000000003 0.17886178861788618
0 0.3933333333333333 0.22276422764227644 0.096 0.21463414634146344
0 0.4980000000000001 0.26097560975609757 0.10533333333333333 0.216260162601626
