1 0.41666666666666674 0.7908333333333333 0.28933333333333333 0.28833333333333333
4 0.42020334083318317 0.9230398932801429 0.21422537290130295 0.14522231677014133
2 0.3533333333333335 0.7449999999999994 0.10666666666666684 0.15333333333333335
3 0.46133333333333326 0.7424999999999998 0.10400000000000001 0.16166666666666665
0 0.4119240485528074 0.7251997592680935 0.25392862299780217 0.3804110246780473
