1 0.5546666666666666 0.517590618336887 0.3413333333333333 0.2547974413646055
4 0.5386666666666666 0.7382729211087422 0.27733333333333327 0.33795309168443505
2 0.4766666666666668 0.4802771855010659 0.12400000000000015 0.126865671641791
3 0.6073333333333334 0.4813432835820896 0.11866666666666667 0.12686567164179105
0 0.547333333333333 0.4536247334754799 0.26266666666666716 0.2782515991471219
