1 0.5106666666666666 0.5366748166259169 0.36266666666666664 0.2885085574572127
4 0.414328209950841 0.7748115860213278 0.4138901197488534 0.5084508140320623
2 0.5083662255084482 0.4978412686297202 0.15393452790549425 0.1846029866849007
3 0.6126666666666667 0.5207823960880196 0.13466666666666666 0.15647921760391198
0 0.5077922821698932 0.5109093426452344 0.3315760800649958 0.3271659967797602
