1 0.6286666666666666 0.517223382045929 0.39066666666666655 0.2640918580375783
4 0.5318512414866003 0.7209167976280644 0.29551066437367285 0.37955420225841785
2 0.7330389018136184 0.5271879117339906 0.13855630846225664 0.1465557919174239
3 0.7448019642253179 0.5176094516377446 0.1455457411139946 0.1550988320817281
0 0.5966666666666663 0.45720250521920625 0.16666666666666646 0.2359081419624215
