1 0.5753333333333334 0.715 0.3213333333333333 0.3433333333333334
4 0.5759795288080298 0.8827587153298013 0.24060963224314227 0.2256357161086325
2 0.5033333333333332 0.6491666666666661 0.11066666666666654 0.16166666666666654
3 0.6153333333333333 0.6458333333333335 0.11333333333333334 0.1716666666666667
0 0.5626666666666666 0.6125000000000003 0.2213333333333333 0.43500000000000055
