1 0.5186666666666666 0.5437100213219617 0.37066666666666653 0.2515991471215352
4 0.5153333333333332 0.7670575692963751 0.28933333333333333 0.3400852878464819
2 0.45466666666666683 0.507462686567164 0.13066666666666676 0.1257995735607676
3 0.5846666666666667 0.5106609808102346 0.124 0.13219616204690832
0 0.5186666666666667 0.47814498933901917 0.25333333333333324 0.2974413646055436
