1 0.40399999999999997 0.3462800875273523 0.38666666666666666 0.27680525164113784
4 0.41333333333333333 0.6137855579868708 0.312 0.4223194748358862
2 0.332 0.29923413566739615 0.13066666666666688 0.1345733041575493
3 0.4759999999999999 0.29540481400437635 0.13600000000000004 0.1487964989059081
0 0.40666666666666706 0.2691466083150984 0.28000000000000036 0.33260393873085325
