1 0.39466666666666667 0.4831932773109244 0.4746666666666667 0.42857142857142855
4 0.4318219212089291 0.7303230288298076 0.4252659730474207 0.5179891939696197
2 0.524113910275764 0.41821293571375956 0.17217855251526742 0.19060512634299853
3 0.5419303131674624 0.4110922484105671 0.21138808278386642 0.23792092169573606
0 0.3500786187858907 0.3896459053277745 0.3250741767713647 0.41071225029035796
