1 0.40340102008371914 0.5070228744546875 0.4001645646231429 0.3279585765852774
4 0.27885848128934215 0.6959463362753953 0.3542962435737396 0.40420468068229326
2 0.5033895368390495 0.4990674903616849 0.12292524258091518 0.1444457997005619
3 0.5062813297491027 0.49757554355974093 0.1410354607510726 0.16032790758185014
0 0.35838452560130074 0.43135724597413777 0.20152315778532823 0.2633046704501587
