1 0.638 0.4775 0.3213333333333333 0.37166666666666665
4 0.7039261828565574 0.7513022185224449 0.2910103250697364 0.42610656874688546
2 0.7253333333333336 0.4458333333333333 0.08266666666666665 0.1283333333333333
3 0.73 0.435 0.09733333333333331 0.16333333333333333
0 0.6142020227378402 0.4222894876215561 0.1932306238538792 0.3051618433454412
