1 0.5299999999999999 0.48030634573304154 0.4093333333333332 0.2954048140043764
4 0.4462289803382838 0.7132056576366291 0.39911252854766377 0.4592910885074386
2 0.49866666666666665 0.4513129102844639 0.1333333333333332 0.14551422319474824
3 0.6246666666666667 0.45459518599562365 0.13466666666666666 0.15645514223194748
0 0.5139819842590674 0.41593935606074195 0.3137944154306717 0.29667298718242957
