1 0.49056821190553096 0.5112493637453466 0.411358842067062 0.33234708457917733
4 0.34819811721532645 0.710889705400022 0.35699314929284737 0.39877254659238415
2 0.5756122074582586 0.5026000808443591 0.13097029077836453 0.16335794033249415
3 0.5912993624113189 0.5050114584728282 0.15216534642419957 0.16490747625679872
0 0.4346666666666664 0.44882729211087397 0.1653333333333331 0.253731343283582
