1 0.47 0.5277185501066097 0.4279999999999999 0.30277185501066095
4 0.4040292549649185 0.7620514222439368 0.36217707898915746 0.410083284394785
2 0.4646666666666667 0.5026652452025587 0.12133333333333306 0.126865671641791
3 0.5840000000000001 0.5111940298507462 0.12 0.12686567164179105
0 0.4692814507629112 0.4886230979813899 0.29900890793162516 0.27775766352360004
