1 0.556 0.5589207048458149 0.3546666666666667 0.2610132158590308
4 0.48751846834149687 0.7778701213459391 0.3778010778767192 0.43446203123538996
2 0.5537075236716911 0.5418400437226996 0.14091262852520942 0.1624854234506644
3 0.6639999999999999 0.5479074889867842 0.11733333333333333 0.1354625550660793
0 0.5519775441645549 0.5192635161678837 0.29149972627725945 0.2537550406622124
