1 0.4733333333333333 0.4912280701754387 0.43733333333333335 0.3095975232198143
4 0.4553333333333333 0.7285861713106294 0.3293333333333333 0.38183694530443757
2 0.3973333333333332 0.4545923632610939 0.1386666666666664 0.1393188854489164
3 0.5486666666666666 0.46491228070175433 0.13466666666666666 0.1393188854489164
0 0.47745926354383866 0.4278457948715515 0.317712599065064 0.328818514789467
