1 0.514 0.5389125799573561 0.44666666666666666 0.3017057569296375
4 0.44354612000523475 0.7679053453956601 0.39873172208770913 0.45490661340947625
2 0.5001165278442389 0.5011792983318604 0.1464404410576229 0.15947578426885264
3 0.6126666666666667 0.5127931769722814 0.132 0.13432835820895522
0 0.5057072518960792 0.4999452040721424 0.2906152734406747 0.2683216504545912
