1 0.5073333333333333 0.5538379530916845 0.36933333333333346 0.27185501066098083
4 0.5106666666666667 0.7910447761194029 0.2986666666666667 0.345415778251599
2 0.4293333333333333 0.5223880597014929 0.13333333333333322 0.1343283582089553
3 0.5766666666666667 0.5250533049040512 0.13466666666666666 0.13752665245202558
0 0.5026666666666668 0.49680170575692933 0.27733333333333365 0.281449893390192
