1 0.574 0.5239872068230277 0.36666666666666664 0.2526652452025586
4 0.5646666666666667 0.7436034115138591 0.292 0.3443496801705757
2 0.5090867963559051 0.4920622593277355 0.14571857123081672 0.14515945551263493
3 0.65 0.4973347547974414 0.13733333333333334 0.1396588486140725
0 0.5879211253299627 0.44806990545989367 0.30359219512430075 0.32284169748323366
