1 0.532 0.43184238551650694 0.4666666666666666 0.3248136315228967
4 0.43507144623623284 0.7154904560803718 0.44343724181153776 0.5186556692379445
2 0.5240000000000001 0.40202342917997813 0.14400000000000016 0.16932907348242793
3 0.6626666666666666 0.4275825346112886 0.16266666666666665 0.1693290734824281
0 0.4262144433669851 0.4152146995374701 0.15332209650314665 0.20101519173630752
0 0.5626666666666666 0.43982960596379117 0.14933333333333335 0.18743343982960595
