1 0.5873333333333332 0.5291208791208791 0.396 0.28681318681318674
4 0.47738620784696245 0.7655879849061672 0.4201049569909266 0.484603587501602
2 0.622 0.5027472527472531 0.11599999999999977 0.15274725274725268
3 0.7138327128309798 0.5164181945369937 0.15096649708194662 0.17266537681042443
0 0.5245744069204747 0.49583688268743115 0.1925714862959648 0.2059420096286698
0 0.5953333333333333 0.5236263736263735 0.13733333333333334 0.16593406593406587
