1 0.5853333333333332 0.5851648351648351 0.38933333333333325 0.28681318681318674
4 0.4776774245784638 0.8020958655120904 0.4026780686234219 0.4547331201893973
2 0.5973333333333332 0.5445054945054942 0.1279999999999997 0.14395604395604378
3 0.6986666666666668 0.5653846153846154 0.13333333333333333 0.16153846153846152
0 0.5586530218633954 0.5487258679482246 0.3073358564157294 0.2859399173424771
