1 0.5733333333333331 0.494136460554371 0.3679999999999999 0.2697228144989339
4 0.48233953924165573 0.7087440635893022 0.2975974111784205 0.3940165314894065
2 0.6846666666666666 0.4877398720682303 0.11333333333333334 0.12686567164179105
3 0.6839999999999999 0.48720682302771856 0.11466666666666667 0.14072494669509594
0 0.523637074405714 0.40906157090382306 0.24033074326293388 0.3223150137786284
