1 0.5266666666666667 0.44169246646026844 0.46400000000000013 0.3137254901960784
4 0.4176028328180816 0.680619631690035 0.418576883651197 0.47506286322783353
2 0.534 0.4035087719298243 0.13733333333333356 0.14447884416924656
3 0.6393333333333333 0.4282765737874097 0.156 0.15273477812177502
0 0.5013392358130386 0.41261798194949534 0.30075303075564536 0.2786388372437206
