1 0.5066666666666666 0.4275 0.3253333333333333 0.325
4 0.5109580756083476 0.7349140228945629 0.2709067183560891 0.4421200056558787
2 0.4439999999999999 0.39 0.10933333333333334 0.18333333333333332
3 0.5633333333333332 0.3908333333333335 0.12133333333333321 0.18833333333333344
0 0.5005670706382168 0.37539928962391583 0.2626387348746526 0.38805796242372526
