1 0.4807742667449722 0.3298736155349061 0.4366848980022866 0.3546215895974829
4 0.3270232882158578 0.5367136562808819 0.3953350064268517 0.4314385735443762
2 0.5943648812538734 0.32431595007886443 0.1467687435396865 0.16409131008523933
3 0.6023281242386005 0.3279669816466708 0.16121108355483016 0.18265154386771468
0 0.442978525871289 0.27488119971955444 0.20635326503169857 0.2517414239117829
