1 0.5206666666666667 0.4725000000000001 0.33466666666666667 0.395
4 0.5262118547544056 0.7407566485812761 0.21649204837095945 0.4220079598295686
2 0.6071690574457637 0.4515331726650451 0.11766780385993968 0.1583491139334231
3 0.6069846370180194 0.44393371123359104 0.13379401484089493 0.17107300233616654
0 0.49858409621134814 0.4025494405693961 0.26464913007340934 0.3360315083139422
