1 0.44199999999999995 0.44093851132686085 0.3453333333333333 0.38996763754045305
4 0.5291045784748625 0.7368244519903138 0.3721780319962398 0.4953633519184985
2 0.5406666666666666 0.4077669902912622 0.12133333333333333 0.1650485436893204
3 0.5406666666666667 0.4118122977346278 0.124 0.17637540453074432
0 0.41413903431475946 0.35720136205238845 0.23803162279755205 0.4281178647499982
