1 0.5733333333333333 0.5202558635394456 0.3813333333333333 0.24946695095948826
4 0.513837823299143 0.744148856691425 0.37064825829638326 0.42762587406963404
2 0.56 0.4866737739872067 0.12266666666666681 0.13326226012793171
3 0.6773333333333333 0.5031982942430704 0.128 0.13219616204690832
0 0.5630213994322293 0.495602715022454 0.27958355768017495 0.25271074600868687
