1 0.5462939823104022 0.8196441284895001 0.3174623153142987 0.3210381640788157
4 0.5439890152064573 0.9492374519442193 0.23459139903220452 0.09752967608652284
2 0.4760000000000001 0.7841666666666665 0.11999999999999993 0.18166666666666656
3 0.5933333333333334 0.7725 0.11199999999999999 0.175
0 0.5328888141041179 0.7570397200894167 0.25446968967889305 0.4104795904289392
