1 0.45733333333333337 0.4352517985611511 0.43733333333333335 0.35731414868105515
4 0.4613333333333318 0.7523980815347724 0.373333333333332 0.4472422062350111
2 0.3613333333333331 0.3711031175059951 0.17599999999999966 0.2050359712230215
3 0.5453333333333333 0.37050359712230213 0.18133333333333332 0.2038369304556355
0 0.45800000000000046 0.34832134292565925 0.38266666666666693 0.4640287769784169
