1 0.49400000000000005 0.44522776572668105 0.4706666666666667 0.35032537960954435
4 0.4853333333333329 0.7613882863340572 0.4079999999999993 0.4642082429501089
2 0.3993333333333334 0.4132321041214751 0.16933333333333336 0.16485900216919736
3 0.5926666666666667 0.4202819956616053 0.18 0.18112798264642083
0 0.48399999999999943 0.3801518438177872 0.4026666666666663 0.3741865509761383
