1 0.3833333333333334 0.47642276422764224 0.33466666666666667 0.383739837398374
4 0.43672550062629356 0.7488287284751973 0.31755213633065116 0.44804439943833557
2 0.478 0.44227642276422763 0.11333333333333334 0.1886178861788618
3 0.4786666666666667 0.4414634146341463 0.10933333333333334 0.18048780487804877
0 0.35800892763856107 0.3910222553734675 0.2138723560103638 0.37025800872490494
