1 0.5546666666666666 0.509594882729211 0.3973333333333333 0.27078891257995735
4 0.49220861407108446 0.7332189617464538 0.3765827992527374 0.45008508168183375
2 0.5526666666666666 0.47707889125799574 0.12666666666666665 0.1396588486140725
3 0.664 0.4898720682302771 0.13066666666666665 0.1396588486140725
0 0.5461772975299879 0.470328943886761 0.3117751628517301 0.29560624309299355
