1 0.3846666666666666 0.44572025052192077 0.364 0.2776617954070981
4 0.342 0.639874739039666 0.19333333333333322 0.3402922755741126
2 0.48451803625645284 0.42135541536990784 0.14166268611563104 0.15156823812539877
3 0.4967810274386518 0.41992880031538005 0.17011862124639243 0.1776045469051249
0 0.38003851064839445 0.3780352354722358 0.2842213200640728 0.32321029902532145
