1 0.542 0.4168490153172867 0.36666666666666664 0.24945295404814005
4 0.4330415777792116 0.6283020466255378 0.3493448436742314 0.4184173882946588
2 0.642 0.3933260393873085 0.10800000000000003 0.13676148796498905
3 0.6526666666666666 0.3944201312910284 0.132 0.1389496717724289
0 0.5160000000000003 0.3577680525164113 0.16800000000000004 0.22319474835886208
