1 0.5146666666666667 0.4556892778993435 0.44266666666666665 0.29212253829321655
4 0.42728412142568556 0.7200582506592491 0.4225167049401125 0.5074231596128681
2 0.4940000000000002 0.4059080962800871 0.14266666666666702 0.14660831509846817
3 0.6226666666666667 0.4392778993435448 0.16266666666666665 0.1455142231947483
0 0.5101885851329506 0.4180694043858422 0.3501645435320552 0.35092174105175616
