1 0.44133333333333336 0.5365853658536586 0.3546666666666667 0.4032520325203252
4 0.4820196859327205 0.7793182900954426 0.29886051493492444 0.41034172732585233
4 0.5233333333333333 0.9577235772357726 0.12933333333333333 0.07154471544715447
