1 0.4473333333333334 0.45 0.40400000000000014 0.3
4 0.442 0.7247252747252747 0.3213333333333333 0.4098901098901099
2 0.36333333333333323 0.39835164835164877 0.15066666666666653 0.1483516483516484
3 0.5219999999999999 0.40054945054945046 0.15066666666666667 0.14395604395604392
0 0.44333333333333286 0.3840659340659338 0.2973333333333328 0.31538461538461515
