1 0.48133333333333334 0.4313725490196078 0.42133333333333334 0.30546955624355004
4 0.46799999999999997 0.6991744066047471 0.3066666666666667 0.3766769865841073
2 0.3940000000000002 0.4143446852425178 0.15066666666666684 0.15170278637770904
3 0.5453333333333333 0.412796697626419 0.14933333333333335 0.14860681114551083
0 0.4713333333333331 0.3725490196078429 0.30266666666666686 0.3302373581011351
