1 0.4960000000000001 0.5207889125799574 0.42933333333333346 0.2953091684434968
4 0.4693333333333334 0.740405117270789 0.2986666666666667 0.35714285714285715
2 0.4193333333333335 0.4802771855010663 0.13733333333333356 0.13752665245202564
3 0.5653333333333334 0.4856076759061833 0.13333333333333333 0.1396588486140725
0 0.4753333333333329 0.45788912579957375 0.2519999999999999 0.25692963752665265
