1 0.5593333333333333 0.5011061946902654 0.45466666666666666 0.30309734513274345
4 0.46089231312958956 0.7547131884148359 0.43530429983194524 0.4796159901777455
2 0.5579999999999999 0.474004424778761 0.13466666666666638 0.15818584070796454
3 0.6859999999999999 0.49059734513274333 0.14799999999999988 0.15597345132743368
0 0.5638901912217454 0.47155252682805326 0.33871898642393944 0.2990567422660896
