1 0.37799999999999995 0.3966666666666667 0.36133333333333334 0.42333333333333334
2 0.2987406851983561 0.3152222269017175 0.1427341431572852 0.21257983387449772
3 0.43466666666666676 0.3225 0.12533333333333332 0.205
0 0.36800000000000055 0.3041666666666664 0.29600000000000043 0.5216666666666662
