1 0.45933333333333337 0.535181236673774 0.37733333333333335 0.2814498933901919
4 0.44733333333333336 0.7846481876332625 0.29733333333333334 0.373134328358209
2 0.3913333333333331 0.49946695095948807 0.1346666666666663 0.13113006396588475
3 0.5326666666666666 0.49840085287846486 0.132 0.13752665245202558
0 0.45933333333333226 0.48560767590618303 0.2839999999999993 0.2995735607675904
