1 0.6046666666666667 0.35032362459546923 0.36933333333333346 0.3737864077669903
4 0.5228598561210066 0.6375868094053047 0.40931476831831454 0.5826795092401801
2 0.5840000000000001 0.30258899676375434 0.12800000000000009 0.20064724919093865
3 0.7075470989749972 0.32519128575903034 0.13646030515154345 0.2034364565962319
0 0.6036422486990589 0.30460356732096333 0.3002281854577737 0.3217979296982712
