1 0.47800000000000004 0.4733333333333333 0.3 0.4
4 0.5853533910458272 0.7494216512423877 0.37794910439606183 0.45475636716042495
2 0.556 0.43916666666666665 0.08533333333333333 0.14499999999999996
3 0.56 0.425 0.10133333333333333 0.17333333333333337
0 0.4553333333333335 0.3949999999999996 0.1346666666666666 0.38333333333333264
