1 0.5546666666666668 0.515 0.33333333333333326 0.37666666666666665
4 0.5745723061112877 0.7961800830820652 0.3022550865726825 0.39912896253325103
2 0.47466666666666685 0.46416666666666634 0.12000000000000029 0.19833333333333317
3 0.6036175486490418 0.4477528420019968 0.15528825129485058 0.2123696403292226
0 0.5437201262663142 0.4130191848100313 0.30540271413201736 0.5190703955414829
