1 0.4246666666666667 0.795 0.26533333333333337 0.3
4 0.4146666666666667 0.9366666666666665 0.21866666666666668 0.1266666666666667
2 0.3679999999999998 0.7566666666666666 0.10933333333333302 0.1666666666666666
3 0.4813333333333333 0.7633333333333333 0.10133333333333333 0.16333333333333333
0 0.41399999999999965 0.7341666666666669 0.22800000000000004 0.36499999999999977
