1 0.45933333333333337 0.4696162046908316 0.3506666666666668 0.23560767590618337
4 0.3590834894164223 0.6786559690245453 0.32393041786928634 0.4015213488053834
2 0.5573333333333333 0.458955223880597 0.11199999999999999 0.12899786780383796
3 0.5653333333333334 0.46162046908315557 0.12533333333333332 0.13859275053304904
0 0.42489457898958394 0.42763523807394305 0.1921332878761409 0.21805999232276307
