1 0.4526666666666666 0.4666666666666666 0.3293333333333333 0.3933333333333333
4 0.4782639229643331 0.7361254221611452 0.29309676647190236 0.47129915110125287
2 0.536 0.4225000000000001 0.08533333333333333 0.15166666666666667
3 0.546 0.4208333333333333 0.10800000000000003 0.175
0 0.42509738179826473 0.37333046742918397 0.22219320231916928 0.36301449880078623
