1 0.4686666666666667 0.5798687089715536 0.38 0.3107221006564552
4 0.3697239657361236 0.8030451275542455 0.39780065741998166 0.4431845183044145
2 0.4638379204781591 0.5577506761982431 0.15682275988855993 0.18652702410029684
3 0.5660000000000001 0.5787746170678336 0.132 0.13566739606126915
0 0.4705033899396871 0.5445307491934955 0.3109766400345408 0.30243632227824363
