1 0.664 0.44699286442405695 0.4693333333333333 0.3088685015290519
4 0.5639852329049845 0.71214826181354 0.45088545115097955 0.4910541198996778
2 0.6646666666666665 0.4347604485219164 0.14266666666666644 0.15800203873598365
3 0.801061941132197 0.4418676263590821 0.15363337645280267 0.18124455836093198
0 0.634208104215035 0.4216012987698706 0.3255710676418781 0.27683674028227134
