1 0.48400000000000004 0.2757111597374179 0.38666666666666666 0.2625820568927789
4 0.3664029422760569 0.5070894247111979 0.3834198163628307 0.4468643383401254
2 0.5966666666666667 0.25601750547045954 0.12666666666666665 0.13129102844638946
3 0.5993333333333334 0.25820568927789933 0.13466666666666666 0.13785557986870897
0 0.4328008387097496 0.22006146849913882 0.23565641965685136 0.2662577447007196
