1 0.5346666666666666 0.507361268403171 0.35199999999999987 0.24915062287655723
4 0.44519867348081943 0.715052520735354 0.30961138630852647 0.3992986850967105
2 0.632 0.4949037372593431 0.096 0.13816534541336353
3 0.6466666666666666 0.4971687429218573 0.11733333333333333 0.1517553793884484
0 0.49557408124031027 0.4302533301038521 0.20504750792844276 0.2856912068046957
