1 0.5066666666666667 0.5341463414634147 0.33866666666666667 0.4113821138211382
4 0.5535632637375005 0.7776456456020978 0.3038943512792116 0.38776736915484095
2 0.5873333333333335 0.4910569105691058 0.11333333333333337 0.17235772357723586
3 0.606 0.4886178861788618 0.11866666666666667 0.18699186991869918
0 0.4606856437931262 0.38374934885459083 0.1881757925377032 0.501363686112779
