1 0.45333333333333337 0.4447483588621444 0.41600000000000004 0.27680525164113784
4 0.37468581306947357 0.7179834907383154 0.4238148102345108 0.48604520872471085
2 0.4240000000000002 0.4108315098468273 0.1386666666666669 0.13894967177242898
3 0.5533333333333333 0.426148796498906 0.14666666666666667 0.14989059080962805
0 0.44215382907083567 0.4255915555776893 0.31392267798173323 0.2783409708726102
