1 0.3386666666666666 0.29611650485436897 0.3253333333333333 0.3851132686084144
4 0.49849526323975324 0.5638537361715708 0.48947599646319284 0.5109917689244784
2 0.41 0.21440129449838188 0.09733333333333331 0.15048543689320387
3 0.412 0.21116504854368934 0.13333333333333333 0.16990291262135923
0 0.28599999999999975 0.2427184466019418 0.14266666666666672 0.32038834951456335
