1 0.4640000000000001 0.489059080962801 0.4266666666666668 0.3107221006564552
4 0.3596694510351773 0.7400781310287639 0.43159910935605417 0.4978541712799411
2 0.44733333333333314 0.4710065645514223 0.12933333333333338 0.134573304157549
3 0.562 0.49288840262582057 0.14 0.14113785557986872
0 0.45123281248040625 0.46985352431589616 0.3624535614866112 0.3266086311993848
