1 0.5779999999999998 0.44478844169246656 0.452 0.2868937048503612
4 0.48411689706571137 0.6895658667678671 0.4312864192612514 0.4610537864023874
2 0.580666666666667 0.4158926728586168 0.14000000000000046 0.16511867905056765
3 0.7 0.42518059855521156 0.15466666666666667 0.17131062951496387
0 0.4996227642820317 0.3924634683744982 0.19155831177271154 0.24279060325809368
0 0.6146666666666667 0.41847265221878227 0.13600000000000004 0.2094943240454076
