1 0.4613333333333333 0.5203296703296704 0.4186666666666667 0.2692307692307692
4 0.3642620263150252 0.7736506978461477 0.44525728070328113 0.4955871451428473
2 0.4986341649702803 0.4935904976054883 0.12388420622115774 0.17162338135832086
3 0.5766666666666667 0.5115384615384615 0.15333333333333335 0.16813186813186815
0 0.44524589311698975 0.4926405016691859 0.3006576634643628 0.28865923206943295
