1 0.512 0.41282689912826903 0.47733333333333333 0.45454545454545453
4 0.5 0.765255292652553 0.4 0.46948941469489414
2 0.4039999999999999 0.318181818181818 0.18666666666666654 0.23287671232876708
3 0.612 0.32938978829389787 0.19466666666666663 0.23536737235367372
0 0.5046666666666659 0.3630136986301366 0.4253333333333329 0.4694894146948934
