1 0.43510698034009293 0.44961965611099713 0.4177544184570223 0.3236060751408249
4 0.27892704504174537 0.6517884744610385 0.4046391657759656 0.43565270272078466
2 0.5539545753987002 0.4573078286244824 0.14262595799356048 0.15758421981669038
3 0.555205767327459 0.46147544584069694 0.16344084822301128 0.17376622622478266
0 0.39400237230613244 0.38480568984544405 0.24828480408992554 0.2823319607092276
