1 0.5442398109605519 0.508122834078279 0.44484526740398933 0.42028111731277873
4 0.3975675209327736 0.730865738165481 0.42810863771536306 0.48696736218623277
2 0.5445092950854028 0.4795061688602152 0.15361397296946336 0.17102758070504875
3 0.6326666666666667 0.489059080962801 0.14266666666666666 0.1553610503282276
0 0.5110811365910171 0.4603649574312108 0.31926822333542376 0.3083585966548108
