1 0.52 0.5512195121951219 0.32 0.36422764227642274
4 0.5578743733007243 0.7845921307109848 0.2704455740065125 0.38306752855361964
2 0.6011784380694959 0.5123198383027465 0.10406026948443454 0.1539177258618389
3 0.6025175490121457 0.5075008261036542 0.1370308949962005 0.20572597818757202
0 0.48670173839528963 0.49656992807144335 0.19442237542008925 0.3154142372153453
