1 0.498 0.2768052516411379 0.41199999999999987 0.2603938730853392
4 0.3795503751142526 0.5195274543226971 0.35316956186431514 0.4309681920065336
2 0.6080000000000001 0.27789934354485774 0.11199999999999999 0.1487964989059081
3 0.6233333333333332 0.2828227571115974 0.13733333333333334 0.14989059080962805
0 0.4543905066935737 0.23189473239630495 0.23398230451089674 0.27633572516124955
