1 0.44866666666666677 0.4680729760547321 0.38533333333333347 0.338654503990878
4 0.5606768060853057 0.6978362398488624 0.4473891684919484 0.4808632829669531
2 0.5586666666666665 0.427594070695553 0.128 0.1413911060433295
3 0.5593333333333333 0.41961231470923616 0.14 0.15963511972633979
0 0.40484491979436704 0.4295067093535683 0.27048089368213835 0.3394640857376129
