1 0.5253333333333333 0.4917943107221008 0.3973333333333333 0.30087527352297605
4 0.5173333333333333 0.7428884026258206 0.30133333333333334 0.38730853391684905
2 0.44533333333333336 0.45350109409190353 0.1386666666666666 0.14989059080962794
3 0.594 0.4589715536105033 0.13733333333333334 0.15207877461706787
0 0.5259999999999995 0.40919037199124647 0.28399999999999975 0.3150984682713345
