1 0.45 0.4524555903866249 0.444 0.28422152560083597
4 0.3392036483700057 0.7125157823786682 0.4040020197618243 0.4954829201915291
2 0.468 0.41640543364681315 0.1413333333333334 0.15360501567398113
3 0.5740000000000001 0.42789968652037613 0.16133333333333333 0.1536050156739812
0 0.410028184764305 0.4265214653150904 0.3172396145548047 0.2598142399567552
