1 0.43200000000000005 0.505 0.33866666666666667 0.37666666666666665
4 0.45393835355549766 0.7781934904566178 0.27335553914144173 0.41731582878433554
2 0.5102121516453317 0.471239030215509 0.12738002866633416 0.17042008731334932
3 0.5221918493209899 0.4736792641743126 0.1549992336198582 0.20480506702384807
0 0.38756815026985847 0.44569330420324904 0.25099031719485076 0.3369200086827738
