1 0.5479999999999999 0.5206611570247933 0.4079999999999999 0.26239669421487605
4 0.46705548407698977 0.7495635657859405 0.3947926626306334 0.4498132528409647
2 0.5620000000000002 0.502066115702479 0.1266666666666669 0.14876033057851232
3 0.6686666666666667 0.5123966942148759 0.1373333333333331 0.14462809917355363
0 0.5325955311349376 0.501976986951867 0.2868527549092933 0.2463953046063714
