1 0.5059999999999999 0.5 0.3213333333333333 0.37666666666666665
4 0.5647327573927302 0.7576785471531085 0.3103821367456181 0.39971079604549226
2 0.5861553549024143 0.45827347316207573 0.09713395145306655 0.14475918526800613
3 0.5962510122697505 0.45405090872978293 0.1244815859404241 0.18421793832576228
0 0.47373548280877414 0.46656236667066253 0.1800719337436798 0.26803705049014476
