1 0.6418225480269669 0.5754407350643205 0.430721392914914 0.345011704115064
4 0.5157315371873653 0.7641502649216378 0.32073136279640857 0.3756326291639718
2 0.7203568531878954 0.5824171113444008 0.10774811189863413 0.13595238012994934
3 0.7340147856170013 0.5813653761933315 0.13921618970490898 0.14249039764243648
0 0.6006666666666667 0.5245302713987473 0.14800000000000002 0.20981210855949894
