1 0.6093333333333333 0.5151356993736952 0.35199999999999987 0.24947807933194155
4 0.5000628549951976 0.7186412678529399 0.3328026006064279 0.39971980087496034
2 0.7189650502784153 0.515632752184898 0.1287974008990463 0.13667696708022647
3 0.7201686847599178 0.5189586638830889 0.13086263048016433 0.14397160751565566
0 0.5859999999999996 0.4519832985386219 0.16399999999999962 0.22755741127348625
