1 0.47200000000000003 0.43164277839029763 0.47200000000000003 0.3759647188533627
4 0.5330315814950519 0.6691980371222366 0.42740585492247307 0.5129384537471032
2 0.594666666666667 0.4035281146637265 0.14933333333333348 0.1719955898566703
3 0.6188513424048907 0.40106908827933396 0.19052969449568147 0.20658945838743756
0 0.45918233591582486 0.3838065202653032 0.3359145647382742 0.3936933457389087
