1 0.6973333333333334 0.5861169102296451 0.344 0.24112734864300622
4 0.5884932231953692 0.7539352776904823 0.30308255162361797 0.35454216931032645
2 0.8026508866333794 0.5886327154891976 0.11541368517786879 0.12611782474050087
3 0.8103142811127504 0.5872579526239542 0.13158459369355113 0.13484525558691707
0 0.6879999999999995 0.5109603340292272 0.15199999999999986 0.23277661795407073
