1 0.4646666666666667 0.4781449893390192 0.36666666666666664 0.2547974413646055
4 0.3568659987737027 0.708563413083064 0.3376202869060589 0.39871843519436906
2 0.5793333333333334 0.47814498933901917 0.124 0.14392324093816627
3 0.5733333333333333 0.48187633262260127 0.13333333333333333 0.15138592750533048
0 0.4274896185549563 0.4278025074844834 0.2030746433360507 0.26434350405286255
