1 0.4446666666666667 0.4741666666666666 0.31866666666666665 0.38166666666666665
4 0.4641596226299943 0.7511225686106289 0.2887578538000574 0.46847627438693734
2 0.5246666666666667 0.43750000000000006 0.09466666666666666 0.15166666666666667
3 0.5313333333333332 0.43 0.11066666666666666 0.18666666666666668
0 0.40528330904283094 0.3716488914663472 0.24967920096541607 0.4087819655724303
