1 0.5053333333333334 0.3966666666666667 0.30933333333333335 0.37666666666666665
4 0.5470814657303038 0.6629642133096105 0.31584359389686706 0.4867779530773433
2 0.5793333333333333 0.35833333333333334 0.08933333333333339 0.14999999999999994
3 0.5913333333333334 0.35083333333333344 0.10799999999999961 0.17166666666666683
0 0.4847289106719506 0.2860243990873002 0.28745100606508567 0.39706526190094776
