1 0.5313333333333334 0.4307692307692308 0.5106666666666667 0.3692307692307692
4 0.5553964316291856 0.7024487557455212 0.3900699574805359 0.3644947647636104
2 0.4233333333333333 0.36043956043956044 0.18 0.1846153846153846
3 0.6133333333333334 0.3357142857142857 0.18666666666666668 0.2032967032967033
0 0.5153049113373009 0.3813163504922626 0.44129499867779837 0.48419724595058805
