1 0.4973333333333333 0.7170731707317072 0.35199999999999987 0.37398373983739835
4 0.5109153477461108 0.9043580128165157 0.2644281882949979 0.1854203576700604
2 0.43 0.6739837398373985 0.13199999999999998 0.23902439024390257
3 0.5682488140484435 0.6514292587561937 0.17770590297711067 0.2515711754471179
0 0.4913432966930074 0.6538284370969065 0.32157895188643065 0.47551399136690037
