1 0.48 0.4813186813186812 0.424 0.32527472527472523
4 0.40689014019217223 0.7571527784449961 0.41860648173597254 0.49692816203057716
2 0.4554414526097144 0.45751915182719977 0.1581799381532275 0.16450682828611932
3 0.5952974549262728 0.4702213936001523 0.16240833595699677 0.1734502179857948
0 0.46676236588062053 0.45063075600575375 0.3696128836412831 0.33737244214102463
