1 0.5506666666666666 0.47802197802197793 0.42133333333333334 0.26153846153846155
4 0.5143249634882636 0.7194865992344472 0.3749810437084357 0.4478381703567551
2 0.548 0.43956043956043955 0.14133333333333337 0.15164835164835164
3 0.6686666666666667 0.4532967032967033 0.14800000000000002 0.15054945054945054
0 0.5460621181122329 0.4548277529396689 0.33572539541515667 0.2613220662665752
