1 0.434 0.5089430894308943 0.30533333333333335 0.37073170731707317
4 0.5194338287887481 0.7515906838324824 0.34242677481663397 0.41017981027567657
2 0.5280000000000001 0.4569105691056911 0.08533333333333322 0.14308943089430898
3 0.5286666666666667 0.4414634146341463 0.09199999999999997 0.17723577235772356
0 0.39177523741266657 0.4746547622487014 0.19324651822392905 0.30551356488255366
