1 0.4793333333333332 0.5247252747252747 0.41199999999999987 0.30439560439560437
4 0.4846666666666664 0.7923076923076923 0.36399999999999966 0.3824175824175831
2 0.38533333333333325 0.4813186813186812 0.17066666666666655 0.17362637362637356
3 0.5660000000000001 0.4818681318681319 0.17733333333333334 0.17912087912087912
0 0.4813333333333344 0.40219780219780205 0.37866666666666726 0.4857142857142857
