1 0.49266666666666653 0.5162980209545984 0.4093333333333332 0.30616996507566946
4 0.42335701996218866 0.7567795423393175 0.34748339571181946 0.47460192441725835
2 0.49063278295304585 0.468625161909089 0.16649972625742912 0.1944808345137916
3 0.5813333333333334 0.4837019790454018 0.15733333333333333 0.16181606519208386
0 0.47193938989230544 0.4656883070761232 0.30087212921589973 0.2949255380363627
