1 0.5406666666666667 0.517590618336887 0.38 0.25906183368869934
4 0.5501424060275558 0.7498163406683734 0.3078893417705726 0.3607698533762999
2 0.47066666666666657 0.4840085287846482 0.12799999999999984 0.12579957356076757
3 0.6039999999999999 0.48187633262260127 0.13066666666666665 0.11940298507462685
0 0.5359999999999999 0.4728144989339023 0.2613333333333334 0.2462686567164185
