1 0.5653333333333334 0.517032967032967 0.4666666666666666 0.3395604395604396
4 0.4365387615098989 0.7856396180169009 0.45678803551427477 0.5410145065692099
2 0.5648505887691647 0.48203117293820746 0.15440253511787497 0.17774854120539288
3 0.6797368778865155 0.5118882814167027 0.18206795187331892 0.18122733973081864
0 0.5519869273988917 0.49139338131427707 0.341114761065469 0.31268315815036146
