1 0.5766666666666665 0.5458422174840085 0.40400000000000014 0.28571428571428564
4 0.5371567292883662 0.7720122280344739 0.3529994695079269 0.39118537473186377
2 0.5600320922545481 0.5147912227544429 0.13934875598485072 0.15118637207232552
3 0.6726666666666666 0.5271855010660981 0.13733333333333334 0.12260127931769721
0 0.5720162709266379 0.5161034493926674 0.2959391596889979 0.25884959868853324
