1 0.43799999999999994 0.6178861788617886 0.25733333333333336 0.3382113821138211
4 0.4276722019955432 0.8470474669041805 0.2415639183166018 0.31224654364334553
2 0.37266666666666654 0.5878048780487807 0.11333333333333317 0.19024390243902445
3 0.49266666666666664 0.5967479674796747 0.10533333333333333 0.17560975609756097
0 0.4374058872769575 0.5513666897834794 0.2795823080478648 0.4137064919923135
