1 0.4933333333333334 0.45892857142857113 0.4320000000000001 0.5321428571428567
4 0.5262712052654339 0.7661756590099482 0.4398641516293163 0.4582942430618266
2 0.3966666666666667 0.3696428571428571 0.17200000000000007 0.32499999999999996
3 0.5753333333333334 0.36964285714285716 0.19066666666666665 0.32142857142857145
0 0.4999999999999997 0.3526785714285711 0.3999999999999998 0.5839285714285707
