1 0.532 0.43052516411378555 0.44 0.30306345733041573
4 0.5046986428713974 0.7005188377741456 0.3830918234132554 0.46016788743760517
2 0.51 0.40043763676148797 0.132 0.14442013129102846
3 0.6506666666666665 0.4141137855579869 0.14933333333333335 0.1608315098468271
0 0.5320005579962463 0.42422862295631625 0.30324386350092936 0.24179393347315056
