1 0.5062755222093468 0.35753916497344107 0.3380583483295293 0.3516603223699268
4 0.394253293392031 0.5928916212330511 0.32921719083092255 0.4900123302498591
2 0.5890409121115758 0.34577424469822693 0.11118426907968683 0.16035725623372554
3 0.5926666666666668 0.34416666666666673 0.09733333333333331 0.1716666666666667
0 0.48486365186932834 0.26237521690041066 0.17798227242899783 0.31941751813081914
