1 0.518 0.5030549898167006 0.41199999999999987 0.3054989816700612
4 0.4963104604966116 0.7508025518392881 0.39384817494340285 0.3898034489602481
2 0.4359999999999997 0.437372708757637 0.16799999999999973 0.17413441955193462
3 0.6073333333333332 0.44806517311608973 0.15866666666666668 0.15885947046843177
0 0.5330194715380474 0.420996937146686 0.40102167562869584 0.4128279920766296
