1 0.41133333333333333 0.48249452954048133 0.44133333333333336 0.2713347921225383
4 0.3481281259155494 0.7192607511494887 0.39408252722344317 0.47699154278551936
2 0.41333333333333333 0.42943107221006577 0.12 0.15645514223194748
3 0.5240000000000001 0.4392778993435449 0.15733333333333333 0.1477024070021882
0 0.39383463011228514 0.41742512011272764 0.31977983940026233 0.30971940087885114
