1 0.4446666666666667 0.4089430894308943 0.31866666666666665 0.3626016260162601
4 0.46378756962424567 0.7040807216592969 0.26787227287937226 0.4420605130845698
2 0.3746666666666667 0.3585365853658534 0.11733333333333348 0.1804878048780487
3 0.504 0.348780487804878 0.12266666666666667 0.183739837398374
0 0.4365547935959867 0.30341494358019017 0.2749541696085766 0.4441702194986989
