1 0.5586666666666666 0.4512195121951219 0.35733333333333334 0.4113821138211382
4 0.5629225421401187 0.7539021842283645 0.22175073753108512 0.44281340734840996
2 0.6638019780315985 0.43992056954479675 0.1261534077787948 0.1901628927358364
3 0.6613917909495826 0.4399342352345555 0.1394186204009111 0.19640155300247045
0 0.5530333998179348 0.3586248082433283 0.25020609823913437 0.3892065919496153
