1 0.4933333333333333 0.45514223194748354 0.45866666666666667 0.3063457330415755
4 0.4553333333333333 0.6799781181619255 0.32666666666666666 0.3971553610503282
2 0.4586666666666666 0.3862144420131292 0.14399999999999996 0.1575492341356674
3 0.5953333333333333 0.39223194748358864 0.14533333333333334 0.1455142231947483
0 0.4693333333333334 0.3725382932166303 0.31733333333333336 0.2702407002188184
