1 0.5033333333333334 0.49671772428884026 0.3506666666666668 0.2735229759299781
4 0.5006666666666668 0.7494529540481399 0.2999999999999999 0.39168490153172847
2 0.4319999999999999 0.46061269146608325 0.13333333333333308 0.12691466083150987
3 0.57 0.45951859956236324 0.132 0.1334792122538293
0 0.49933333333333235 0.4256017505470456 0.27599999999999975 0.31291028446389463
