1 0.5645635071424712 0.5608024214882977 0.4419907092431141 0.3599914766793808
4 0.4086213592953132 0.7449390887457678 0.38623629696342676 0.41979570631549423
2 0.6501018509963805 0.5493090211566785 0.12347547950952134 0.14906823845768144
3 0.6669776066093196 0.5605514958684636 0.16383691739067963 0.17611332640275434
0 0.5102007493454117 0.487872027201829 0.2088470699259311 0.25540337343631675
