1 0.6526666666666666 0.5224288840262582 0.42 0.2833698030634573
4 0.5511754761795926 0.7488863001978712 0.44727854807619233 0.48331821655301205
2 0.6548470122074533 0.5085111717875516 0.17354310621081312 0.1868114733161258
3 0.7695332060576646 0.5236013581526283 0.15985118237983442 0.16394518117778703
0 0.6633428231620563 0.474391791016502 0.3425332582964151 0.3228220719800829
