1 0.5446666666666666 0.5634328358208954 0.3720000000000001 0.26332622601279315
4 0.48762873282512886 0.7762901867765589 0.38063715113453256 0.43330663628213645
2 0.5253333333333334 0.5223880597014923 0.12533333333333363 0.12793176972281445
3 0.6373333333333333 0.5447761194029851 0.14133333333333337 0.1300639658848614
0 0.5438654289937294 0.5244987109907775 0.29300438995490574 0.26657686298548183
