1 0.6046666666666667 0.2227642276422764 0.36666666666666664 0.36422764227642274
4 0.5327319486287786 0.5111783297458616 0.39696622036743406 0.6299790957467937
2 0.6073333333333333 0.14146341463414638 0.1160000000000001 0.2016260162601627
3 0.7046666666666667 0.15691056910569107 0.12933333333333333 0.183739837398374
0 0.5906666666666667 0.16016260162601625 0.24533333333333335 0.24878048780487805
