1 0.5026666666666667 0.43846153846153846 0.384 0.3120879120879121
4 0.5736975291441087 0.6671598752385881 0.3807930661297781 0.437541665104252
2 0.6187089785124329 0.4258419373383325 0.14806657538644216 0.16067595423591471
3 0.627934519673818 0.4233781757138681 0.1885593951451667 0.18879871607905677
0 0.48669687325135724 0.4170004398315835 0.295371666403743 0.334686223758697
