1 0.6233333333333333 0.47 0.2786666666666667 0.38666666666666666
4 0.7681179269039115 0.7134387587838747 0.430438823569453 0.44237460114533844
2 0.6933333333333332 0.4033333333333334 0.10400000000000001 0.14666666666666667
3 0.6920000000000001 0.3883333333333333 0.11466666666666667 0.18
0 0.5753430489113721 0.41381942744822353 0.24562302072271527 0.3757898484015538
