1 0.4953333333333333 0.4250547045951861 0.4279999999999999 0.3096280087527352
4 0.4427329722364341 0.6969426732335213 0.40042176614777975 0.485531152309334
2 0.4846666666666667 0.38730853391684905 0.11866666666666667 0.1487964989059081
3 0.5946666666666668 0.40536105032822767 0.152 0.14989059080962805
0 0.4903490852416942 0.39112574446191134 0.3334167116708362 0.31303424490924076
