1 0.5686044086517389 0.4366488504774735 0.4142083719654161 0.4089008709520517
4 0.611718242570245 0.7418011625299861 0.3403802881882516 0.49963543183684517
2 0.49665051104174407 0.39590842783819463 0.1629561344859517 0.23342632121010706
3 0.6335063339001892 0.37151279360046685 0.17369700480219066 0.2305701468060029
0 0.5533986453220789 0.3559943525604794 0.3417900236504312 0.4414094912909766
