1 0.408 0.5005279831045407 0.43466666666666653 0.3062302006335798
4 0.41551258364672106 0.720013626285287 0.3312289179132776 0.43113496004283375
2 0.5139397925191319 0.4700209388111407 0.17944807545452768 0.18139537702796715
3 0.536608716077732 0.47164569373117887 0.2398800767657579 0.22859632750098371
0 0.3707992277961364 0.436442989359971 0.2657655617098802 0.3360710271025891
