1 0.5573333333333333 0.5549040511727079 0.3466666666666668 0.23347547974413646
4 0.546 0.7921108742004265 0.292 0.3773987206823028
2 0.48466666666666663 0.5255863539445627 0.13466666666666655 0.12579957356076749
3 0.6293333333333333 0.5325159914712153 0.14399999999999996 0.12473347547974413
0 0.5559999999999995 0.5031982942430703 0.2773333333333332 0.26865671641791034
