1 0.5386666666666667 0.5008090614886731 0.4266666666666668 0.42880258899676377
4 0.5053333333333334 0.7677993527508091 0.22933333333333333 0.4644012944983819
2 0.6457715052591421 0.454680947361617 0.171323686075724 0.2023103435175981
3 0.6550799052836754 0.45280893860571053 0.2125157130274687 0.22995687134097892
0 0.47744827652939675 0.397508403579876 0.35883057138070684 0.41225489009451194
