1 0.6166666666666665 0.40866873065015485 0.4093333333333332 0.2765737874097008
4 0.5330233638480841 0.6738176182815837 0.4479998686254652 0.5095216489043136
2 0.619801439731324 0.3757557601655138 0.16821445891706638 0.1829617814053796
3 0.7366666666666667 0.39731682146542835 0.16133333333333333 0.15479876160990716
0 0.6123463654724159 0.39642393414375804 0.3604231792264493 0.3053535310115603
