1 0.484 0.5143923240938166 0.4186666666666667 0.27185501066098083
4 0.4327077716955243 0.7473219553597858 0.3675482189204851 0.40033927022312094
2 0.49466666666666653 0.4877398720682302 0.12 0.13539445628997868
3 0.5973333333333334 0.4952025586353944 0.13333333333333333 0.13326226012793177
0 0.47228676827385707 0.4942670874486473 0.2692318253254474 0.22538574143028078
