1 0.29028014814990644 0.24988707011128686 0.4253577149973127 0.39533918125385403
4 0.15145955261814842 0.4857085365963559 0.3607995996393828 0.48610870664094796
2 0.3938889919218791 0.24373167616135027 0.1434155990823867 0.18494971370828303
3 0.39275279698641774 0.25283111619055104 0.16626897127687074 0.1973716856124746
0 0.28024518140331844 0.18582576480335142 0.2253676687706458 0.3037562605330685
