1 0.4793333333333334 0.505863539445629 0.40400000000000014 0.26545842217484006
4 0.4786666666666666 0.7345415778251599 0.3306666666666666 0.35394456289978676
2 0.40000000000000013 0.4696162046908317 0.13333333333333355 0.1503198294243072
3 0.544 0.46748400852878463 0.14666666666666667 0.14818763326226012
0 0.4726666666666659 0.44029850746268634 0.28399999999999936 0.2899786780383793
