1 0.5734428350446451 0.4552733748795552 0.4384458022120404 0.37368044021658386
4 0.415803800329646 0.6884585633041741 0.3983806285792042 0.47235081956159175
2 0.6697931646387021 0.4518272375882141 0.13908806503349944 0.15410973738318867
3 0.6825054997298983 0.45156820215621335 0.1776157682174442 0.19287282140775275
0 0.5193738076153913 0.37596267150302637 0.21702146383566506 0.29217292169261483
