1 0.37400000000000005 0.34010989010989007 0.396 0.2978021978021978
4 0.36200000000000004 0.6082417582417583 0.31066666666666665 0.4054945054945055
2 0.2986666666666668 0.2890109890109892 0.16533333333333355 0.17142857142857143
3 0.46000000000000013 0.3005494505494506 0.14666666666666667 0.17032967032967034
0 0.36892802805900204 0.27804863948744596 0.3457067870108153 0.3690349820255432
