1 0.6074827105188589 0.5692353660608351 0.4344294157631981 0.3644337365398886
4 0.46718249626637204 0.7458571977674819 0.3850803215099944 0.4150253369126728
2 0.7121618921040934 0.5757169480309674 0.17285256359909973 0.16625575885258356
3 0.7098109836235476 0.5725144640573555 0.16891973059349566 0.16683937044713168
0 0.5733333333333338 0.49217118997912307 0.18400000000000089 0.23486430062630473
