1 0.5326666666666666 0.48957388939256574 0.49200000000000005 0.3100634632819583
4 0.518 0.7330009066183137 0.3853333333333333 0.39981867633726187
2 0.4266666666666666 0.45602901178603844 0.17066666666666655 0.1341795104261106
3 0.6093333333333334 0.45920217588395285 0.17333333333333317 0.14415231187669994
0 0.5180000000000001 0.4088848594741611 0.3533333333333335 0.33544877606527607
