1 0.7526666666666667 0.5027472527472526 0.42 0.3131868131868132
4 0.6529069100534306 0.755205402176341 0.4447611604843638 0.49405832638270103
2 0.7598094698388381 0.4670223859617428 0.16452468430533515 0.18482587318426197
3 0.8853333333333332 0.4807692307692307 0.13866666666666663 0.16593406593406587
0 0.7446263440977322 0.45164302273508733 0.32882128141854067 0.30667973547399513
