1 0.47800000000000004 0.5069296375266524 0.3880000000000001 0.26545842217484006
4 0.42377964772319915 0.726994836144299 0.3337009940966834 0.3897468279991616
2 0.45333333333333337 0.5042643923240937 0.11466666666666667 0.14285714285714282
3 0.5593333333333333 0.5042643923240938 0.14266666666666666 0.13859275053304904
0 0.45399999999999996 0.4717484008528784 0.25466666666666665 0.22281449893390193
