1 0.5666666666666665 0.5043763676148798 0.43466666666666653 0.31291028446389496
4 0.5103645227821167 0.7303112702082997 0.38383694043957817 0.4462867209840001
2 0.5493333333333331 0.46115973741794325 0.13333333333333316 0.14113785557986872
3 0.68 0.4764770240700219 0.128 0.14332603938730853
0 0.5954112039779781 0.4428865865459183 0.3455246392782834 0.3381024321317267
