1 0.4973333333333333 0.5405172413793103 0.3679999999999999 0.42241379310344823
4 0.5497487182941019 0.7803059553421358 0.30104832025803135 0.38492880699074195
2 0.5846666666666666 0.48275862068965525 0.1 0.17586206896551723
3 0.5999999999999999 0.4775862068965517 0.13066666666666665 0.2
0 0.45679235999677653 0.4396400422777555 0.23566196319259503 0.4426370892661171
