1 0.5306666666666666 0.29512195121951224 0.4186666666666667 0.46016260162601624
4 0.42584131747740545 0.6000554356861935 0.4282813688089472 0.6171132425352038
2 0.5213333333333333 0.24471544715447152 0.12 0.21300813008130082
3 0.6286666666666667 0.2821138211382114 0.13733333333333334 0.2
0 0.5153333333333336 0.23902439024390237 0.29733333333333334 0.3349593495934958
