1 0.4613333333333333 0.38095238095238093 0.3066666666666667 0.4013605442176871
4 0.6276233123480245 0.6539025115549721 0.4730632325361385 0.5079781140052192
2 0.5313333333333332 0.30357142857142855 0.11066666666666666 0.18197278911564627
3 0.542 0.3129251700680272 0.12133333333333333 0.18027210884353742
0 0.4233333333333333 0.35799319727891143 0.13999999999999993 0.3146258503401359
