1 0.528 0.5410447761194029 0.4053333333333333 0.27185501066098083
4 0.48380814916584286 0.7540025834386124 0.3449518586099505 0.3882441009890647
2 0.5026666666666667 0.4968017057569296 0.12533333333333332 0.13432835820895522
3 0.6226666666666667 0.5053304904051172 0.128 0.1300639658848614
0 0.506666666666667 0.48454157782516 0.2720000000000004 0.23347547974413654
