1 0.4433333333333333 0.5136916835699797 0.47599999999999987 0.32352941176470584
4 0.4494580458960297 0.7521990355490548 0.39732861523916135 0.4626127348936146
2 0.5954570911120903 0.5149822572117432 0.19910519027596663 0.1937931334052444
3 0.6092164816315052 0.5228949324950719 0.22178884597802073 0.21943210149158163
0 0.4344207118085426 0.48075232908132703 0.3181837606133967 0.3320146654469913
