1 0.5606666666666666 0.5314498933901919 0.36666666666666664 0.26759061833688697
4 0.5493333333333332 0.7622601279317698 0.28266666666666673 0.345415778251599
2 0.48799999999999977 0.5005330490405114 0.12533333333333319 0.12686567164179097
3 0.6266666666666666 0.5026652452025586 0.128 0.12473347547974413
0 0.5513333333333335 0.48134328358208905 0.25199999999999995 0.2761194029850744
