1 0.38933333333333336 0.25609756097560976 0.32 0.3300813008130081
4 0.3853333333333333 0.5886178861788618 0.25866666666666666 0.5105691056910571
2 0.3266666666666669 0.23008130081300798 0.11466666666666693 0.17073170731707304
3 0.44666666666666677 0.2284552845528455 0.12266666666666667 0.17073170731707318
0 0.38933333333333314 0.19593495934959335 0.24266666666666648 0.36585365853658514
