1 0.4966666666666667 0.5437100213219616 0.37733333333333335 0.255863539445629
4 0.41563409877946383 0.7700165723874207 0.3693450792914817 0.4035153286070818
2 0.4833333333333335 0.5261194029850751 0.11600000000000006 0.128997867803838
3 0.596 0.5378464818763325 0.12 0.12899786780383796
0 0.4796037768150397 0.5253954905856425 0.2809030949338998 0.24349594491330379
