1 0.4446666666666667 0.5223880597014925 0.42266666666666663 0.29211087420042636
4 0.34786397737730984 0.7468568266836543 0.40306285573225753 0.44972309318977727
2 0.46199999999999997 0.48827292110874226 0.12400000000000007 0.13646055437100224
3 0.5613333333333334 0.5106609808102345 0.14133333333333337 0.15565031982942432
0 0.46273594888567926 0.49283514730107314 0.3281918875301704 0.3020079907784992
