1 0.5060000000000001 0.5293176972281449 0.38533333333333347 0.26759061833688697
4 0.44059964801828677 0.7582369155391556 0.3926910668103794 0.4395291805311425
2 0.4906666666666667 0.5117270788912583 0.11733333333333322 0.1300639658848614
3 0.6026666666666666 0.5191897654584223 0.13066666666666665 0.13432835820895522
0 0.48193974451145183 0.5003070323458053 0.2901931433771924 0.25789532161842216
