1 0.48704404448990063 0.4056730125490887 0.5923708152087301 0.4594241800635687
4 0.5428285361210091 0.6598065421909718 0.43761852490011977 0.422417296272153
2 0.37398818631946595 0.3629969023675963 0.20388971501840672 0.1958357920468168
3 0.5596830301790217 0.34152094313714654 0.2350499432027307 0.2203712740565659
0 0.44991705395088843 0.3017569678190038 0.4817438480555809 0.5364579633012926
