1 0.41133333333333333 0.5351812366737739 0.42266666666666663 0.2899786780383795
4 0.3628304328799916 0.7529164394434747 0.3712268555644495 0.437348843537402
2 0.4066666666666666 0.4877398720682303 0.13066666666666665 0.1417910447761194
3 0.5246666666666667 0.5015991471215352 0.14266666666666666 0.1396588486140725
0 0.4042827705846126 0.49548675068411496 0.29393573925879724 0.24563870426910078
