1 0.554 0.44967177242888395 0.364 0.2625820568927789
4 0.44085107670190893 0.6688734381116354 0.3335038391055442 0.40485527737391463
2 0.6566666666666667 0.45459518599562365 0.11866666666666667 0.1389496717724289
3 0.662 0.4529540481400438 0.124 0.13785557986870897
0 0.5105107379372871 0.4015143354815609 0.2079273345427689 0.2661927853386244
