1 0.46733333333333327 0.5456043956043957 0.4093333333333332 0.2956043956043956
4 0.4646666666666667 0.7796703296703297 0.30266666666666664 0.3813186813186813
2 0.3859999999999999 0.48846153846153856 0.13199999999999984 0.14395604395604392
3 0.5300000000000001 0.49175824175824173 0.132 0.14835164835164835
0 0.45666666666666644 0.4697802197802197 0.27066666666666583 0.2692307692307689
