1 0.612 0.5157261794634598 0.4320000000000001 0.25624421831637373
4 0.507527451405335 0.7373418080355814 0.3526472711615324 0.4126953616716517
2 0.7293333333333333 0.5208140610545791 0.14133333333333337 0.1350601295097132
3 0.7353333333333333 0.5175763182238667 0.156 0.14523589269195186
0 0.576 0.46577243293247006 0.184 0.2488436632747457
