1 0.5726666666666667 0.49840085287846486 0.33466666666666667 0.26332622601279315
4 0.5733333333333333 0.732409381663113 0.30133333333333334 0.35607675906183367
2 0.49800000000000005 0.46695095948827275 0.1346666666666665 0.1321961620469082
3 0.6286666666666666 0.46748400852878463 0.12133333333333333 0.13326226012793177
0 0.5639999999999996 0.43283582089552214 0.25066666666666637 0.28784648187633255
