1 0.4886666666666666 0.5517057569296375 0.3933333333333332 0.26119402985074625
4 0.41071618917924924 0.7738614274282907 0.3969024134375838 0.46459538683830653
2 0.48359148126629614 0.5034128412435193 0.1494354614300869 0.1486476834940993
3 0.5953333333333335 0.5293176972281448 0.14266666666666666 0.1396588486140725
0 0.47213550764055073 0.5115514408915317 0.3143204481479673 0.2908058323083445
