1 0.4933333333333334 0.475 0.28266666666666673 0.36
4 0.4740000000000004 0.766666666666666 0.2359999999999999 0.46666666666666634
2 0.43866666666666654 0.4124999999999999 0.11466666666666635 0.19833333333333342
3 0.5593333333333333 0.4308333333333333 0.10533333333333333 0.205
0 0.49418704876659364 0.390231701366791 0.2904018999089775 0.41801462700949743
