1 0.4337930630479056 0.3245313478432428 0.44455351922079644 0.32898877077669775
4 0.30235897539198137 0.5440392114867041 0.39240907934263847 0.4316990033369211
2 0.5453333333333333 0.31673960612691465 0.12 0.1323851203501094
3 0.5513333333333333 0.3189277899343545 0.12933333333333333 0.14113785557986872
0 0.40076854543023543 0.2782559744888764 0.24785575349140337 0.27791003127807884
