1 0.45773562705502 0.5579992679357928 0.48948702798805327 0.42548927899274547
4 0.3395857133473764 0.7773332440225481 0.42454542744153345 0.5018959566532263
2 0.4916814734013177 0.49560715369975683 0.1591347986204466 0.18825489420290084
3 0.564 0.5203296703296704 0.14399999999999996 0.1461538461538462
0 0.4330911645548746 0.5238999390735937 0.27588930425825864 0.24459994261024456
