1 0.4886666666666666 0.45934959349593496 0.324 0.36910569105691055
4 0.5030458318251447 0.7387835719124121 0.25586802122021424 0.4697614869727229
2 0.5737981069084225 0.44418926459486285 0.11192084413407109 0.15839959432719694
3 0.5786506598754378 0.43230210397837837 0.147768224666627 0.1948626278815324
0 0.4604549826847334 0.3897242684351291 0.2580297491442582 0.32533111140048204
