1 0.488 0.7816666666666666 0.2879999999999999 0.32
4 0.4866666666666668 0.9233333333333335 0.23466666666666666 0.15333333333333335
2 0.42599999999999993 0.7416666666666666 0.11066666666666679 0.16
3 0.5393333333333333 0.7516666666666666 0.10533333333333333 0.16666666666666663
0 0.4866666666666662 0.7075 0.22933333333333322 0.3716666666666668
