1 0.4053333333333334 0.535181236673774 0.4266666666666668 0.3091684434968017
4 0.35841900161369084 0.7620825827817842 0.37932769051467957 0.4312674944618985
2 0.4060838179314355 0.4997867564683418 0.15018630484846882 0.16143952519664012
3 0.5193333333333334 0.5239872068230277 0.14800000000000002 0.1417910447761194
0 0.40126543054655506 0.48087787011529515 0.31276838117141387 0.3051243673812788
