1 0.45933333333333337 0.4148606811145511 0.42533333333333334 0.28482972136222917
4 0.3775669991722148 0.6635245022483108 0.3596978688838629 0.42763420659945584
2 0.45866666666666656 0.4004127966976265 0.11999999999999987 0.14241486068111459
3 0.566 0.4066047471620227 0.14533333333333345 0.14860681114551075
0 0.4278129684394051 0.40347023510621893 0.3048007948785012 0.24825657478630972
