1 0.5646666666666668 0.5766666666666667 0.3453333333333333 0.3933333333333333
4 0.5989552775748974 0.8038168477998707 0.3368955911921837 0.39236630440025855
2 0.49200000000000005 0.5341666666666667 0.11199999999999999 0.185
3 0.612 0.5116666666666667 0.128 0.18
0 0.5555734465971971 0.4815419314720309 0.2748495917572267 0.41758338564102304
