1 0.5133333333333333 0.5370563674321504 0.336 0.255741127348643
4 0.5106666666666666 0.7520876826722338 0.2879999999999999 0.34133611691022964
2 0.4419999999999997 0.5161795407098119 0.12933333333333286 0.13674321503131512
3 0.5773333333333334 0.518267223382046 0.13066666666666665 0.15135699373695202
0 0.5099999999999997 0.46711899791231704 0.26533333333333325 0.2933194154488516
