1 0.5319904911025561 0.5271497379207175 0.5246806514555837 0.4799133489081154
4 0.3480796484520725 0.7397592188105543 0.463513806422458 0.4976756682314043
2 0.652205967175937 0.5410361275238835 0.16845908760763137 0.18090258629954137
3 0.6526521959443117 0.5456050345185187 0.18965195207288224 0.19188952584849744
0 0.5046666666666667 0.4510989010989011 0.1906666666666666 0.2780219780219781
