1 0.5333333333333333 0.5495735607675907 0.424 0.2782515991471216
4 0.4581280143156633 0.7736299496005264 0.37294647674618125 0.43898938625175743
2 0.5213333333333333 0.5154584221748402 0.12533333333333346 0.12686567164179097
3 0.6273333333333333 0.5431769722814499 0.12933333333333333 0.12046908315565032
0 0.5227781884821829 0.5162454118710985 0.2934907458863696 0.2731447053219126
