1 0.508 0.4562363238512035 0.3920000000000001 0.28665207877461707
4 0.502 0.686542669584245 0.29733333333333334 0.37089715536105033
2 0.43866666666666687 0.4228665207877463 0.1360000000000002 0.13019693654266962
3 0.5773333333333334 0.423960612691466 0.13066666666666665 0.14332603938730853
0 0.5059999999999997 0.3840262582056891 0.26533333333333325 0.2910284463894966
