1 0.45 0.8291666666666667 0.276 0.2750000000000001
4 0.452 0.9508333333333335 0.2266666666666667 0.09166666666666666
2 0.38733333333333336 0.7891666666666667 0.10266666666666653 0.16166666666666657
3 0.496 0.7891666666666667 0.10400000000000001 0.15166666666666667
0 0.4446666666666665 0.7616666666666668 0.20666666666666625 0.35666666666666613
