1 0.568 0.48134328358208944 0.36 0.25053304904051166
4 0.45687852070379703 0.6843540843924606 0.32200080002179393 0.3905286247692651
2 0.6759999999999999 0.46801705756929635 0.12 0.1279317697228145
3 0.676 0.46588486140724944 0.13066666666666665 0.13219616204690832
0 0.5318088971312753 0.43096409008669695 0.2130505341628593 0.2480139251268389
