1 0.4466666666666667 0.5266524520255864 0.41600000000000004 0.26439232409381663
4 0.41333333333333333 0.7329424307036247 0.30933333333333335 0.3635394456289978
2 0.42599999999999993 0.49147121535181243 0.11866666666666667 0.13219616204690832
3 0.54 0.4968017057569296 0.13333333333333333 0.13432835820895522
0 0.4126666666666667 0.47974413646055436 0.25466666666666665 0.20042643923240938
