1 0.458 0.4372955288985823 0.35600000000000004 0.24645583424209377
4 0.4053333333333333 0.6543075245365323 0.18399999999999994 0.3446019629225737
2 0.565501764743078 0.4595569642872348 0.1655146369911148 0.1737318380584557
3 0.5745599883058238 0.45597243570452156 0.1832451614503004 0.1844885010558626
0 0.4594672747532509 0.40753006959843946 0.2880829821616361 0.2823976652024578
