1 0.4126666666666667 0.3457330415754923 0.516 0.3413566739606128
4 0.33678845996584444 0.5945236205500477 0.4056168403171189 0.4976703518395961
2 0.4073333333333332 0.27844638949671774 0.13733333333333306 0.13894967177242892
3 0.53 0.2850109409190372 0.14533333333333334 0.15207877461706787
0 0.37324375923059505 0.28667630277735723 0.3279005860244569 0.2781291853664824
