1 0.4586666666666667 0.5097560975609757 0.336 0.42113821138211394
4 0.526437574852243 0.7603974427622948 0.3075599759719843 0.4262259160482327
2 0.5646666666666667 0.4658536585365854 0.11066666666666666 0.167479674796748
3 0.566 0.4617886178861788 0.11866666666666667 0.16260162601626013
0 0.44091267797451145 0.4146127378459873 0.19388385388382617 0.387089216553465
