1 0.5886666666666667 0.4881320949432405 0.45733333333333337 0.2807017543859649
4 0.5337756054554315 0.717896317913761 0.3771818847239759 0.4549657722526564
2 0.5953333333333333 0.4582043343653247 0.13466666666666668 0.13828689370485026
3 0.7086666666666666 0.46388028895768835 0.13733333333333334 0.14551083591331268
0 0.5076082854663092 0.45275254314595087 0.14626160289610027 0.19176317712986574
0 0.6286666666666667 0.4602683178534571 0.15066666666666667 0.18163054695562436
