1 0.6173333333333333 0.4398373983739837 0.32266666666666666 0.39186991869918697
4 0.6163304933143818 0.7156530515352412 0.22528941896552332 0.46688645850030935
2 0.7052146284760268 0.417265113658232 0.1280490093261386 0.18850913034083291
3 0.7139269242067968 0.4015735999094098 0.17213700790597478 0.2397496557811825
0 0.5958382721954303 0.3236362681099436 0.2700298501467418 0.40294506929261786
