1 0.38933333333333336 0.7233333333333333 0.26666666666666666 0.30333333333333334
4 0.39810043982751325 0.8675742589082805 0.23737763897234118 0.2609197407263551
2 0.3313333333333333 0.6800000000000003 0.10266666666666677 0.1666666666666666
3 0.444 0.6616666666666667 0.11466666666666667 0.17666666666666667
0 0.385287620412398 0.611556346702113 0.2520440016605025 0.3960196375622507
