1 0.5597204474034174 0.47930444723458565 0.44816779026321446 0.3617109733384972
4 0.38432819198522256 0.7003841617794095 0.4377133207934682 0.4736765218887726
2 0.6547200282417265 0.4837458322817802 0.1787043273423612 0.19008567532627496
3 0.6691189692774663 0.4832794668872846 0.17526347965935885 0.18965552755958862
0 0.5140000000000002 0.3916408668730648 0.21200000000000013 0.29618163054695557
