1 0.638 0.28861788617886175 0.3426666666666667 0.33333333333333326
4 0.5549592865240659 0.5932506972937537 0.3861946478120396 0.5796708326669784
2 0.602 0.23577235772357724 0.12666666666666665 0.208130081300813
3 0.7200000000000002 0.2626016260162602 0.128 0.1902439024390244
0 0.625349168689359 0.2400956959446938 0.31471809744527085 0.3469429800375156
