1 0.5686597211699508 0.5182139358713096 0.37792807193195754 0.27354866295972696
4 0.45159060227016345 0.7162868770439491 0.33655822414971337 0.401138884219871
2 0.6653333333333333 0.5053304904051172 0.11466666666666667 0.13646055437100213
3 0.6626666666666666 0.5106609808102346 0.11733333333333333 0.14072494669509594
0 0.521542087560756 0.4415051709333557 0.20323996609877462 0.2786818142700372
