1 0.44066666666666665 0.5170575692963753 0.38266666666666665 0.24520255863539442
4 0.3868605371470666 0.7307459737859259 0.34234567616572437 0.4077108097927845
2 0.42066666666666674 0.47494669509594883 0.1266666666666668 0.12473347547974413
3 0.5413333333333333 0.48827292110874204 0.128 0.1257995735607676
0 0.4133333333333332 0.4621535181236669 0.27466666666666667 0.27825159914712055
