1 0.516 0.5113519091847265 0.44 0.3065015479876161
4 0.4239543065396687 0.7314423948175565 0.4493204338264386 0.5026832723594683
2 0.5253333333333333 0.46181630546955627 0.1360000000000001 0.15376676986584106
3 0.6486666666666667 0.47162022703818374 0.15066666666666667 0.14654282765737878
0 0.4747554697979078 0.4158554515998672 0.33986660875154956 0.35880187979839795
