1 0.6208378690535173 0.5135535394016482 0.38294392810750766 0.3079204490287301
4 0.4856246900419374 0.6969362957694415 0.3473802908889248 0.4057222775252214
2 0.7120000000000001 0.5010438413361169 0.12533333333333332 0.12734864300626306
3 0.7086666666666668 0.5026096033402924 0.11866666666666667 0.12212943632567849
0 0.5820000000000001 0.4399791231732781 0.16400000000000003 0.24321503131524091
