1 0.5115922949694125 0.526885662476585 0.4483014997454836 0.3483316948746568
4 0.4060903905727658 0.7524589611207123 0.43227707138118787 0.4984335287060847
2 0.5157026698753059 0.491538042027505 0.15912215887823464 0.17564057354826473
3 0.632331578743925 0.5176399137418652 0.16952064506143785 0.17884049016831668
0 0.46133333333333326 0.4266958424507658 0.26399999999999985 0.3588621444201312
