1 0.4793333333333333 0.5617886178861788 0.31066666666666665 0.33983739837398375
4 0.5305021430087653 0.804447650742703 0.3064904182322583 0.3911046985145944
2 0.5686666666666668 0.5235772357723576 0.11600000000000003 0.17235772357723575
3 0.5653333333333334 0.5227642276422766 0.12266666666666667 0.183739837398374
0 0.44806927396135465 0.44831324797821254 0.28252110104329764 0.44393555855446126
