1 0.5039999999999999 0.6252032520325203 0.3253333333333333 0.36585365853658536
4 0.5002336469819653 0.834006060974184 0.23775430900897 0.3113936401311321
2 0.5940000000000001 0.5845528455284552 0.11600000000000003 0.17723577235772361
3 0.5953333333333334 0.5853658536585366 0.11600000000000003 0.18536585365853658
0 0.4524450647864693 0.52269882799303 0.2596793312572856 0.40647394662261715
