1 0.5 0.4967032967032967 0.3413333333333333 0.24615384615384617
4 0.5051224846734099 0.7403108076908431 0.33629748775739315 0.4137264310957508
2 0.4139999999999999 0.4582417582417579 0.13733333333333336 0.1384615384615384
3 0.568 0.45714285714285724 0.14399999999999996 0.13846153846153847
0 0.4810213128621297 0.37872892491661575 0.35998965941042466 0.3967794021574862
