1 0.5053333333333333 0.4814004376367613 0.32799999999999996 0.26477024070021865
4 0.5046666666666667 0.7483588621444199 0.284 0.3851203501094092
2 0.43466666666666653 0.4513129102844639 0.128 0.13676148796498905
3 0.5726666666666667 0.45185995623632386 0.13466666666666666 0.13129102844638946
0 0.49800000000000083 0.4305251641137852 0.29200000000000037 0.3030634573304151
