1 0.4746666666666667 0.7341666666666665 0.28 0.3183333333333333
4 0.4885317830114776 0.9091618882360067 0.2380168980027625 0.1691676061556967
2 0.41333333333333333 0.6883333333333332 0.11466666666666667 0.17666666666666667
3 0.5340000000000001 0.6766666666666664 0.11600000000000021 0.1666666666666666
0 0.4750021516808603 0.694252219899263 0.27478216782626647 0.3886822384887298
