1 0.6226666666666667 0.7611548556430446 0.3653333333333333 0.30446194225721784
4 0.6312078232804998 0.9033604459278471 0.34994444264521696 0.20000920489479712
2 0.5319999999999999 0.7263779527559053 0.13599999999999987 0.1876640419947506
3 0.6893333333333332 0.7073490813648293 0.152 0.18110236220472442
0 0.6047467186604081 0.659408380313396 0.39536847658908897 0.46713012908977164
