1 0.4433333333333333 0.4914712153518124 0.3453333333333333 0.2068230277185501
4 0.3619260382793085 0.6935887304881423 0.30448821711117974 0.3813340911222076
2 0.5386666666666666 0.47974413646055436 0.128 0.13646055437100213
3 0.5366666666666667 0.47494669509594883 0.124 0.13539445628997868
0 0.3929650997820104 0.43480720724443017 0.21343487572611924 0.2659081068816954
