1 0.5593333333333333 0.6082089552238803 0.34533333333333305 0.2611940298507459
4 0.6063205199660529 0.7593852019741599 0.3550768812550902 0.385621960065491
2 0.6586666666666666 0.5559701492537313 0.14399999999999996 0.13752665245202558
3 0.6546666666666667 0.5581023454157783 0.14399999999999996 0.1396588486140725
0 0.5162171909252106 0.5162516801558027 0.24748763798832735 0.3702434228356535
