1 0.5539999999999998 0.40769230769230774 0.4093333333333332 0.2989010989010989
4 0.5493333333333331 0.673076923076923 0.3493333333333332 0.43626373626373627
2 0.47266666666666673 0.3598901098901097 0.15066666666666662 0.15054945054945043
3 0.6293333333333333 0.36098901098901093 0.16266666666666665 0.1593406593406593
0 0.5499999999999993 0.34120879120879105 0.3479999999999995 0.29999999999999966
