1 0.6135894199681422 0.41042997121424185 0.47555371751486464 0.42011541600776026
4 0.43874128485216457 0.5825431757727898 0.45725026132859126 0.46118743767030906
2 0.738144777409633 0.417163199930782 0.20621826441457386 0.2106769636774591
3 0.7381856878666827 0.41722381420553 0.20809673817809937 0.2117630967430091
0 0.5866666666666652 0.31728665207877477 0.18666666666666612 0.25820568927789983
