1 0.4540270560756511 0.47496209181623683 0.46568985601332613 0.37757417762272405
4 0.4991639201155897 0.7658340124258335 0.43214856959046444 0.4548275625869377
2 0.3559999999999999 0.42178770949720673 0.17333333333333317 0.19776536312849152
3 0.5347347577928556 0.4034209960640618 0.21874591075888966 0.21941148451219292
0 0.4326904713491888 0.4357482588054799 0.46303385335220215 0.4483426459395163
