1 0.42133333333333334 0.49253731343283585 0.39466666666666667 0.2814498933901919
4 0.37137743433531256 0.6955179373010262 0.365303335388142 0.42707491155726646
2 0.4126666666666668 0.4498933901918977 0.12133333333333343 0.12793176972281456
3 0.5300000000000001 0.45682302771855005 0.132 0.13113006396588486
0 0.4053333333333324 0.40831556503198274 0.26666666666666633 0.27931769722814465
