1 0.5126666666666666 0.5132478632478633 0.5213333333333333 0.2777777777777778
4 0.4644071687224354 0.7121750811128942 0.3640358380089077 0.3632442245791151
2 0.6786666666666664 0.49529914529914515 0.21866666666666643 0.17179487179487168
3 0.6746666666666669 0.4935897435897434 0.21600000000000028 0.17692307692307685
0 0.54477582898057 0.4545118679021668 0.395369285022899 0.4257710810266934
