1 0.5100172447297485 0.5403899471412188 0.42298470335265703 0.36300523942018337
4 0.34727991915558176 0.7313890239799344 0.40092711624149474 0.4427259088824419
2 0.6264038190328235 0.5481134149487887 0.19456351727828264 0.19487065276608462
3 0.6214144607576041 0.5473807475743842 0.1816550967426342 0.19726995468810898
0 0.4786666666666662 0.4543956043956044 0.18933333333333313 0.2890109890109892
