1 0.562 0.49124726477024083 0.41733333333333333 0.31291028446389496
4 0.4653072282791239 0.7367007577351683 0.43007414185494225 0.4881987171056096
2 0.5773333333333334 0.44693654266958427 0.12 0.16301969365426697
3 0.6866666666666668 0.4606126914660832 0.128 0.1487964989059081
0 0.5366666666666664 0.40754923413566735 0.2759999999999998 0.3249452954048139
