1 0.5633333333333334 0.3641176470588236 0.5133333333333333 0.37529411764705883
4 0.42817154043135064 0.7081353766310837 0.5790251052243314 0.7209087805527177
2 0.5786666666666668 0.2799999999999999 0.15466666666666712 0.20705882352941174
3 0.716 0.3105882352941176 0.19733333333333333 0.1976470588235294
0 0.506666666666667 0.2694117647058824 0.34133333333333354 0.435294117647059
