1 0.6272877163187558 0.5163266036108447 0.39872508921604516 0.3026630148609393
4 0.5137169644159653 0.7110226057908717 0.36551416635803974 0.4308492956517216
2 0.7226666666666667 0.49946695095948823 0.12533333333333332 0.14392324093816627
3 0.7266666666666667 0.5005330490405117 0.128 0.14392324093816627
0 0.5784617553783753 0.42582397410531825 0.20511815401422467 0.28338752752324053
