1 0.5313333333333332 0.4754797441364606 0.3479999999999999 0.21108742004264391
4 0.4524995629223683 0.6783962672920049 0.30484055009093014 0.40015094923384203
2 0.6333333333333333 0.4504264392324094 0.128 0.13326226012793177
3 0.64 0.453091684434968 0.12533333333333332 0.13219616204690832
0 0.4739076092004717 0.37254069456074873 0.24786887329749774 0.3424093910865453
