1 0.5726666666666667 0.4920042643923241 0.35333333333333333 0.23987206823027718
4 0.47303975356308287 0.7069380909079832 0.3337845165844492 0.4265795478277496
2 0.6639999999999999 0.4717484008528785 0.13600000000000004 0.14605543710021318
3 0.67 0.4701492537313433 0.13466666666666666 0.15138592750533048
0 0.49830462238584006 0.4077062540878207 0.24198555650673298 0.31253432706089945
