1 0.5677923471814617 0.5419575234584963 0.4353979123199667 0.364774679139707
4 0.45036380027633444 0.7540012479437419 0.44287000616254985 0.49169337372951305
2 0.5686666666666665 0.5005330490405118 0.12399999999999974 0.12473347547974409
3 0.6693333333333333 0.5229211087420043 0.13333333333333333 0.13113006396588486
0 0.5246666666666666 0.4344349680170572 0.2599999999999999 0.35927505330490334
