1 0.57 0.4536247334754796 0.3133333333333333 0.21215351812366737
4 0.4884451922621935 0.6646890130910635 0.29180798385549733 0.4013528829418135
2 0.6606666666666666 0.43656716417910446 0.132 0.12473347547974413
3 0.6613333333333334 0.43656716417910446 0.12533333333333332 0.12899786780383796
0 0.5193078232596947 0.3940543651514622 0.20668194529039305 0.2616729472747504
