1 0.502 0.5026652452025587 0.4093333333333332 0.27398720682302774
4 0.4449522289867373 0.7493826592616507 0.35734089535854013 0.4424536338627232
2 0.5159999999999999 0.47494669509594867 0.11466666666666635 0.1332622601279317
3 0.6193333333333334 0.48187633262260127 0.132 0.13432835820895522
0 0.467333333333333 0.44083155650319844 0.2733333333333332 0.28251599147121564
