1 0.48702545541492753 0.4946528301061943 0.4533898168421505 0.38613860236285136
4 0.4463712087279066 0.7334509417113128 0.41644253301181877 0.45791576898708103
2 0.4131977577564985 0.40696924505280635 0.19539440566843333 0.21125598761755082
3 0.6007945010158476 0.4329751694485633 0.20574535343888725 0.21392379358179484
0 0.5215174218695714 0.41320298552003915 0.44967943237473945 0.46962733413787944
