1 0.4866666666666666 0.4807692307692308 0.3679999999999999 0.2846153846153846
4 0.478 0.7269230769230771 0.3133333333333333 0.4186813186813187
2 0.3999999999999998 0.4225274725274724 0.1439999999999998 0.1505494505494505
3 0.5553333333333331 0.4214285714285711 0.14800000000000002 0.15494505494505476
0 0.47599999999999976 0.36208791208791197 0.3253333333333331 0.3813186813186813
