1 0.6466666666666667 0.46868131868131857 0.3813333333333333 0.23626373626373623
4 0.530305288434484 0.6812480275714264 0.3808997481843875 0.4585015718581864
2 0.7586666666666666 0.45439560439560445 0.14666666666666667 0.14175824175824175
3 0.7606666666666666 0.45494505494505494 0.15066666666666667 0.14945054945054945
0 0.5933357363788028 0.3809312330806712 0.23006210240676275 0.32586771940608483
