1 0.4099999999999999 0.5358333333333334 0.27066666666666667 0.345
4 0.48202191562687774 0.7810445561296254 0.34338243606385177 0.40176855982442106
2 0.486 0.48833333333333306 0.1026666666666669 0.16666666666666644
3 0.4880000000000002 0.49749999999999955 0.10400000000000015 0.1749999999999999
0 0.37768090412303457 0.4227270607296423 0.3049954075512162 0.46338912287206196
