1 0.5386666666666666 0.5125 0.31466666666666665 0.355
4 0.527470448107795 0.7685115643797177 0.24845629466413682 0.45821686683941576
2 0.6226666666666668 0.4724999999999998 0.09600000000000017 0.15833333333333327
3 0.626 0.46666666666666673 0.1026666666666667 0.16666666666666663
0 0.5079070938213861 0.3732909013822494 0.29585644887860396 0.4027105931602433
