1 0.5766666666666667 0.5180525164113786 0.38 0.2614879649890591
4 0.5660000000000001 0.7713347921225383 0.31066666666666665 0.4113785557986872
2 0.4900000000000002 0.47811816192560186 0.14266666666666702 0.1575492341356674
3 0.6426666666666666 0.48358862144420145 0.13866666666666663 0.14660831509846828
0 0.574180028010534 0.4477787340376376 0.3149247257791899 0.34020895392630635
