1 0.41200000000000003 0.678861788617886 0.2986666666666667 0.3073170731707317
4 0.42 0.8715447154471544 0.248 0.25691056910569104
2 0.348 0.632520325203252 0.10933333333333334 0.17560975609756097
3 0.4673333333333332 0.624390243902439 0.11066666666666666 0.17560975609756097
0 0.4179999999999997 0.6073170731707322 0.27333333333333326 0.3756097560975619
