1 0.5646666666666667 0.5158643326039387 0.34 0.23960612691466082
4 0.5693333333333328 0.7379649890590805 0.3040000000000003 0.38402625820568914
2 0.4833333333333332 0.47702407002188196 0.12933333333333338 0.13347921225382928
3 0.6293333333333329 0.474835886214442 0.14399999999999996 0.1334792122538293
0 0.5619511704554307 0.41779957449182675 0.3214367654325789 0.3595303263700731
