1 0.5526666666666666 0.39083333333333337 0.26 0.2916666666666667
4 0.5633927314939551 0.6586916966301744 0.22418411747017594 0.4455776126205268
2 0.6326666666666667 0.3558333333333333 0.1026666666666667 0.165
3 0.6353333333333333 0.35 0.09733333333333331 0.15666666666666665
0 0.5187272995986341 0.27330453529948245 0.19967643256766962 0.41606351669034836
