1 0.442 0.5552845528455285 0.30533333333333335 0.326829268292683
4 0.4691795841400419 0.7967189773250806 0.2714412858854061 0.3775442933318777
2 0.5326666666666665 0.526829268292683 0.11333333333333334 0.16585365853658537
3 0.5306666666666667 0.5284552845528455 0.1066666666666667 0.16585365853658537
0 0.4143057758840712 0.4338707937755646 0.2822578580438011 0.4678702856429169
