1 0.5940000000000001 0.4641666666666667 0.29733333333333334 0.335
4 0.6085026792837944 0.7544231261398587 0.25754150327519004 0.4690266485736865
2 0.6840000000000002 0.44249999999999995 0.10933333333333353 0.1716666666666667
3 0.6866666666666668 0.445 0.1066666666666667 0.17
0 0.5645326975670223 0.3607633625666905 0.27982519338680234 0.43427090228931403
