1 0.44066666666666665 0.39583333333333337 0.32666666666666666 0.3483333333333334
4 0.38466985748819965 0.6788131888693475 0.3318228440999034 0.5409094652125274
2 0.4653333333333333 0.3600000000000001 0.09066666666666666 0.17
3 0.5366666666666666 0.36666666666666664 0.1026666666666667 0.18666666666666668
0 0.4106666666666667 0.29833333333333345 0.21866666666666665 0.346666666666667
