1 0.624 0.44438073394495403 0.44266666666666665 0.32912844036697236
4 0.5427191606257803 0.7009711331130637 0.4390634633847679 0.5240580994570041
2 0.63 0.4042431192660547 0.13466666666666677 0.16857798165137602
3 0.7606666666666665 0.4202981651376147 0.14 0.15711009174311927
0 0.588666666666667 0.36811926605504586 0.2973333333333335 0.3256880733944955
