1 0.5406666666666666 0.4210526315789474 0.41199999999999987 0.2951496388028897
4 0.4383371293526514 0.6592440792026314 0.42225881092812956 0.4981893256392533
2 0.568 0.37048503611971084 0.12799999999999995 0.16099071207430346
3 0.6553333333333333 0.3968008255933953 0.16133333333333333 0.1393188854489164
0 0.4933333333333333 0.34313725490196084 0.30133333333333345 0.31888544891640885
