1 0.4639999999999999 0.43292053663570695 0.43466666666666653 0.2982456140350877
4 0.3688113243815428 0.686794593079174 0.4230338807329915 0.5037387937683779
2 0.49133333333333323 0.38751289989680066 0.13999999999999993 0.14757481940144473
3 0.5813333333333334 0.4127966976264191 0.1653333333333333 0.15479876160990716
0 0.4086666666666664 0.3792569659442723 0.27866666666666656 0.3003095975232197
