1 0.5306666666666666 0.5202224469160768 0.424 0.2719919110212335
4 0.42432529875773456 0.7725313348971313 0.4334594791689756 0.4910044745515782
2 0.5626666666666668 0.4843276036400404 0.12533333333333327 0.14155712841253787
3 0.654 0.5136501516683518 0.15866666666666668 0.14762386248736098
0 0.4943671862710219 0.46424503885680607 0.2821559326343197 0.33049914162040805
