1 0.3953333333333333 0.41028446389496714 0.4066666666666666 0.27571115973741794
4 0.364 0.6635667396061268 0.3066666666666667 0.40590809628008756
2 0.39000000000000007 0.36433260393873096 0.12933333333333355 0.13566739606126924
3 0.5079999999999998 0.37472647702407 0.15466666666666673 0.13238512035010946
0 0.36266666666666597 0.34026258205689297 0.28799999999999965 0.3282275711159741
