1 0.5213476050994582 0.46601745026023794 0.46408849528336904 0.38328432920683975
4 0.37125398596353776 0.6898621478325362 0.4039666610414158 0.4979835712434618
2 0.6366666666666666 0.43626373626373627 0.14800000000000002 0.15604395604395604
3 0.6353333333333334 0.43846153846153846 0.15066666666666667 0.1582417582417582
0 0.4653381303373617 0.3861999753446175 0.23179819920400901 0.2964575092523684
