1 0.5013333333333333 0.5351648351648352 0.38666666666666666 0.2923076923076924
4 0.498 0.7703296703296703 0.31066666666666665 0.3846153846153847
2 0.42200000000000015 0.49835164835164814 0.150666666666667 0.13736263736263726
3 0.5793333333333333 0.5032967032967034 0.14533333333333334 0.13846153846153847
0 0.5013333333333334 0.4384615384615384 0.3226666666666666 0.34285714285714264
