1 0.4885144561086662 0.7705156952037053 0.3066671917768715 0.33653648512156364
4 0.5107678661889253 0.9027168566974728 0.2621521696649238 0.18303393012064986
2 0.41841252385413713 0.7331392455792966 0.13830260592028018 0.17757531040936128
3 0.5300510793227852 0.6974200650165908 0.14845716504867262 0.18815090265461884
0 0.4732176543751562 0.6790640032302755 0.3288913137870327 0.4278848675151616
