1 0.4666666666666666 0.47811816192560186 0.344 0.2800875273522976
4 0.4895809509638138 0.7280359751527452 0.3133561094948331 0.4037357736251528
2 0.3893333333333333 0.4349015317286652 0.128 0.13676148796498905
3 0.5293333333333333 0.4201312910284465 0.13333333333333333 0.14442013129102846
0 0.4605142380780903 0.413296080487873 0.3249484995905846 0.349281227863391
