1 0.41 0.5311816192560176 0.4146666666666667 0.27680525164113784
4 0.35863479967505496 0.7545572043035892 0.40677381907990523 0.4516563222059679
2 0.40933333333333344 0.4857768052516414 0.12533333333333335 0.14004376367614882
3 0.5319999999999999 0.48905908096280093 0.13866666666666663 0.14223194748358858
0 0.3853333333333332 0.45787746170678356 0.2773333333333332 0.27899343544857813
