1 0.5504957982015043 0.4816315480743286 0.45746946739848793 0.35934574770023997
4 0.391026628690268 0.7005435113307457 0.43183267058552366 0.49778452233895903
2 0.6684789744076874 0.4646418818151847 0.17889761411758343 0.1807162431611934
3 0.6706071491428374 0.46287350705399277 0.18284529276191713 0.19045374898808518
0 0.4940899788353881 0.38026725337788636 0.24442473273306334 0.3384819302465763
