1 0.5472012446325353 0.4989485867603419 0.47017069750218665 0.42689632623209717
4 0.4205961133811273 0.766301201602533 0.5058238773734851 0.5995955601855263
2 0.5533333333333332 0.4255065554231227 0.13599999999999987 0.17401668653158517
3 0.6658120599768671 0.4538248377434394 0.1636332932005893 0.18040182084548534
0 0.5133333333333322 0.4004767580452919 0.2906666666666663 0.3671036948748509
