1 0.6580000000000001 0.4852104664391353 0.4146666666666667 0.31513083048919227
4 0.5670040336527792 0.7350235338482862 0.46218554825502167 0.5378953489576912
2 0.6459999999999999 0.4448236632536974 0.13466666666666666 0.1706484641638225
3 0.7786666666666667 0.45108077360637083 0.14399999999999996 0.17178612059158133
0 0.620666666666666 0.4004550625711033 0.3079999999999998 0.33447098976109196
