1 0.5386666666666666 0.27 0.2720000000000001 0.32666666666666666
4 0.5353333333333334 0.5741666666666666 0.23600000000000002 0.485
2 0.4739999999999999 0.2083333333333332 0.11066666666666666 0.16666666666666657
3 0.5966666666666667 0.21 0.11866666666666667 0.16666666666666663
0 0.5359999999999999 0.1908333333333332 0.2453333333333333 0.378333333333333
