1 0.6745826395016753 0.4182660029300686 0.4049601230974943 0.3544035466295542
4 0.6133078407433823 0.6778546644491876 0.3862009917272127 0.43193382920634094
2 0.5983609286312713 0.3602808704478651 0.19264463536541726 0.2024395685271307
3 0.7538341804374613 0.3839151623215886 0.16457140518214544 0.18863596488826018
0 0.6809537897053088 0.38341050102451546 0.3878254345008881 0.3855189707416662
