1 0.502 0.5463752665245203 0.3293333333333333 0.24626865671641793
4 0.49 0.7665245202558637 0.29733333333333334 0.36247334754797433
2 0.4173333333333335 0.5010660980810233 0.13600000000000004 0.14498933901918973
3 0.5633333333333332 0.507995735607676 0.13733333333333334 0.13752665245202558
0 0.4953333333333331 0.4770788912579957 0.2893333333333331 0.312366737739872
