1 0.4793333333333334 0.5883333333333334 0.29466666666666663 0.32
4 0.4797546549753324 0.8081329976095927 0.21333234485357572 0.3751132054864105
2 0.5673333333333334 0.5491666666666667 0.1026666666666667 0.16833333333333333
3 0.5613333333333334 0.5491666666666667 0.09866666666666667 0.16833333333333333
0 0.4605137920375097 0.4544575227770704 0.2657703263306662 0.4268708885081608
