1 0.522 0.42886456908344733 0.41733333333333333 0.40355677154582764
4 0.5066666666666667 0.76812585499316 0.3813333333333333 0.4637482900136799
2 0.41666666666666663 0.3529411764705881 0.17466666666666672 0.24897400820793433
3 0.6026666666666667 0.35567715458276333 0.168 0.24350205198358413
0 0.5053333333333329 0.3666210670314637 0.39466666666666655 0.48426812585499307
