1 0.6282872141490281 0.47681483270108727 0.4049165386180567 0.3585450708201918
4 0.5834076584331894 0.7385443272744076 0.37965242315809816 0.4349306946699427
2 0.5501257348904701 0.42448542356936014 0.1887541597968994 0.1946190688406157
3 0.7086666666666668 0.43216630196936534 0.14266666666666666 0.1641137855579869
0 0.629450990829914 0.43304122471302764 0.38797259415620533 0.3811511143274735
