1 0.47 0.4789719626168224 0.4013333333333333 0.32009345794392524
4 0.5065200558303573 0.7340402180376675 0.35429453623945506 0.47845331875087443
2 0.5886666666666667 0.429322429906542 0.156 0.1647196261682243
3 0.5893333333333333 0.433411214953271 0.16 0.17056074766355134
0 0.4248944724872061 0.39793792152392626 0.2682732102880093 0.39733454164673404
