1 0.41 0.6091666666666667 0.30533333333333335 0.35166666666666674
4 0.4507383122608074 0.816023297893712 0.23972916986397508 0.3679534042125761
2 0.49133333333333334 0.5391666666666667 0.09733333333333331 0.15833333333333333
3 0.49266666666666664 0.5458333333333334 0.0866666666666667 0.13833333333333334
0 0.380859834594615 0.46706617405193 0.19140527994724407 0.4129753292520462
