1 0.5973333333333334 0.47921108742004265 0.3466666666666668 0.2420042643923241
4 0.5019163747985796 0.6825983030770427 0.33215573132627413 0.41607450211104235
2 0.7006666666666667 0.4653518123667377 0.12933333333333333 0.13113006396588486
3 0.7006666666666667 0.4626865671641791 0.12933333333333333 0.1257995735607676
0 0.5365237043765996 0.38507877004718677 0.23741558185754685 0.30379873720507417
