1 0.566 0.48522975929978124 0.40400000000000014 0.2877461706783369
4 0.4690409494689352 0.7161549253709726 0.4276019407568124 0.5065457581105364
2 0.5900000000000001 0.4529540481400436 0.11066666666666673 0.148796498905908
3 0.684 0.46498905908096283 0.14399999999999996 0.13785557986870897
0 0.5286666666666668 0.40481400437636766 0.28133333333333344 0.30196936542669595
