1 0.5100000000000001 0.4819639278557114 0.45466666666666666 0.314629258517034
4 0.5066666666666665 0.7329659318637275 0.41333333333333305 0.39378757515030044
2 0.4119999999999998 0.41933867735470953 0.18933333333333313 0.1793587174348697
3 0.6173333333333333 0.42084168336673344 0.19466666666666663 0.17034068136272545
0 0.49999999999999944 0.40330661322645284 0.4239999999999995 0.3717434869739478
