1 0.44733333333333336 0.48720682302771856 0.36133333333333334 0.2345415778251599
4 0.39673145781688146 0.700212829142139 0.31800173335459286 0.412209225068983
2 0.4166666666666665 0.44136460554371004 0.12133333333333321 0.12793176972281453
3 0.528 0.4541577825159915 0.13333333333333333 0.11940298507462685
0 0.4016045951983081 0.41296538019110834 0.30713700825171864 0.3104256634123824
