1 0.4213033950190594 0.4989872680497861 0.40168457465266727 0.32139808700331435
4 0.2942803278752008 0.6942932617217109 0.36121262986240993 0.40815967483223664
2 0.5206666666666667 0.48667377398720674 0.12666666666666665 0.13326226012793177
3 0.5193333333333334 0.48880597014925375 0.12933333333333333 0.1417910447761194
0 0.37307007606133036 0.41376747002937575 0.20209967135382173 0.28543674226098015
