1 0.5611427452833299 0.4983506752337392 0.43970768440685987 0.3657017175903439
4 0.39813472548028 0.7209181908013398 0.4034718328896691 0.4691591900645335
2 0.6699548255270011 0.49582380705652596 0.170912779306895 0.19014931866471613
3 0.6667359945753281 0.4956306749483189 0.19548381387820285 0.20622207610226795
0 0.5213333333333331 0.4102844638949671 0.20266666666666652 0.32166301969365413
