1 0.38066666666666665 0.45274725274725275 0.39866666666666667 0.2747252747252747
4 0.38199999999999995 0.7104395604395606 0.31066666666666654 0.4032967032967033
2 0.2999999999999999 0.4054945054945053 0.1386666666666667 0.13626373626373625
3 0.4513333333333333 0.4038461538461538 0.14266666666666666 0.13956043956043956
0 0.38666666666666616 0.38791208791208803 0.32799999999999974 0.30329670329670344
