1 0.5213333333333333 0.5346481876332622 0.36 0.25906183368869934
4 0.5200000000000001 0.7414712153518124 0.29600000000000004 0.35501066098081024
2 0.43999999999999984 0.4989339019189765 0.1306666666666666 0.12579957356076749
3 0.5773333333333333 0.4989339019189766 0.13866666666666663 0.1257995735607676
0 0.5139999999999993 0.4434968017057565 0.2839999999999997 0.30490405117270736
