1 0.4033333333333334 0.5463752665245203 0.35333333333333333 0.23560767590618337
4 0.38799999999999996 0.759594882729211 0.2879999999999999 0.3464818763326226
2 0.32666666666666666 0.5053304904051172 0.128 0.1257995735607676
3 0.4633333333333334 0.505863539445629 0.13466666666666666 0.12046908315565032
0 0.3919999999999993 0.4669509594882728 0.27999999999999975 0.31130063965884835
