1 0.4866666666666667 0.3111111111111111 0.5466666666666666 0.4253968253968254
4 0.4886666666666667 0.6793650793650794 0.48133333333333334 0.455026455026455
2 0.33799999999999986 0.2370370370370371 0.2119999999999996 0.22433862433862434
3 0.57 0.2343915343915344 0.21466666666666673 0.2402116402116402
0 0.4755562426177167 0.2694369310298981 0.4860143251771231 0.5178644668415527
