1 0.5326666666666667 0.3478021978021978 0.3880000000000001 0.25384615384615383
4 0.4388123621012525 0.5927655665287773 0.35278217672292156 0.4836529506723869
2 0.6506666666666667 0.3181318681318681 0.17066666666666666 0.16593406593406587
3 0.652 0.31868131868131866 0.16 0.16923076923076924
0 0.4862871788843223 0.28896425686210725 0.25271124603048123 0.2784265495588547
