1 0.4824830099839186 0.6058220254260699 0.5152196865656132 0.4239021907855679
4 0.330621600323995 0.8142393311811185 0.4811449276602772 0.5221383793774073
2 0.5291014965717351 0.5438376087315169 0.15096776523829136 0.177386562309387
3 0.5989972791468261 0.5833079903800998 0.20218960470000666 0.19861431677980554
0 0.43599999999999967 0.5022396416573348 0.25866666666666643 0.3729003359462486
