1 0.4325845866403135 0.7184949023787103 0.28575117535509154 0.3217858378710187
4 0.4220000000000001 0.8983333333333324 0.20400000000000007 0.20333333333333276
2 0.384666666666667 0.6800000000000004 0.10533333333333353 0.1833333333333335
3 0.4933333333333333 0.7008333333333333 0.09066666666666666 0.16833333333333333
0 0.4333272795524143 0.656215844337698 0.28364172003247534 0.4011869828916539
