1 0.5253333333333333 0.5406643757159221 0.32800000000000007 0.24054982817869416
4 0.41393475245587635 0.7589534089161208 0.33624614867939784 0.4229581794927612
2 0.6260000000000001 0.5315005727376861 0.12133333333333333 0.14662084765177552
3 0.6266666666666666 0.5343642611683849 0.12533333333333332 0.15005727376861397
0 0.4963568628754229 0.4765222473249812 0.16896526619727198 0.29615372322813754
