1 0.4693333333333334 0.41169724770642196 0.4106666666666668 0.31192660550458723
4 0.38590055250336985 0.674555161277278 0.44695399641953415 0.5614572631318242
2 0.4746666666666667 0.35837155963302747 0.1279999999999999 0.1548165137614679
3 0.5920000000000001 0.3738532110091743 0.15466666666666667 0.14449541284403666
0 0.43133333333333396 0.3205275229357797 0.2866666666666671 0.35206422018348604
