1 0.5656396100035451 0.5742042599811554 0.39162637700211694 0.324144430416241
4 0.4307438608303389 0.748578989612688 0.36727397410704954 0.4047111908884733
2 0.6546666666666667 0.5622294372294373 0.12 0.13095238095238096
3 0.6513333333333334 0.5638528138528138 0.10800000000000003 0.12987012987012986
0 0.5323054406667851 0.4865531564551716 0.17261750745267407 0.26578538393887896
