1 0.5898343941617479 0.5410598879167453 0.4963305731779565 0.42281222844891253
4 0.44924603510046185 0.7607562229713869 0.518025806425306 0.5736873044710608
2 0.597226557153591 0.4806015033806185 0.17413819939006964 0.19389958882061165
3 0.7221427012889298 0.5037476557042254 0.18007499783775052 0.18809443262397443
0 0.5286666666666664 0.4287268770402612 0.3159999999999999 0.34167573449401517
