1 0.4306666666666667 0.44857768052516406 0.3920000000000001 0.26914660831509846
4 0.39180922772258825 0.6843654884702896 0.34687059399999826 0.4250074967737348
2 0.4260000000000001 0.426148796498906 0.11866666666666696 0.14113785557986877
3 0.54 0.42943107221006566 0.13333333333333333 0.14332603938730853
0 0.40530267213811255 0.39834357616512023 0.2911616870960067 0.2862793875264474
