1 0.508 0.34792122538293213 0.3973333333333333 0.2888402625820569
4 0.4294031992015017 0.6074087640536726 0.4050589771880999 0.5074708292732019
2 0.5013333333333331 0.2937636761487963 0.11999999999999965 0.14332603938730842
3 0.62 0.3057986870897155 0.12533333333333332 0.1455142231947483
0 0.46466666666666645 0.3014223194748356 0.2893333333333332 0.2746170678336977
