1 0.4366666666666667 0.5373134328358209 0.3506666666666668 0.2601279317697228
4 0.36797846685702595 0.7456136507184062 0.3676799169875786 0.42372544249384675
2 0.4186666666666666 0.5042643923240936 0.11999999999999979 0.13859275053304893
3 0.5306666666666667 0.513859275053305 0.13333333333333333 0.12153518123667377
0 0.4113333333333333 0.4610874200426436 0.27066666666666656 0.29957356076758995
