1 0.6245664667531723 0.5496746125547189 0.43188651562584485 0.326879341416861
4 0.5179333106952589 0.7555180277600264 0.40300110127507693 0.4589283746900568
2 0.6353333333333332 0.5133262260127932 0.11599999999999978 0.14392324093816636
3 0.7293333333333333 0.53091684434968 0.13600000000000004 0.14285714285714282
0 0.5899999999999997 0.4589552238805969 0.27066666666666656 0.32515991471215344
