1 0.496 0.40317286652078776 0.37333333333333335 0.24835886214442013
4 0.4018428914929635 0.6300516194413021 0.30990614280696904 0.4170264289727271
2 0.6006666666666667 0.3927789934354486 0.14533333333333334 0.14442013129102846
3 0.604 0.39332603938730853 0.14399999999999996 0.1389496717724289
0 0.4444932526851887 0.34012497051458396 0.22094022879461164 0.28286477062635973
