1 0.49266666666666664 0.46334792122538304 0.42266666666666663 0.3161925601750547
4 0.40499249099047563 0.69111424958279 0.39658413587684493 0.4652290357609101
2 0.49733333333333346 0.4130196936542674 0.12000000000000012 0.14989059080962813
3 0.6073333333333334 0.43544857768052514 0.14266666666666666 0.14223194748358858
0 0.46666666666666673 0.37089715536105033 0.2613333333333333 0.34354485776805255
