1 0.3313333333333334 0.4128440366972475 0.41200000000000025 0.29561671763506614
4 0.3099999999999998 0.6962283384301732 0.3559999999999997 0.4525993883792049
2 0.2608829058741822 0.3564869791256464 0.1924406724915648 0.1875314232890389
3 0.44866666666666666 0.3674821610601427 0.16400000000000003 0.16207951070336393
0 0.3453662504545838 0.37303280088997914 0.42907883468653923 0.3586266976335507
