1 0.588269063463784 0.41727357931251247 0.44732985595753766 0.33613261407661954
4 0.4419479880072767 0.6391000448425425 0.3917606861072079 0.4571525122130592
2 0.686 0.4071207430340559 0.14800000000000002 0.17027863777089786
3 0.6826666666666666 0.40763673890608887 0.14666666666666667 0.17131062951496387
0 0.5206666666666666 0.32868937048503577 0.2226666666666668 0.3023735810113516
