1 0.5619999999999998 0.41208791208791207 0.36666666666666664 0.23736263736263732
4 0.4539818827316742 0.6461874433639702 0.34684823593467806 0.4570792045178241
2 0.6659999999999999 0.39065934065934066 0.15333333333333335 0.16153846153846152
3 0.67 0.39230769230769225 0.15066666666666667 0.15604395604395604
0 0.500635800602248 0.3232656613254592 0.2352610863143461 0.3338786879003654
