1 0.5026666666666667 0.4126373626373626 0.39466666666666667 0.30439560439560437
4 0.5371979955390599 0.6543582508398645 0.36982213369845435 0.4657850030304826
2 0.6186666666666667 0.3791208791208791 0.14933333333333335 0.15164835164835164
3 0.6213333333333333 0.37637362637362637 0.14399999999999996 0.15714285714285714
0 0.45789273088598814 0.3546698828401697 0.2546015196209187 0.34197270160104737
