1 0.5760000000000001 0.4885120350109408 0.312 0.2702407002188184
4 0.5491176385593544 0.7182012413667198 0.3164531979635008 0.4061179769378154
2 0.504 0.44091903719912456 0.13333333333333344 0.1400437636761488
3 0.6433333333333333 0.45021881838074407 0.12400000000000007 0.13238512035010946
0 0.5774012746200424 0.4127494426372648 0.3088933980410563 0.33209470887127907
