1 0.36733333333333335 0.45131291028446385 0.46 0.3336980306345734
4 0.3180710894381809 0.6865162191118125 0.38755596280450616 0.4658489979224776
2 0.3639999999999998 0.39660831509846817 0.13599999999999984 0.1455142231947483
3 0.48800000000000004 0.4086433260393872 0.14933333333333335 0.1455142231947483
0 0.3320275583456595 0.3526870062999366 0.36348132458233623 0.3670999162017107
