1 0.6575718465788857 0.4523796280173563 0.39911074841066524 0.32242305025948825
4 0.5133890874746075 0.6713265308334332 0.3902890686928528 0.45291385094885156
2 0.76 0.44285714285714284 0.14399999999999996 0.15384615384615385
3 0.7553333333333333 0.44395604395604393 0.14 0.16043956043956042
0 0.6009364882410974 0.37822838885042864 0.20703941481681887 0.2937046641591202
