1 0.558 0.5437100213219616 0.3506666666666668 0.24093816631130063
4 0.491111472030977 0.765552990619582 0.33911273901864114 0.40757419245739146
2 0.5406666666666664 0.5111940298507465 0.11599999999999953 0.13752665245202564
3 0.6533333333333333 0.5346481876332623 0.128 0.12046908315565032
0 0.5199999999999995 0.48933901918976547 0.2506666666666664 0.281449893390192
