1 0.5473333333333333 0.44365426695842447 0.3426666666666667 0.2592997811816193
4 0.5366666666666667 0.6892778993435448 0.30266666666666664 0.3982494529540481
2 0.4686666666666667 0.4102844638949668 0.14266666666666666 0.1422319474835885
3 0.6166666666666667 0.42122538293216644 0.132 0.1400437636761488
0 0.5453333333333319 0.3681619256017505 0.2906666666666662 0.3227571115973742
