1 0.5359999999999999 0.45418552036199095 0.4506666666666667 0.3065610859728507
4 0.4286944383410156 0.725036777818614 0.48034597297989307 0.5548450951202645
2 0.5246666666666664 0.4292986425339368 0.14266666666666603 0.17307692307692296
3 0.6586666666666665 0.4411764705882353 0.1653333333333333 0.17194570135746606
0 0.49266666666666664 0.3591628959276019 0.32133333333333325 0.3970588235294121
