1 0.5379999999999999 0.5047974413646056 0.3213333333333333 0.2484008528784648
4 0.522 0.7244136460554371 0.284 0.3507462686567165
2 0.46399999999999997 0.46215351812366734 0.1306666666666666 0.12899786780383798
3 0.5986666666666666 0.4685501066098081 0.128 0.12473347547974413
0 0.5319999999999991 0.43869936034115126 0.26666666666666655 0.3017057569296374
