1 0.45800000000000013 0.5049450549450549 0.38533333333333347 0.28901098901098893
4 0.4520000000000001 0.7741758241758244 0.33333333333333337 0.42527472527472526
2 0.3879999999999999 0.45989010989010987 0.1466666666666667 0.16373626373626363
3 0.5433333333333333 0.4659340659340659 0.13733333333333334 0.15384615384615385
0 0.4559999999999998 0.4120879120879121 0.3466666666666663 0.3846153846153847
