1 0.5853333333333333 0.46801705756929635 0.3466666666666668 0.21748400852878466
4 0.4789114492342661 0.6687311757102876 0.3205347228123784 0.3973066000915765
2 0.6806666666666666 0.45788912579957347 0.13733333333333334 0.13326226012793177
3 0.6786666666666666 0.4600213219616205 0.13866666666666663 0.13113006396588486
0 0.5343658827201105 0.3934205445005443 0.21113800467853808 0.28701749405073756
