1 0.4693333333333334 0.2850241545893719 0.3919999999999999 0.43800322061191616
4 0.48000000000000015 0.6892109500805154 0.3653333333333333 0.6215780998389694
2 0.3826666666666666 0.23993558776167473 0.15999999999999992 0.27053140096618356
3 0.5486666666666666 0.22624798711755234 0.172 0.2753623188405797
0 0.46568188689493517 0.24546138880014187 0.4301485333588015 0.49189017850293704
