1 0.5567569696537205 0.46057116210476523 0.3981025865141676 0.31047658080283086
4 0.42779269407870685 0.6787185688283001 0.36946076108448767 0.41966306749015286
2 0.6566666666666666 0.450218818380744 0.13733333333333334 0.16520787746170684
3 0.6553333333333333 0.45185995623632386 0.12933333333333333 0.16192560175054704
0 0.5093540207414926 0.3953610366973013 0.21280304748769766 0.2912277570932581
