1 0.4266666666666667 0.3754863813229572 0.4613333333333333 0.2626459143968872
4 0.39150600205119973 0.6359557552403746 0.3543492778289443 0.46683256841469356
2 0.5741716539083797 0.36401116588666377 0.21813389771350963 0.20765314571872964
3 0.5741278772554734 0.3637464028316862 0.2132654478729514 0.21203849067858185
0 0.4142418696817185 0.3151167263914415 0.36578339435809143 0.39725547923426235
