1 0.4786666666666666 0.39230769230769225 0.3813333333333333 0.2703296703296703
4 0.5225235214201741 0.6129855325407993 0.35218217245771766 0.44654388757705143
2 0.6128191175277692 0.3610955329322883 0.20160403900847926 0.20202441981499114
3 0.617687344048223 0.36172828342146945 0.19160690991360993 0.1982329887156594
0 0.4865681560001191 0.3283667566765604 0.3478974229189603 0.38836084586949426
