1 0.6286161989553315 0.48034978000802087 0.4240921620696458 0.3277579660402805
4 0.4720596469806608 0.6927290697122266 0.3976409917865813 0.4818082247588657
2 0.74 0.44881075491209926 0.13600000000000004 0.15098241985522234
3 0.7373333333333334 0.45191313340227507 0.13333333333333333 0.1592554291623578
0 0.5763789649409309 0.3688437946836438 0.2116075471995938 0.3088724626969257
