1 0.5373333333333332 0.4310722100656455 0.33866666666666667 0.25820568927789933
4 0.5326666666666666 0.6657549234135669 0.30533333333333335 0.3862144420131291
2 0.45599999999999996 0.3889496717724289 0.13333333333333336 0.136761487964989
3 0.6026666666666667 0.38949671772428884 0.14133333333333337 0.13785557986870897
0 0.5373333333333329 0.33315098468271337 0.3119999999999999 0.34026258205689286
