1 0.5541245559784272 0.5366266421275485 0.3940106640089703 0.32394405772362356
4 0.4276414232438502 0.7282126856848822 0.3705100386991785 0.4015704223924246
2 0.6446666666666665 0.5319829424307035 0.12133333333333336 0.13006396588486133
3 0.644 0.5293176972281448 0.12 0.12899786780383796
0 0.5226666666666673 0.46375266524520287 0.17066666666666694 0.2579957356076763
