1 0.48200000000000004 0.5416666666666666 0.2813333333333333 0.3133333333333333
4 0.4726666666666667 0.795 0.18533333333333327 0.41
2 0.5613333333333334 0.515 0.10933333333333334 0.16
3 0.5626666666666666 0.5216666666666666 0.10133333333333333 0.16333333333333333
0 0.4565825399123874 0.42223937679348184 0.28791413127181026 0.4423000097038453
