1 0.5446666666666666 0.46025641025641023 0.4146666666666667 0.32307692307692304
4 0.49403441058552927 0.718760690492675 0.36961618940360597 0.4700726792492077
2 0.552 0.4275641025641025 0.11466666666666647 0.16025641025641016
3 0.6606666666666665 0.426923076923077 0.12933333333333333 0.1743589743589743
0 0.535333333333333 0.38461538461538436 0.2679999999999999 0.3435897435897431
