1 0.4633333333333334 0.5410447761194029 0.3293333333333333 0.2420042643923241
4 0.44733333333333336 0.7329424307036249 0.2813333333333333 0.32942430703624725
2 0.39466666666666655 0.5010660980810234 0.11733333333333333 0.12579957356076762
3 0.5233333333333333 0.5106609808102346 0.12933333333333333 0.1257995735607676
0 0.4540000000000003 0.4632196162046905 0.29200000000000037 0.2995735607675903
