1 0.44133333333333336 0.4365426695842451 0.3973333333333333 0.25601750547045954
4 0.32784663355340754 0.6687252491910926 0.34999715981756063 0.43990060288126187
2 0.5566666666666666 0.4113785557986872 0.156 0.16192560175054704
3 0.56 0.412472647702407 0.15733333333333333 0.15973741794310722
0 0.37607747140493464 0.3287573103174117 0.2746832962188388 0.3788817098281785
