1 0.4873333333333333 0.4943705220061412 0.39866666666666667 0.2456499488229273
4 0.4768614298092341 0.7359738897765118 0.32322962573697084 0.41746840114584643
2 0.61327130141138 0.5168226733998569 0.205958323117094 0.1935932888188004
3 0.6243945627547948 0.5192801336718419 0.19695040455152665 0.19670389879090322
0 0.5050555652773173 0.477267478154899 0.31809329489844546 0.32088911128904274
