1 0.37800000000000006 0.37857142857142856 0.39866666666666667 0.3087912087912088
4 0.364 0.662087912087912 0.3253333333333335 0.41428571428571465
2 0.2846666666666667 0.31648351648351647 0.15066666666666667 0.1736263736263735
3 0.4526666666666668 0.32307692307692315 0.16133333333333333 0.17582417582417587
0 0.36533333333333345 0.31373626373626357 0.3413333333333334 0.37252747252747215
