1 0.494 0.54 0.27066666666666667 0.33333333333333326
4 0.4893333333333334 0.8016666666666667 0.26666666666666666 0.39666666666666667
2 0.4266666666666666 0.48916666666666664 0.10400000000000001 0.19833333333333333
3 0.5446666666666665 0.49416666666666664 0.12133333333333333 0.18833333333333332
0 0.4853333333333332 0.46166666666666667 0.2426666666666666 0.38999999999999985
