1 0.5179999999999999 0.4501625135427952 0.37466666666666654 0.24593716143011918
4 0.5063372269836381 0.6595273757499709 0.2926332613822855 0.385464686210174
2 0.6260000000000002 0.45557963163596926 0.1613333333333334 0.13109425785482132
3 0.6246666666666666 0.4539544962080172 0.15866666666666662 0.12784398699891658
0 0.5523818697427544 0.4021153462625954 0.3654316059009528 0.3462973313419272
