1 0.5740000000000001 0.48468271334792123 0.44133333333333336 0.3238512035010941
4 0.4744268786874231 0.7363871395052766 0.4070765739436578 0.4863568022048159
2 0.5379999999999999 0.4283369803063458 0.1346666666666664 0.1455142231947483
3 0.6646666666666667 0.4420131291028446 0.156 0.13566739606126915
0 0.5213333333333334 0.40262582056892804 0.2986666666666667 0.3391684901531733
