1 0.5126666666666665 0.21833333333333335 0.32666666666666666 0.35333333333333333
4 0.45857494638191965 0.48983962212756227 0.356122971280499 0.5605830165422732
2 0.4953333333333333 0.1475 0.11066666666666647 0.195
3 0.598 0.17 0.11866666666666667 0.18666666666666668
0 0.4999999999999997 0.15583333333333343 0.24533333333333335 0.31166666666666687
