1 0.5700000000000002 0.47235772357723577 0.316 0.326829268292683
4 0.5426666666666666 0.7455284552845529 0.18933333333333333 0.4634146341463415
2 0.6679999999999998 0.4528455284552846 0.11466666666666665 0.18699186991869926
3 0.6666666666666667 0.44959349593495945 0.10400000000000001 0.1902439024390244
0 0.5598384189873998 0.34980731562872674 0.3433790464357523 0.44560824006988525
