1 0.4793286915237431 0.6155364555752201 0.36359392165709387 0.3497763886201915
4 0.524393298013727 0.8211009560250894 0.3022986368591117 0.3298349623064891
2 0.4062592540388755 0.5832479280903354 0.14093421456672942 0.18847154884519127
3 0.5270840952409646 0.5487266283776343 0.16095558335598256 0.18994405003537174
0 0.4707192444185883 0.5413823401929524 0.3517540427577241 0.4316083413928436
