1 0.5286666666666666 0.48388829215896867 0.444 0.30397422126745427
4 0.4618907614559278 0.7157941434084333 0.45090228807579963 0.49818585276886024
2 0.5066666666666665 0.4355531686358746 0.1546666666666666 0.16219119226638007
3 0.6506666666666665 0.4441460794844253 0.14933333333333335 0.15145005370569278
0 0.5086666666666663 0.3920515574650915 0.3213333333333332 0.3394199785177232
