1 0.5073333333333333 0.4891666666666667 0.34 0.35166666666666674
4 0.550981976590609 0.7571517498242507 0.2899787475784915 0.4416094729883349
2 0.5959644570346143 0.46374627126423085 0.15857348558810636 0.1983380229729171
3 0.5996672510727064 0.4624489629567495 0.1664869532509352 0.20096443107373915
0 0.48413225502194634 0.3944355272352355 0.32147750438469813 0.4138679859007648
