1 0.4966666666666667 0.31373626373626373 0.4146666666666667 0.26703296703296703
4 0.5262977299567486 0.5462924583880943 0.35720792759687997 0.4453179404056414
2 0.6149867039946741 0.2946130684159493 0.19361307671016015 0.1796770164874703
3 0.6177893117381836 0.2957215240505636 0.1886449196522424 0.17577428059102554
0 0.49352295413817115 0.2643622307418511 0.31053371561524273 0.3628181418727716
