1 0.6075586547176741 0.4719235652860614 0.40440531100835275 0.3206374146038954
4 0.4695339583409775 0.6783642242785255 0.3634231757007012 0.421479657038046
2 0.710948888804652 0.4787421837013157 0.1522354577966024 0.1726255628207565
3 0.7112050370480429 0.4830409112044599 0.16283095678534096 0.17121454711172412
0 0.5699999999999996 0.3916849015317284 0.19066666666666648 0.2975929978118157
