1 0.6200785114228892 0.5301099559889981 0.4284357802651126 0.35574488278609834
4 0.520315346559862 0.7692199252421835 0.4307830109446208 0.49855294337165307
2 0.581333333333333 0.49507658643326 0.1359999999999996 0.149890590809628
3 0.714 0.5142231947483589 0.13733333333333334 0.15098468271334792
0 0.5700000000000002 0.46115973741794297 0.2973333333333334 0.3249452954048136
