1 0.5193333333333333 0.44891640866873067 0.4279999999999999 0.28482972136222917
4 0.4565440638289003 0.6871849061770854 0.36618698731197613 0.43153140555509567
2 0.534666666666667 0.43137254901960775 0.13066666666666704 0.13415892672858618
3 0.6446666666666667 0.4406604747162023 0.14533333333333334 0.13622291021671826
0 0.4893333333333328 0.39164086687306515 0.2906666666666666 0.2920536635706916
