1 0.508 0.4463894967177243 0.4 0.27571115973741794
4 0.43664202261821183 0.6894747178391217 0.37991214807140167 0.46459412733429817
2 0.5013333333333335 0.4113785557986873 0.12533333333333366 0.14004376367614885
3 0.616 0.41356673960612683 0.14133333333333337 0.1400437636761488
0 0.47945415418982046 0.36900411134411876 0.295657155269882 0.3148476878641965
