1 0.6899545148193389 0.4816778311880985 0.4437725644899036 0.35986998936165276
4 0.5491325899019347 0.7040703346967376 0.3844711969482052 0.45934209529580416
2 0.7957382344383928 0.4776106737879324 0.1597154946396509 0.17250656239217776
3 0.7961347036816262 0.4813443059386533 0.16409337941013605 0.17047202246744206
0 0.6446666666666663 0.40384615384615363 0.20133333333333314 0.2868131868131865
