1 0.5693333333333335 0.5266524520255864 0.31466666666666665 0.24733475479744135
4 0.5465539004882697 0.7408861243163594 0.3118713484019873 0.3892952050118014
2 0.5000000000000003 0.47974413646055425 0.1360000000000004 0.1364605543710021
3 0.638 0.48933901918976547 0.12933333333333333 0.1279317697228145
0 0.5753092244716396 0.4610130629195389 0.304895291440846 0.31451273150630527
