1 0.4953333333333333 0.5655650319829424 0.3933333333333332 0.26545842217484006
4 0.43651208503036487 0.7923913968869227 0.372759946355573 0.437456245909068
2 0.48133333333333356 0.5293176972281448 0.13333333333333366 0.13965884861407246
3 0.6053333333333333 0.5431769722814499 0.13866666666666663 0.13539445628997868
0 0.47733333333333294 0.49147121535181243 0.2879999999999996 0.31130063965884874
