1 0.5100000000000001 0.5211382113821138 0.316 0.35609756097560974
4 0.5533544843750032 0.772447836206986 0.3009250802302258 0.41092595068650667
2 0.598 0.4747967479674797 0.1026666666666667 0.16260162601626013
3 0.6033333333333334 0.4691056910569105 0.11600000000000003 0.17398373983739837
0 0.47026307779654225 0.42703581980556576 0.24604625477782135 0.41511573227976184
