1 0.517205493746864 0.4711866488806385 0.3714699164563695 0.27919649540545216
4 0.3927569084035497 0.6771788570010722 0.34874300511054557 0.428975077255039
2 0.6133333333333334 0.4541577825159914 0.12266666666666667 0.13859275053304904
3 0.6165911034743107 0.45553648351251136 0.14261305108558225 0.1557872541251426
0 0.4771439152685242 0.3881796015419938 0.1954915794238117 0.2813795454499906
