1 0.542 0.45575692963752684 0.3586666666666667 0.24840085287846514
4 0.4646304489202456 0.6526718819141439 0.31822562246326513 0.40689978890104384
2 0.6473333333333332 0.4173773987206822 0.13466666666666666 0.14392324093816627
3 0.6513333333333332 0.4168443496801706 0.13733333333333334 0.14072494669509594
0 0.5065795510372838 0.38579125343497567 0.22525889115117814 0.2526805591289029
