1 0.49133333333333334 0.4852297592997812 0.33466666666666667 0.237417943107221
4 0.49266666666666664 0.6931072210065646 0.2893333333333338 0.3665207877461706
2 0.40733333333333327 0.4452954048140046 0.12399999999999987 0.14004376367614896
3 0.5386666666666666 0.4436542669584245 0.13333333333333333 0.13676148796498905
0 0.4846666666666662 0.4059080962800879 0.2786666666666666 0.28884026258205775
