1 0.5493333333333335 0.5380116959064327 0.3973333333333333 0.37719298245614036
4 0.5954076485766785 0.7727513368974602 0.3786100126785064 0.45449732620508
2 0.6581698677941452 0.4836259194269394 0.1806504527284954 0.22732139425704836
3 0.6560110573712455 0.4847534352043626 0.20653116571799054 0.24268065924314258
0 0.5077899946693275 0.4306635375097196 0.3500133655539254 0.49454243449578256
