1 0.6339999999999999 0.4975 0.3293333333333333 0.3483333333333334
4 0.6216228409593141 0.7513441551303152 0.2581850857613951 0.4697032929912166
2 0.7133333333333336 0.4566666666666665 0.0986666666666669 0.15666666666666657
3 0.7186666666666663 0.45666666666666655 0.11466666666666639 0.15999999999999995
0 0.6111228362831053 0.38437423963478085 0.29513933888176214 0.36631553343116197
