1 0.4946666666666667 0.5463752665245203 0.32800000000000007 0.23987206823027718
4 0.4893333333333333 0.7494669509594882 0.29333333333333333 0.3326226012793177
2 0.42200000000000004 0.5117270788912581 0.12133333333333333 0.11940298507462685
3 0.5493333333333333 0.5122601279317697 0.11733333333333333 0.1140724946695096
0 0.4826666666666663 0.47707889125799574 0.27466666666666656 0.2633262260127932
