1 0.4613333333333334 0.5077081192189106 0.46400000000000013 0.30626927029804735
4 0.357586807527389 0.7432266918878088 0.45868829984724435 0.5251184860904223
2 0.5190867831184544 0.4445553965292639 0.16843084095237287 0.1831476311736097
3 0.6069827402058945 0.4749143111254236 0.2140694673383762 0.1849230707913724
0 0.4093333333333335 0.42291880781089447 0.2746666666666666 0.32579650565262136
