1 0.5597622910053422 0.34943683681658927 0.4347912484641623 0.3577829499719903
4 0.42962700115688324 0.5578039884493533 0.37354623282041943 0.44543189524206184
2 0.6795567820541247 0.35027827529059136 0.1866490729334268 0.19641699999813994
3 0.6744891699737657 0.3524664906848308 0.19116612746578604 0.1937576517875881
0 0.5187372402676332 0.25859341303707084 0.23293310327262526 0.29545894481767493
