1 0.5746666666666665 0.4321663019693654 0.3306666666666666 0.25820568927789933
4 0.5713333333333335 0.6712253829321665 0.28933333333333333 0.3971553610503282
2 0.5040000000000001 0.3884026258205686 0.12800000000000009 0.14879649890590804
3 0.6433333333333333 0.39113785557986863 0.12933333333333333 0.15426695842450766
0 0.5773333333333325 0.3665207877461707 0.29599999999999965 0.29321663019693656
