1 0.5666666666666668 0.6716666666666667 0.2693333333333333 0.29333333333333333
4 0.5706666666666668 0.8666666666666666 0.23733333333333329 0.26666666666666644
2 0.5106666666666666 0.6266666666666667 0.10666666666666666 0.18666666666666668
3 0.628 0.6225 0.11199999999999999 0.18166666666666667
0 0.5653333333333334 0.586666666666667 0.2533333333333333 0.3933333333333341
