1 0.6259999999999999 0.3292053663570691 0.35333333333333333 0.2724458204334365
4 0.6080000000000001 0.5691434468524252 0.30933333333333335 0.36429308565531476
2 0.5400000000000003 0.27554179566563486 0.15200000000000016 0.15067079463364302
3 0.7013333333333333 0.28070175438596495 0.152 0.15067079463364297
0 0.6133333333333328 0.2688338493292053 0.3306666666666661 0.31888544891640846
