1 0.4773333333333333 0.40426695842450755 0.37066666666666653 0.2461706783369803
4 0.3864524775970085 0.63501864886615 0.3361877573179391 0.4393093603489651
2 0.5900000000000001 0.39989059080962797 0.14266666666666666 0.15645514223194748
3 0.5926666666666666 0.39879649890590807 0.14 0.15426695842450766
0 0.4169683904476822 0.32345923583803676 0.2488327365113027 0.3162091160108109
