1 0.572 0.43 0.2613333333333333 0.3133333333333333
4 0.6002679880381168 0.739523263912682 0.3067540137651447 0.4832008494876726
2 0.506 0.37999999999999995 0.11600000000000003 0.18
3 0.6266666666666668 0.3783333333333333 0.12266666666666667 0.18
0 0.5624399047345048 0.3680810257152919 0.28652125040948845 0.4176351466842604
