1 0.5106666666666668 0.4682713347921226 0.4106666666666668 0.2954048140043764
4 0.4157411089207342 0.7274673933935953 0.42784976587982837 0.5117068455295387
2 0.502 0.4294310722100654 0.13733333333333325 0.14332603938730842
3 0.6226666666666667 0.45733041575492345 0.14133333333333337 0.1334792122538293
0 0.4633333333333332 0.41247264770240677 0.2839999999999999 0.2975929978118158
