1 0.4813333333333333 0.456 0.6613333333333332 0.26171428571428573
4 0.48133333333333334 0.5717142857142857 0.584 0.04857142857142857
2 0.31000000000000016 0.4094285714285712 0.286666666666667 0.15828571428571409
3 0.6386666666666667 0.41171428571428564 0.28266666666666673 0.16057142857142856
0 0.46799999999999975 0.4174285714285712 0.6266666666666664 0.31942857142857095
