1 0.48066666666666663 0.4852297592997812 0.42 0.3161925601750547
4 0.40184817750504565 0.716739387923978 0.3891419312389513 0.4497133995630827
2 0.4786666666666666 0.4584245076586431 0.1279999999999999 0.14879649890590804
3 0.5946666666666666 0.4688183807439825 0.13333333333333333 0.15207877461706787
0 0.4526666666666665 0.4091903719912473 0.26533333333333325 0.3304157549234136
