1 0.45599999999999996 0.6804878048780487 0.27733333333333327 0.2878048780487805
4 0.44866666666666666 0.875609756097561 0.2333333333333333 0.24878048780487805
2 0.38866666666666666 0.6333333333333333 0.10533333333333333 0.17723577235772361
3 0.5106666666666668 0.6398373983739837 0.11733333333333333 0.18048780487804886
0 0.4500000000000001 0.5959349593495934 0.2599999999999999 0.395121951219512
