1 0.5866666666666667 0.49124726477024067 0.33333333333333326 0.2603938730853392
4 0.5753333333333334 0.736870897155361 0.3 0.3927789934354486
2 0.5159999999999999 0.44474835886214437 0.13333333333333322 0.13238512035010946
3 0.6553333333333333 0.45076586433260396 0.132 0.13566739606126915
0 0.5753333333333349 0.43107221006564544 0.2920000000000004 0.31509846827133486
