1 0.44333333333333336 0.5875 0.292 0.3016666666666667
4 0.4684181416811569 0.803150928221666 0.2649114840474223 0.3512814779704945
2 0.5280000000000001 0.5549999999999998 0.11733333333333337 0.15999999999999995
3 0.5306666666666667 0.5566666666666668 0.1066666666666667 0.15666666666666665
0 0.4205129826771566 0.46175303898507863 0.2842957779042208 0.4569039619254315
