1 0.5933333333333333 0.4664179104477612 0.3493333333333332 0.2185501066098081
4 0.5037662834315529 0.6898585560307299 0.3179616422768271 0.41503089965338175
2 0.694 0.4626865671641791 0.132 0.14072494669509594
3 0.7006666666666668 0.46481876332622596 0.14 0.13859275053304904
0 0.5431486115705391 0.4091366144741301 0.2310088710223509 0.3004529207972735
