1 0.43 0.7416666666666666 0.2733333333333333 0.31
4 0.4346666666666667 0.9075 0.24 0.185
2 0.36199999999999993 0.6825 0.1026666666666667 0.165
3 0.47600000000000003 0.6758333333333333 0.11733333333333333 0.1716666666666667
0 0.4260852144486391 0.6379375751205223 0.25320591059991593 0.4595838563555333
