1 0.37799999999999995 0.5383795309168444 0.37733333333333335 0.255863539445629
4 0.30159633872815955 0.7504601968916925 0.37255736199973344 0.4381398821104145
2 0.3633333333333331 0.5042643923240937 0.1186666666666664 0.13006396588486127
3 0.484 0.5159914712153519 0.128 0.1279317697228145
0 0.3359999999999998 0.45469083155650275 0.27466666666666667 0.30810234541577736
