1 0.5693312977673424 0.4972155414157585 0.3773397921120114 0.2639000829360815
4 0.44007434805294054 0.6943075768430027 0.3451185818162913 0.41370388272418296
2 0.6714816413646928 0.5122031262479788 0.15517729711090708 0.16720840844093715
3 0.6724303171197534 0.510981865747659 0.15949442062164557 0.16549456381414415
0 0.5270301643034283 0.425356780501276 0.19079218388048616 0.27069244711059726
