1 0.38799999999999996 0.47190366972477077 0.41333333333333333 0.30160550458715596
4 0.4405241890766824 0.7343815866434287 0.37780560017754994 0.4809167492403915
2 0.5305285472666083 0.4397584060534001 0.19329725305211176 0.2071864507253086
3 0.5279755773164214 0.44024924428828455 0.2024907526185258 0.2148792817251025
0 0.37427576627052445 0.40811749827914684 0.3274240811581055 0.4013246375637624
