1 0.5446666666666669 0.5096774193548387 0.3880000000000001 0.30451612903225805
4 0.527626685217415 0.7661335361172347 0.3125122929571215 0.44034486511061344
2 0.6553333333333333 0.4741935483870968 0.16133333333333333 0.1870967741935484
3 0.6539999999999999 0.4735483870967738 0.1666666666666668 0.18064516129032246
0 0.4964559450708728 0.39038044642184344 0.29681350989228805 0.44727260207842234
