1 0.4693333333333332 0.4819474835886215 0.35199999999999987 0.23960612691466082
4 0.4733333333333334 0.7160831509846827 0.32800000000000007 0.37089715536105033
2 0.3886666666666666 0.44638949671772493 0.1346666666666666 0.13785557986870908
3 0.534 0.4431072210065646 0.14266666666666666 0.13129102844638946
0 0.4599999999999993 0.40098468271334803 0.2906666666666664 0.34026258205689297
