1 0.6043261987190597 0.5216085314891743 0.3759512109044161 0.26746631590306713
4 0.46814900610346455 0.7044006479348092 0.3332845586173946 0.38943939320208787
2 0.6966666666666665 0.502132196162047 0.13733333333333334 0.13219616204690832
3 0.696 0.5063965884861408 0.13600000000000004 0.13219616204690832
0 0.5385444767195067 0.43141711613289746 0.19182497984645985 0.2858119782734542
