1 0.5266666666666667 0.5319829424307037 0.46400000000000013 0.3411513859275053
4 0.4551781382084758 0.7415333186760726 0.3915201295155356 0.4507367534346227
2 0.5326666666666668 0.4882729211087419 0.13466666666666702 0.1449893390191897
3 0.6526666666666666 0.5026652452025586 0.124 0.14392324093816627
0 0.5126666666666663 0.4339019189765459 0.27866666666666645 0.3411513859275052
