1 0.46 0.4576086956521739 0.48266666666666663 0.3239130434782609
4 0.38485105885404103 0.7288793025133091 0.45478328979821225 0.5220954883150586
2 0.4453333333333336 0.3999999999999997 0.14666666666666678 0.1673913043478261
3 0.5866666666666667 0.4130434782608695 0.17599999999999993 0.17391304347826086
0 0.4103443151483029 0.3775705425769324 0.37638046401108965 0.3601496927554246
