1 0.5166666666666667 0.4775711159737417 0.38533333333333347 0.2636761487964989
4 0.4649481313371476 0.6958213495981633 0.3522912244667782 0.43798697031077694
2 0.4940000000000003 0.4474835886214443 0.11866666666666723 0.1444201312910284
3 0.6113333333333333 0.44912472647702406 0.13733333333333334 0.13457330415754923
0 0.48933333333333356 0.38676148796498894 0.30133333333333345 0.30743982494529515
