1 0.46666666666666673 0.524390243902439 0.33866666666666667 0.3853658536585366
4 0.5229013874522067 0.7794299440488337 0.3378345836782621 0.44114011190233204
2 0.564 0.475609756097561 0.11733333333333333 0.17073170731707318
3 0.568 0.46341463414634143 0.13333333333333333 0.1886178861788618
0 0.4022715313218616 0.41977855536207187 0.2557293850714987 0.4396459187470228
