1 0.5139999999999999 0.4422084623323013 0.452 0.28586171310629527
4 0.4214730239805195 0.7032152636259557 0.4341109170762991 0.5095166671033894
2 0.5313333333333332 0.4174406604747161 0.13733333333333309 0.1578947368421052
3 0.6393333333333334 0.43395252837977305 0.16400000000000003 0.14138286893704854
0 0.4739999999999994 0.37874097007223967 0.32933333333333287 0.3302373581011355
