1 0.5393333333333333 0.5202558635394456 0.3453333333333333 0.23667377398720682
4 0.5253333333333333 0.7366737739872068 0.304 0.3646055437100213
2 0.46666666666666673 0.4802771855010659 0.1386666666666666 0.126865671641791
3 0.6146666666666667 0.4861407249466951 0.13600000000000004 0.1257995735607676
0 0.5280000000000007 0.43603411513859286 0.30133333333333345 0.30277185501066095
