1 0.41533333333333333 0.5404984423676014 0.45733333333333337 0.3312564901349949
4 0.37217208986643213 0.7480337338707738 0.38942200812483635 0.41572038169533065
2 0.4286666666666666 0.4932502596053996 0.14266666666666664 0.14122533748701963
3 0.55 0.4927310488058151 0.16933333333333334 0.146417445482866
0 0.39300953344252165 0.42293620706010643 0.3430568566713372 0.34719818151900694
