1 0.37000000000000016 0.4613924050632911 0.38533333333333347 0.31772151898734174
4 0.4295142585034186 0.7322045533515364 0.37775858061885487 0.4993478212559001
2 0.4726666666666665 0.42215189873417686 0.1666666666666666 0.1810126582278479
3 0.47466666666666657 0.41835443037974684 0.16533333333333297 0.18607594936708857
0 0.3404903936391511 0.3591076478781967 0.32102688740614227 0.4640488183387231
