1 0.6046666666666667 0.24583333333333332 0.324 0.365
4 0.5966666666666667 0.5691666666666667 0.2866666666666667 0.515
2 0.524 0.1775 0.12266666666666667 0.20166666666666663
3 0.664 0.1716666666666667 0.14399999999999996 0.2033333333333333
0 0.5886666666666661 0.190833333333333 0.3159999999999996 0.381666666666666
