1 0.6093077690902446 0.5313662095158853 0.43257846820815266 0.34679282483293916
4 0.49230875377430267 0.7596200074411382 0.4026417688557584 0.45460639102934164
2 0.5940000000000002 0.5079957356076756 0.13200000000000045 0.13965884861407243
3 0.71 0.529317697228145 0.13466666666666666 0.13752665245202558
0 0.556666666666666 0.4557569296375267 0.25733333333333325 0.30597014925373117
