1 0.4720803699207387 0.38099088625941774 0.3755709541831678 0.31213651371011086
4 0.46486516372424164 0.6387307813949237 0.3369346859714538 0.4055570910463505
2 0.3886666666666666 0.33862144420131296 0.14533333333333315 0.15426695842450766
3 0.5506666666666667 0.3402625820568928 0.152 0.15973741794310722
0 0.4552425278083386 0.309303390893605 0.364673585120662 0.3552952418212911
