1 0.4586666666666666 0.3505494505494506 0.37866666666666665 0.26593406593406593
4 0.48551175896151477 0.6123563892384507 0.3548512878339913 0.40312193922982426
2 0.38133333333333325 0.3060439560439562 0.15466666666666665 0.16593406593406587
3 0.5466666666666666 0.3098901098901099 0.16266666666666665 0.14945054945054945
0 0.4633333333333326 0.2824175824175821 0.3479999999999995 0.3538461538461531
