1 0.45466666666666666 0.4856076759061833 0.35733333333333334 0.24413646055437102
4 0.48879192176350467 0.6958876314829304 0.3354684020261676 0.4122225973495559
2 0.5606666666666666 0.4605543710021322 0.12933333333333333 0.1300639658848614
3 0.5626666666666668 0.4589552238805969 0.1333333333333334 0.1353944562899787
0 0.45208382368386957 0.42689126322348586 0.28059432589485583 0.35419183008299737
