1 0.5720000000000001 0.5485074626865671 0.31733333333333336 0.23987206823027718
4 0.5586666666666666 0.7665245202558634 0.2986666666666667 0.3582089552238806
2 0.5013333333333333 0.5010660980810235 0.12533333333333332 0.12793176972281453
3 0.6319999999999998 0.5074626865671641 0.12799999999999975 0.1257995735607676
0 0.5619999999999997 0.48134328358208955 0.2946666666666666 0.2931769722814497
