1 0.5740000000000001 0.5287846481876332 0.396 0.27292110874200426
4 0.5599999999999998 0.7249466950959486 0.27733333333333343 0.3646055437100212
2 0.5746666666666667 0.47494669509594883 0.10400000000000001 0.12473347547974413
3 0.6786666666666668 0.4754797441364606 0.13066666666666665 0.12153518123667377
0 0.5404072537668635 0.4537172913145595 0.30364810627408834 0.2898975507072726
