1 0.4906666666666667 0.22357723577235775 0.31733333333333336 0.2845528455284553
4 0.3501561858301622 0.47178122180151605 0.3753545041699839 0.485395013944981
2 0.5853333333333334 0.22682926829268277 0.11999999999999991 0.20975609756097538
3 0.5906666666666667 0.22520325203252034 0.12533333333333346 0.20975609756097566
0 0.4600007082089144 0.1520179188607689 0.20795885714452098 0.3444003959014627
