1 0.4713333333333333 0.4577272727272728 0.43866666666666665 0.26818181818181824
4 0.48036229613106424 0.6824425725323294 0.36842065845149835 0.45402160439820277
2 0.600666666666667 0.43590909090909086 0.17200000000000074 0.14272727272727262
3 0.5993333333333333 0.43409090909090897 0.1746666666666665 0.15181818181818169
0 0.48202424136884386 0.40407691481990127 0.3251673689657235 0.3610375695977923
