1 0.5240548019786777 0.5332134324379618 0.3792655594065468 0.2761167875111715
4 0.40401664022005834 0.7338436936972057 0.36468315305197 0.4290988883313767
2 0.6253333333333334 0.5172413793103449 0.13066666666666665 0.14870689655172414
3 0.63 0.5183189655172415 0.13733333333333334 0.14439655172413793
0 0.47718451896025826 0.4534405367908789 0.21941040279968058 0.28855426092854075
