1 0.49066666666666664 0.476976542137272 0.48533333333333334 0.29018245004344057
4 0.4846666666666667 0.7263249348392702 0.41733333333333333 0.33883579496090355
2 0.37999999999999984 0.4222415291051261 0.2106666666666664 0.1702867072111208
3 0.602 0.42875760208514335 0.20666666666666667 0.16941789748045177
0 0.4826666666666665 0.41833188531711585 0.4586666666666666 0.3518679409209387
