1 0.5360281609373814 0.36239162235581546 0.4393314502220063 0.44564094732687776
4 0.40658613891980594 0.6280801606955417 0.5281486555397005 0.6564425557529787
2 0.5329274879610504 0.28850652470478805 0.17276366078476543 0.21750410532244288
3 0.6540753652017064 0.32570038193408146 0.16998149732083526 0.2083241754996358
0 0.5059999999999995 0.3094098883572567 0.2759999999999997 0.26794258373205726
