1 0.5153333333333333 0.43113425925925924 0.42533333333333334 0.29282407407407407
4 0.42047890748750616 0.6803671163969675 0.4444174887209019 0.5334904250160443
2 0.5266666666666665 0.40451388888888906 0.13066666666666635 0.14930555555555572
3 0.6453333333333333 0.4172453703703704 0.12533333333333332 0.1400462962962963
0 0.48333333333333284 0.3553240740740742 0.2599999999999999 0.3171296296296298
