1 0.44333333333333336 0.5650319829424307 0.396 0.2537313432835821
4 0.39770249687017 0.7698960918703801 0.3478819123197973 0.4001666337177879
2 0.4366666666666666 0.5362473347547979 0.11599999999999998 0.1364605543710023
3 0.5479999999999999 0.5495735607675907 0.11733333333333333 0.13539445628997868
0 0.41114623668810374 0.48777388504550956 0.3028101691039016 0.3176014611590637
