1 0.484 0.5483516483516484 0.44799999999999995 0.2923076923076924
4 0.3779867924480571 0.8081054704176153 0.44077398412851054 0.5309199001056302
2 0.534 0.5093406593406593 0.11600000000000006 0.15934065934065925
3 0.618 0.5247252747252747 0.16400000000000003 0.15494505494505495
0 0.4459999999999995 0.46428571428571447 0.2999999999999999 0.35494505494505524
