1 0.47865656602184287 0.38234286769319115 0.4408580388632886 0.33965623707149833
4 0.5237856137918453 0.6335922895553532 0.4115713827166465 0.4328111792354094
2 0.3798601610690441 0.35743060389672693 0.1860894632393172 0.18261584440555878
3 0.5428648674812238 0.3383641075034698 0.21548684670487447 0.21087230199586543
0 0.46359184900707545 0.3435742474120211 0.39956275308573036 0.3787982838936263
