1 0.5093333333333333 0.53 0.2613333333333333 0.27666666666666667
4 0.49999999999999983 0.7858333333333332 0.17599999999999993 0.41166666666666674
2 0.5873333333333332 0.5191666666666667 0.10533333333333333 0.16166666666666665
3 0.5866666666666667 0.5225 0.1066666666666667 0.175
0 0.4865100559257297 0.4164698222893843 0.2554279670333504 0.4106690270916667
