1 0.522 0.5309168443496801 0.36933333333333346 0.27505330490405117
4 0.4521784963253522 0.7426342409604597 0.3714821829783088 0.4495962077832445
2 0.5319999999999997 0.49147121535181243 0.1013333333333331 0.12366737739872063
3 0.6326666666666667 0.5037313432835822 0.124 0.12046908315565032
0 0.49333333333333274 0.4541577825159915 0.2506666666666664 0.27078891257995763
