1 0.4801678799546811 0.49987813928525027 0.3109050101957658 0.34594953345829516
4 0.5101009838197428 0.7717316112294981 0.2858933767871281 0.4381622058216965
2 0.41953723083985994 0.45772915914540113 0.1276218895219067 0.16859177906632922
3 0.5273527640455203 0.43918976516516006 0.144803099213795 0.18344177615023782
0 0.4646346779058908 0.4245753260766382 0.3059880539588622 0.4326521939223344
