1 0.5706666666666667 0.5474413646055436 0.37333333333333335 0.26332622601279315
4 0.5553333333333333 0.7803837953091685 0.31866666666666665 0.36247334754797433
2 0.4859999999999996 0.5106609808102343 0.1506666666666664 0.14712153518123647
3 0.6339999999999999 0.511727078891258 0.14 0.14498933901918976
0 0.5703302263792248 0.47899336700006473 0.33395971543662695 0.3252927026070333
