1 0.48733333333333334 0.5533333333333333 0.3 0.33
4 0.46066666666666656 0.8091666666666665 0.18266666666666662 0.38166666666666643
2 0.5717311434768076 0.5508162279458424 0.15186018128343248 0.2026204850753652
3 0.5737776594372721 0.5470621346502472 0.15375592086278558 0.19145199132645033
0 0.47005372950483365 0.4558129021479336 0.33879034447060474 0.42750157320452503
