1 0.47869646428660273 0.48945406110077516 0.3503251240944097 0.36422526389202686
4 0.5453552193871258 0.7478297768851115 0.37032843215120254 0.4685161557299194
2 0.4094419246785161 0.45231153106980093 0.15308876472608368 0.19835331796188668
3 0.5261067667502377 0.42102760117908067 0.17573107860056786 0.21643650617118426
0 0.4618605885421561 0.4227338809669179 0.3753992857863652 0.4291505335482607
