1 0.5426666666666666 0.49840085287846475 0.4 0.291044776119403
4 0.5166841967410997 0.7176976412339195 0.34343869084780637 0.4111686973813734
2 0.5566666666666668 0.46428571428571425 0.11600000000000003 0.15458422174840086
3 0.662 0.46908315565031977 0.13466666666666666 0.14285714285714282
0 0.5130696281719667 0.4268642135076536 0.28323155040088877 0.28529499803387415
