1 0.5631879108114353 0.5513426931632909 0.450828276558848 0.37259701515172666
4 0.3863092704521995 0.73301495540198 0.4148871965369642 0.42803864300566746
2 0.6762164561068029 0.5453708718564965 0.167719907260728 0.1705164860185151
3 0.6858843150609404 0.5502767864679765 0.19179504197108457 0.19103137285914953
0 0.5206666666666662 0.46115537848605564 0.2013333333333334 0.2788844621513945
