1 0.531939634357355 0.47372892834520175 0.43484518216497803 0.3281040006827004
4 0.4236793819281173 0.6921823463457594 0.4250634979611652 0.48172245672829234
2 0.54 0.4277605779153763 0.12533333333333352 0.14344685242518052
3 0.6433333333333333 0.4458204334365325 0.14800000000000002 0.13622291021671826
0 0.4799999999999994 0.3808049535603717 0.2879999999999996 0.33436532507739963
