1 0.4946666666666667 0.4392778993435449 0.44 0.31838074398249455
4 0.4465715654613697 0.7077917035677449 0.3995039679510422 0.4794515057881902
2 0.4686666666666669 0.4004376367614883 0.14533333333333373 0.15536105032822767
3 0.6026666666666667 0.4113785557986872 0.14666666666666667 0.15317286652078774
0 0.4634266095504489 0.3750230566663872 0.3438842443747424 0.3214007604223741
