1 0.5066666666666667 0.466966966966967 0.3920000000000001 0.2712712712712712
4 0.498 0.7077077077077079 0.324 0.3843843843843844
2 0.4279999999999999 0.4289289289289288 0.1466666666666664 0.15915915915915915
3 0.5873333333333334 0.4344344344344344 0.14800000000000002 0.15615615615615616
0 0.5046666666666674 0.38488488488488515 0.34533333333333344 0.32532532532532565
