1 0.5366666666666667 0.4405506883604505 0.3506666666666668 0.2653316645807259
4 0.4725969479054989 0.686383175874139 0.38179814964946907 0.4797874725662385
2 0.5360000000000001 0.4211514392991239 0.12000000000000027 0.15394242803504385
3 0.6473333333333333 0.4311639549436795 0.11866666666666667 0.1439299123904881
0 0.5239999999999994 0.3767209011264079 0.2559999999999998 0.29536921151439266
