1 0.53 0.45916666666666667 0.2866666666666667 0.29833333333333334
4 0.6031912849532852 0.728776814483013 0.3135922810081936 0.46271067328667104
2 0.6213333333333333 0.42833333333333334 0.1066666666666667 0.16
3 0.6233333333333334 0.4316666666666667 0.1026666666666667 0.16666666666666663
0 0.5085554923935801 0.37565639834485653 0.23135974335542628 0.4085522433657406
