1 0.5251454801031663 0.5211918355162861 0.4607818297864133 0.35186411505262244
4 0.40879496862599596 0.7451257804273392 0.44054256703376937 0.5009717013576321
2 0.5279999999999999 0.48968008255933915 0.1386666666666664 0.15170278637770887
3 0.644 0.49845201238390097 0.14666666666666667 0.15273477812177502
0 0.48333333333333295 0.4236326109391122 0.27866666666666656 0.32920536635706865
