1 0.5506666666666666 0.4941666666666666 0.29600000000000004 0.3283333333333333
4 0.6223478342238447 0.7515259231980339 0.32785203149427816 0.4411249365831526
2 0.6326666666666667 0.44333333333333336 0.09733333333333331 0.14666666666666667
3 0.6393333333333333 0.44833333333333336 0.1 0.16
0 0.5236790312460076 0.39472187447722845 0.2087158870440475 0.38529856561199294
