1 0.5613333333333334 0.4637526652452026 0.376 0.21748400852878466
4 0.48213940734590977 0.6973214302406512 0.30008111823498645 0.41781079681027594
2 0.6733333333333333 0.45788912579957347 0.13600000000000004 0.13752665245202558
3 0.6713333333333332 0.4546908315565032 0.13733333333333334 0.1396588486140725
0 0.500124992026069 0.38579384693345614 0.24901853495880275 0.3236900647494832
