1 0.38666666666666677 0.5258241758241758 0.3466666666666668 0.24945054945054945
4 0.39266666666666666 0.7857142857142858 0.31066666666666665 0.3846153846153847
2 0.30266666666666664 0.48516483516483516 0.13066666666666654 0.13956043956043956
3 0.45 0.48406593406593407 0.14266666666666666 0.1461538461538462
0 0.3860000000000002 0.42912087912087954 0.2973333333333336 0.38351648351648465
