1 0.412 0.5101279317697228 0.39466666666666667 0.23987206823027718
4 0.36513599193764606 0.7390260846484796 0.34710963831825026 0.4139447147952686
2 0.3686666666666667 0.4808102345415779 0.12933333333333333 0.13646055437100213
3 0.49666666666666665 0.48294243070362475 0.14266666666666666 0.1300639658848614
0 0.3793333333333333 0.4509594882729209 0.3106666666666664 0.2857142857142854
