1 0.5360166135295278 0.5012527880237565 0.42723040449051125 0.33500680666515115
4 0.38480169798245256 0.7172093654305064 0.4163536852970741 0.479637002737484
2 0.642 0.47802197802197804 0.14266666666666666 0.15604395604395604
3 0.6466666666666667 0.4840659340659342 0.15200000000000005 0.1681318681318681
0 0.47569589499167736 0.39545854046690865 0.23603541185947427 0.345071889197842
