1 0.4819999999999999 0.5255863539445629 0.37466666666666654 0.26865671641791045
4 0.4011895100956939 0.7714358330195765 0.40032504484819287 0.48211670506500215
2 0.4973333333333334 0.5085287846481874 0.12533333333333335 0.14498933901918973
3 0.6013333333333333 0.5207889125799573 0.128 0.14392324093816627
0 0.46466666666666634 0.4728144989339021 0.2519999999999997 0.2974413646055438
