1 0.6346666666666667 0.5406593406593406 0.4320000000000001 0.28791208791208783
4 0.5553689797325427 0.7846360148737898 0.4082747957789469 0.4705368891790894
2 0.6246666666666667 0.5021978021978022 0.12400000000000022 0.14725274725274726
3 0.7526666666666667 0.5142857142857143 0.15066666666666667 0.1450549450549451
0 0.5879999999999997 0.45714285714285685 0.3306666666666662 0.33626373626373585
