1 0.5978032462814248 0.4509582680535189 0.4251668496699662 0.30758601951365905
4 0.4522500251624645 0.6689426258087826 0.41058470468553765 0.46788928562602394
2 0.7066666666666666 0.429120879120879 0.15466666666666667 0.16153846153846152
3 0.7046666666666667 0.4258241758241757 0.14533333333333334 0.15494505494505495
0 0.5436845776148647 0.3501174015651618 0.23749043570192327 0.34012429085646884
