1 0.5026666666666667 0.4704433497536947 0.33333333333333326 0.25862068965517243
4 0.4418328634913912 0.7085086617688562 0.36255615089622123 0.4859601371325701
2 0.4806666666666668 0.43534482758620674 0.11866666666666667 0.1366995073891626
3 0.6 0.4439655172413793 0.12533333333333332 0.1416256157635468
0 0.47400000000000075 0.373152709359606 0.2813333333333336 0.3497536945812809
