1 0.494 0.44583333333333336 0.3 0.3016666666666667
4 0.49086522136338556 0.7062776548034381 0.2550700433164135 0.46200628135739563
2 0.565957265074267 0.4283453980659042 0.17955336927773502 0.19591429497858442
3 0.5672358748127121 0.4216964864265045 0.18537029524448428 0.19346065126675185
0 0.46272076910198207 0.3395379658364256 0.3791972492157694 0.4222510139179289
