1 0.4814966643595392 0.6761419335166873 0.30737732697813563 0.327225751146598
4 0.4979500222036509 0.8613693368722021 0.2709418361527102 0.26579254701416516
2 0.4216662236763928 0.6362575273029397 0.12285343123433137 0.18593938426509965
3 0.5292867739044348 0.6293117190045143 0.14182712299253283 0.1952891450709285
0 0.46557561398224706 0.618649451195029 0.3181974147157672 0.37953134697527047
