1 0.6333333333333333 0.691869918699187 0.2986666666666667 0.2845528455284553
4 0.6266666666666667 0.8764227642276423 0.25866666666666666 0.24715447154471545
2 0.5666666666666668 0.6495934959349593 0.11199999999999999 0.17723577235772361
3 0.6826666666666668 0.6471544715447155 0.12 0.18536585365853658
0 0.6300000000000001 0.6219512195121952 0.2546666666666665 0.3886178861788621
