1 0.6386993182672893 0.5333296910347989 0.4599930974867286 0.38126648638160693
4 0.5172242976227156 0.7597831833072788 0.44398344840971193 0.4988958120015166
2 0.6305861638485419 0.4737819068218346 0.14400270508114288 0.17353689569082129
3 0.740441155990064 0.5075553199289788 0.15059610210379304 0.18038966068982062
0 0.5819999999999996 0.45714285714285735 0.2706666666666666 0.3010989010989014
