1 0.5506666666666667 0.4633479212253829 0.35733333333333334 0.2549234135667396
4 0.5513333333333333 0.6892778993435448 0.30533333333333335 0.3741794310722101
2 0.4693333333333334 0.42396061269146607 0.13333333333333355 0.13238512035010952
3 0.61 0.4223194748358861 0.12933333333333333 0.13566739606126915
0 0.5480000000000009 0.38074398249452934 0.2986666666666667 0.2997811816192556
