1 0.4126666666666667 0.5325 0.276 0.295
4 0.42572142820613296 0.7816220467813955 0.25905706439016485 0.3967024718319356
2 0.4886666666666665 0.5166666666666666 0.10800000000000003 0.16
3 0.4873333333333334 0.5224999999999997 0.10533333333333314 0.1716666666666666
0 0.38128622325849904 0.4337307022098332 0.29677986539098056 0.4110965838179838
