1 0.4266666666666666 0.2967032967032967 0.424 0.28791208791208783
4 0.4264863742873284 0.5547781263141025 0.3106073618859279 0.443394077232898
2 0.5696718113483678 0.2835563788867394 0.19383940543027145 0.20639492148562585
3 0.5816852025151201 0.2829853684507647 0.2218270493967215 0.22281204358115986
0 0.4346188578879955 0.24151171088412798 0.34749893412117044 0.3811621182069303
