1 0.3733333333333333 0.5399786780383795 0.42133333333333334 0.291044776119403
4 0.3353377493586757 0.753556558975092 0.34209511151891187 0.3695382947626715
2 0.39 0.5133262260127932 0.13466666666666674 0.1247334754797442
3 0.49866666666666665 0.5149253731343284 0.14666666666666667 0.13219616204690832
0 0.33611779224796534 0.46358476523576203 0.32864650256096367 0.3123608440617617
