1 0.5706666666666667 0.4830415754923413 0.39466666666666667 0.2680525164113786
4 0.48665199943323545 0.7474979052736948 0.4271347665153398 0.5019847964109897
2 0.5606666666666666 0.4567833698030635 0.13733333333333353 0.14113785557986877
3 0.6846666666666666 0.4770240700218818 0.14800000000000002 0.1400437636761488
0 0.5413333333333321 0.42450765864332607 0.28533333333333283 0.3304157549234136
