1 0.4646666666666667 0.2691897654584222 0.31066666666666665 0.21428571428571427
4 0.4861191823091541 0.4922054636903741 0.3455912606282936 0.3997312810190414
2 0.3893333333333333 0.23987206823027718 0.12 0.13859275053304904
3 0.526 0.23614072494669514 0.13733333333333334 0.13539445628997868
0 0.45799008317734335 0.20599823374779752 0.3273876382364351 0.31187834101591383
