1 0.43866666666666676 0.4573304157549234 0.41333333333333333 0.28665207877461707
4 0.3803967196672997 0.6886716388036335 0.37197213424180575 0.4456066206131629
2 0.4480000000000001 0.43271334792122523 0.12266666666666662 0.1389496717724289
3 0.5539999999999999 0.44365426695842447 0.132 0.1455142231947483
0 0.41200000000000003 0.3993435448577683 0.2533333333333333 0.2844638949671776
